%!PS-Adobe-3.0 EPSF-3.0
%%Creator: (MATLAB, The Mathworks, Inc. Version 9.9.0.1524771 \(R2020b\) Update 2. Operating System: Linux)
%%Title: /evo/src/dissertation/figs/modified-pitchforck-spatial-computed-1.eps
%%CreationDate: 2022-04-02T02:17:58
%%Pages: (atend)
%%BoundingBox:     0     0   446   324
%%LanguageLevel: 3
%%EndComments
%%BeginProlog
%%BeginResource: procset (Apache XML Graphics Std ProcSet) 1.2 0
%%Version: 1.2 0
%%Copyright: (Copyright 2001-2003,2010 The Apache Software Foundation. License terms: http://www.apache.org/licenses/LICENSE-2.0)
/bd{bind def}bind def
/ld{load def}bd
/GR/grestore ld
/GS/gsave ld
/RM/rmoveto ld
/C/curveto ld
/t/show ld
/L/lineto ld
/ML/setmiterlimit ld
/CT/concat ld
/f/fill ld
/N/newpath ld
/S/stroke ld
/CC/setcmykcolor ld
/A/ashow ld
/cp/closepath ld
/RC/setrgbcolor ld
/LJ/setlinejoin ld
/GC/setgray ld
/LW/setlinewidth ld
/M/moveto ld
/re {4 2 roll M
1 index 0 rlineto
0 exch rlineto
neg 0 rlineto
cp } bd
/_ctm matrix def
/_tm matrix def
/BT { _ctm currentmatrix pop matrix _tm copy pop 0 0 moveto } bd
/ET { _ctm setmatrix } bd
/iTm { _ctm setmatrix _tm concat } bd
/Tm { _tm astore pop iTm 0 0 moveto } bd
/ux 0.0 def
/uy 0.0 def
/F {
  /Tp exch def
  /Tf exch def
  Tf findfont Tp scalefont setfont
  /cf Tf def  /cs Tp def
} bd
/ULS {currentpoint /uy exch def /ux exch def} bd
/ULE {
  /Tcx currentpoint pop def
  gsave
  newpath
  cf findfont cs scalefont dup
  /FontMatrix get 0 get /Ts exch def /FontInfo get dup
  /UnderlinePosition get Ts mul /To exch def
  /UnderlineThickness get Ts mul /Tt exch def
  ux uy To add moveto  Tcx uy To add lineto
  Tt setlinewidth stroke
  grestore
} bd
/OLE {
  /Tcx currentpoint pop def
  gsave
  newpath
  cf findfont cs scalefont dup
  /FontMatrix get 0 get /Ts exch def /FontInfo get dup
  /UnderlinePosition get Ts mul /To exch def
  /UnderlineThickness get Ts mul /Tt exch def
  ux uy To add cs add moveto Tcx uy To add cs add lineto
  Tt setlinewidth stroke
  grestore
} bd
/SOE {
  /Tcx currentpoint pop def
  gsave
  newpath
  cf findfont cs scalefont dup
  /FontMatrix get 0 get /Ts exch def /FontInfo get dup
  /UnderlinePosition get Ts mul /To exch def
  /UnderlineThickness get Ts mul /Tt exch def
  ux uy To add cs 10 mul 26 idiv add moveto Tcx uy To add cs 10 mul 26 idiv add lineto
  Tt setlinewidth stroke
  grestore
} bd
/QT {
/Y22 exch store
/X22 exch store
/Y21 exch store
/X21 exch store
currentpoint
/Y21 load 2 mul add 3 div exch
/X21 load 2 mul add 3 div exch
/X21 load 2 mul /X22 load add 3 div
/Y21 load 2 mul /Y22 load add 3 div
/X22 load /Y22 load curveto
} bd
/SSPD {
dup length /d exch dict def
{
/v exch def
/k exch def
currentpagedevice k known {
/cpdv currentpagedevice k get def
v cpdv ne {
/upd false def
/nullv v type /nulltype eq def
/nullcpdv cpdv type /nulltype eq def
nullv nullcpdv or
{
/upd true def
} {
/sametype v type cpdv type eq def
sametype {
v type /arraytype eq {
/vlen v length def
/cpdvlen cpdv length def
vlen cpdvlen eq {
0 1 vlen 1 sub {
/i exch def
/obj v i get def
/cpdobj cpdv i get def
obj cpdobj ne {
/upd true def
exit
} if
} for
} {
/upd true def
} ifelse
} {
v type /dicttype eq {
v {
/dv exch def
/dk exch def
/cpddv cpdv dk get def
dv cpddv ne {
/upd true def
exit
} if
} forall
} {
/upd true def
} ifelse
} ifelse
} if
} ifelse
upd true eq {
d k v put
} if
} if
} if
} forall
d length 0 gt {
d setpagedevice
} if
} bd
/RE { % /NewFontName [NewEncodingArray] /FontName RE -
  findfont dup length dict begin
  {
    1 index /FID ne
    {def} {pop pop} ifelse
  } forall
  /Encoding exch def
  /FontName 1 index def
  currentdict definefont pop
  end
} bind def
%%EndResource
%%BeginResource: procset (Apache XML Graphics EPS ProcSet) 1.0 0
%%Version: 1.0 0
%%Copyright: (Copyright 2002-2003 The Apache Software Foundation. License terms: http://www.apache.org/licenses/LICENSE-2.0)
/BeginEPSF { %def
/b4_Inc_state save def         % Save state for cleanup
/dict_count countdictstack def % Count objects on dict stack
/op_count count 1 sub def      % Count objects on operand stack
userdict begin                 % Push userdict on dict stack
/showpage { } def              % Redefine showpage, { } = null proc
0 setgray 0 setlinecap         % Prepare graphics state
1 setlinewidth 0 setlinejoin
10 setmiterlimit [ ] 0 setdash newpath
/languagelevel where           % If level not equal to 1 then
{pop languagelevel             % set strokeadjust and
1 ne                           % overprint to their defaults.
{false setstrokeadjust false setoverprint
} if
} if
} bd
/EndEPSF { %def
count op_count sub {pop} repeat            % Clean up stacks
countdictstack dict_count sub {end} repeat
b4_Inc_state restore
} bd
%%EndResource
%FOPBeginFontDict
%%IncludeResource: font Courier-Oblique
%%IncludeResource: font Courier-BoldOblique
%%IncludeResource: font Courier-Bold
%%IncludeResource: font ZapfDingbats
%%IncludeResource: font Symbol
%%IncludeResource: font Helvetica
%%IncludeResource: font Helvetica-Oblique
%%IncludeResource: font Helvetica-Bold
%%IncludeResource: font Helvetica-BoldOblique
%%IncludeResource: font Times-Roman
%%IncludeResource: font Times-Italic
%%IncludeResource: font Times-Bold
%%IncludeResource: font Times-BoldItalic
%%IncludeResource: font Courier
%FOPEndFontDict
%%BeginResource: encoding WinAnsiEncoding
/WinAnsiEncoding [
/.notdef /.notdef /.notdef /.notdef /.notdef
/.notdef /.notdef /.notdef /.notdef /.notdef
/.notdef /.notdef /.notdef /.notdef /.notdef
/.notdef /.notdef /.notdef /.notdef /.notdef
/.notdef /.notdef /.notdef /.notdef /.notdef
/.notdef /.notdef /.notdef /.notdef /.notdef
/.notdef /.notdef /space /exclam /quotedbl
/numbersign /dollar /percent /ampersand /quotesingle
/parenleft /parenright /asterisk /plus /comma
/hyphen /period /slash /zero /one
/two /three /four /five /six
/seven /eight /nine /colon /semicolon
/less /equal /greater /question /at
/A /B /C /D /E
/F /G /H /I /J
/K /L /M /N /O
/P /Q /R /S /T
/U /V /W /X /Y
/Z /bracketleft /backslash /bracketright /asciicircum
/underscore /quoteleft /a /b /c
/d /e /f /g /h
/i /j /k /l /m
/n /o /p /q /r
/s /t /u /v /w
/x /y /z /braceleft /bar
/braceright /asciitilde /bullet /Euro /bullet
/quotesinglbase /florin /quotedblbase /ellipsis /dagger
/daggerdbl /circumflex /perthousand /Scaron /guilsinglleft
/OE /bullet /Zcaron /bullet /bullet
/quoteleft /quoteright /quotedblleft /quotedblright /bullet
/endash /emdash /asciitilde /trademark /scaron
/guilsinglright /oe /bullet /zcaron /Ydieresis
/space /exclamdown /cent /sterling /currency
/yen /brokenbar /section /dieresis /copyright
/ordfeminine /guillemotleft /logicalnot /sfthyphen /registered
/macron /degree /plusminus /twosuperior /threesuperior
/acute /mu /paragraph /middot /cedilla
/onesuperior /ordmasculine /guillemotright /onequarter /onehalf
/threequarters /questiondown /Agrave /Aacute /Acircumflex
/Atilde /Adieresis /Aring /AE /Ccedilla
/Egrave /Eacute /Ecircumflex /Edieresis /Igrave
/Iacute /Icircumflex /Idieresis /Eth /Ntilde
/Ograve /Oacute /Ocircumflex /Otilde /Odieresis
/multiply /Oslash /Ugrave /Uacute /Ucircumflex
/Udieresis /Yacute /Thorn /germandbls /agrave
/aacute /acircumflex /atilde /adieresis /aring
/ae /ccedilla /egrave /eacute /ecircumflex
/edieresis /igrave /iacute /icircumflex /idieresis
/eth /ntilde /ograve /oacute /ocircumflex
/otilde /odieresis /divide /oslash /ugrave
/uacute /ucircumflex /udieresis /yacute /thorn
/ydieresis
] def
%%EndResource
%FOPBeginFontReencode
/Courier-Oblique findfont
dup length dict begin
  {1 index /FID ne {def} {pop pop} ifelse} forall
  /Encoding WinAnsiEncoding def
  currentdict
end
/Courier-Oblique exch definefont pop
/Courier-BoldOblique findfont
dup length dict begin
  {1 index /FID ne {def} {pop pop} ifelse} forall
  /Encoding WinAnsiEncoding def
  currentdict
end
/Courier-BoldOblique exch definefont pop
/Courier-Bold findfont
dup length dict begin
  {1 index /FID ne {def} {pop pop} ifelse} forall
  /Encoding WinAnsiEncoding def
  currentdict
end
/Courier-Bold exch definefont pop
/Helvetica findfont
dup length dict begin
  {1 index /FID ne {def} {pop pop} ifelse} forall
  /Encoding WinAnsiEncoding def
  currentdict
end
/Helvetica exch definefont pop
/Helvetica-Oblique findfont
dup length dict begin
  {1 index /FID ne {def} {pop pop} ifelse} forall
  /Encoding WinAnsiEncoding def
  currentdict
end
/Helvetica-Oblique exch definefont pop
/Helvetica-Bold findfont
dup length dict begin
  {1 index /FID ne {def} {pop pop} ifelse} forall
  /Encoding WinAnsiEncoding def
  currentdict
end
/Helvetica-Bold exch definefont pop
/Helvetica-BoldOblique findfont
dup length dict begin
  {1 index /FID ne {def} {pop pop} ifelse} forall
  /Encoding WinAnsiEncoding def
  currentdict
end
/Helvetica-BoldOblique exch definefont pop
/Times-Roman findfont
dup length dict begin
  {1 index /FID ne {def} {pop pop} ifelse} forall
  /Encoding WinAnsiEncoding def
  currentdict
end
/Times-Roman exch definefont pop
/Times-Italic findfont
dup length dict begin
  {1 index /FID ne {def} {pop pop} ifelse} forall
  /Encoding WinAnsiEncoding def
  currentdict
end
/Times-Italic exch definefont pop
/Times-Bold findfont
dup length dict begin
  {1 index /FID ne {def} {pop pop} ifelse} forall
  /Encoding WinAnsiEncoding def
  currentdict
end
/Times-Bold exch definefont pop
/Times-BoldItalic findfont
dup length dict begin
  {1 index /FID ne {def} {pop pop} ifelse} forall
  /Encoding WinAnsiEncoding def
  currentdict
end
/Times-BoldItalic exch definefont pop
/Courier findfont
dup length dict begin
  {1 index /FID ne {def} {pop pop} ifelse} forall
  /Encoding WinAnsiEncoding def
  currentdict
end
/Courier exch definefont pop
%FOPEndFontReencode
%%EndProlog
%%Page: 1 1
%%PageBoundingBox: 0 0 446 324
%%BeginPageSetup
[1 0 0 -1 0 324] CT
%%EndPageSetup
GS
[0.78261 0 0 0.78261 0 -0.00003] CT
N
0 0 M
570 0 L
570 414 L
0 414 L
0 0 L
cp
clip
1 GC
N
0 0 570 414 re
f
GR
GS
[0.78261 0 0 0.78261 0 -0.00003] CT
1 GC
N
0 0 570 414 re
f
GR
GS
[0.78261 0 0 0.78261 0 -0.00003] CT
1 GC
N
74 368 M
516 368 L
516 31 L
74 31 L
cp
f
GR
GS
[0.78261 0 0 0.78261 0 -0.00003] CT
0.149 GC
2 setlinecap
1 LJ
0.639 LW
N
74 368 M
516 368 L
S
GR
GS
[0.78261 0 0 0.78261 0 -0.00003] CT
0.149 GC
2 setlinecap
1 LJ
0.639 LW
N
74 31 M
516 31 L
S
GR
GS
[0.78261 0 0 0.78261 0 -0.00003] CT
0.149 GC
2 setlinecap
1 LJ
0.639 LW
N
74 368 M
74 363.58 L
S
GR
GS
[0.78261 0 0 0.78261 0 -0.00003] CT
0.149 GC
2 setlinecap
1 LJ
0.639 LW
N
184.5 368 M
184.5 363.58 L
S
GR
GS
[0.78261 0 0 0.78261 0 -0.00003] CT
0.149 GC
2 setlinecap
1 LJ
0.639 LW
N
295 368 M
295 363.58 L
S
GR
GS
[0.78261 0 0 0.78261 0 -0.00003] CT
0.149 GC
2 setlinecap
1 LJ
0.639 LW
N
405.5 368 M
405.5 363.58 L
S
GR
GS
[0.78261 0 0 0.78261 0 -0.00003] CT
0.149 GC
2 setlinecap
1 LJ
0.639 LW
N
516 368 M
516 363.58 L
S
GR
GS
[0.78261 0 0 0.78261 0 -0.00003] CT
0.149 GC
2 setlinecap
1 LJ
0.639 LW
N
74 31 M
74 35.42 L
S
GR
GS
[0.78261 0 0 0.78261 0 -0.00003] CT
0.149 GC
2 setlinecap
1 LJ
0.639 LW
N
184.5 31 M
184.5 35.42 L
S
GR
GS
[0.78261 0 0 0.78261 0 -0.00003] CT
0.149 GC
2 setlinecap
1 LJ
0.639 LW
N
295 31 M
295 35.42 L
S
GR
GS
[0.78261 0 0 0.78261 0 -0.00003] CT
0.149 GC
2 setlinecap
1 LJ
0.639 LW
N
405.5 31 M
405.5 35.42 L
S
GR
GS
[0.78261 0 0 0.78261 0 -0.00003] CT
0.149 GC
2 setlinecap
1 LJ
0.639 LW
N
516 31 M
516 35.42 L
S
GR
GS
[0.78261 0 0 0.78261 57.91306 292] CT
0.149 GC
/Helvetica 12.778 F
GS
[1 0 0 1 0 0] CT
-6.5 12 moveto 
1 -1 scale
(-2) t 
GR
GR
GS
[0.78261 0 0 0.78261 144.39131 292] CT
0.149 GC
/Helvetica 12.778 F
GS
[1 0 0 1 0 0] CT
-6.5 12 moveto 
1 -1 scale
(-1) t 
GR
GR
GS
[0.78261 0 0 0.78261 230.86957 292] CT
0.149 GC
/Helvetica 12.778 F
GS
[1 0 0 1 0 0] CT
-4.5 12 moveto 
1 -1 scale
(0) t 
GR
GR
GS
[0.78261 0 0 0.78261 317.34784 292] CT
0.149 GC
/Helvetica 12.778 F
GS
[1 0 0 1 0 0] CT
-4.5 12 moveto 
1 -1 scale
(1) t 
GR
GR
GS
[0.78261 0 0 0.78261 403.8261 292] CT
0.149 GC
/Helvetica 12.778 F
GS
[1 0 0 1 0 0] CT
-4.5 12 moveto 
1 -1 scale
(2) t 
GR
GR
GS
[0.78261 0 0 0.78261 0 -0.00003] CT
0.149 GC
2 setlinecap
1 LJ
0.639 LW
N
74 368 M
74 31 L
S
GR
GS
[0.78261 0 0 0.78261 0 -0.00003] CT
0.149 GC
2 setlinecap
1 LJ
0.639 LW
N
516 368 M
516 31 L
S
GR
GS
[0.78261 0 0 0.78261 0 -0.00003] CT
0.149 GC
2 setlinecap
1 LJ
0.639 LW
N
74 368 M
78.42 368 L
S
GR
GS
[0.78261 0 0 0.78261 0 -0.00003] CT
0.149 GC
2 setlinecap
1 LJ
0.639 LW
N
74 325.875 M
78.42 325.875 L
S
GR
GS
[0.78261 0 0 0.78261 0 -0.00003] CT
0.149 GC
2 setlinecap
1 LJ
0.639 LW
N
74 283.75 M
78.42 283.75 L
S
GR
GS
[0.78261 0 0 0.78261 0 -0.00003] CT
0.149 GC
2 setlinecap
1 LJ
0.639 LW
N
74 241.625 M
78.42 241.625 L
S
GR
GS
[0.78261 0 0 0.78261 0 -0.00003] CT
0.149 GC
2 setlinecap
1 LJ
0.639 LW
N
74 199.5 M
78.42 199.5 L
S
GR
GS
[0.78261 0 0 0.78261 0 -0.00003] CT
0.149 GC
2 setlinecap
1 LJ
0.639 LW
N
74 157.375 M
78.42 157.375 L
S
GR
GS
[0.78261 0 0 0.78261 0 -0.00003] CT
0.149 GC
2 setlinecap
1 LJ
0.639 LW
N
74 115.25 M
78.42 115.25 L
S
GR
GS
[0.78261 0 0 0.78261 0 -0.00003] CT
0.149 GC
2 setlinecap
1 LJ
0.639 LW
N
74 73.125 M
78.42 73.125 L
S
GR
GS
[0.78261 0 0 0.78261 0 -0.00003] CT
0.149 GC
2 setlinecap
1 LJ
0.639 LW
N
74 31 M
78.42 31 L
S
GR
GS
[0.78261 0 0 0.78261 0 -0.00003] CT
0.149 GC
2 setlinecap
1 LJ
0.639 LW
N
516 368 M
511.58 368 L
S
GR
GS
[0.78261 0 0 0.78261 0 -0.00003] CT
0.149 GC
2 setlinecap
1 LJ
0.639 LW
N
516 325.875 M
511.58 325.875 L
S
GR
GS
[0.78261 0 0 0.78261 0 -0.00003] CT
0.149 GC
2 setlinecap
1 LJ
0.639 LW
N
516 283.75 M
511.58 283.75 L
S
GR
GS
[0.78261 0 0 0.78261 0 -0.00003] CT
0.149 GC
2 setlinecap
1 LJ
0.639 LW
N
516 241.625 M
511.58 241.625 L
S
GR
GS
[0.78261 0 0 0.78261 0 -0.00003] CT
0.149 GC
2 setlinecap
1 LJ
0.639 LW
N
516 199.5 M
511.58 199.5 L
S
GR
GS
[0.78261 0 0 0.78261 0 -0.00003] CT
0.149 GC
2 setlinecap
1 LJ
0.639 LW
N
516 157.375 M
511.58 157.375 L
S
GR
GS
[0.78261 0 0 0.78261 0 -0.00003] CT
0.149 GC
2 setlinecap
1 LJ
0.639 LW
N
516 115.25 M
511.58 115.25 L
S
GR
GS
[0.78261 0 0 0.78261 0 -0.00003] CT
0.149 GC
2 setlinecap
1 LJ
0.639 LW
N
516 73.125 M
511.58 73.125 L
S
GR
GS
[0.78261 0 0 0.78261 0 -0.00003] CT
0.149 GC
2 setlinecap
1 LJ
0.639 LW
N
516 31 M
511.58 31 L
S
GR
GS
[0.78261 0 0 0.78261 53.91304 288] CT
0.149 GC
/Helvetica 12.778 F
GS
[1 0 0 1 0 0] CT
-9 4 moveto 
1 -1 scale
(0) t 
GR
GR
GS
[0.78261 0 0 0.78261 53.91304 255.0326] CT
0.149 GC
/Helvetica 12.778 F
GS
[1 0 0 1 0 0] CT
-21 4 moveto 
1 -1 scale
(0.1) t 
GR
GR
GS
[0.78261 0 0 0.78261 53.91304 222.06521] CT
0.149 GC
/Helvetica 12.778 F
GS
[1 0 0 1 0 0] CT
-21 4 moveto 
1 -1 scale
(0.2) t 
GR
GR
GS
[0.78261 0 0 0.78261 53.91304 189.0978] CT
0.149 GC
/Helvetica 12.778 F
GS
[1 0 0 1 0 0] CT
-21 4 moveto 
1 -1 scale
(0.3) t 
GR
GR
GS
[0.78261 0 0 0.78261 53.91304 156.13041] CT
0.149 GC
/Helvetica 12.778 F
GS
[1 0 0 1 0 0] CT
-21 4 moveto 
1 -1 scale
(0.4) t 
GR
GR
GS
[0.78261 0 0 0.78261 53.91304 123.16299] CT
0.149 GC
/Helvetica 12.778 F
GS
[1 0 0 1 0 0] CT
-21 4 moveto 
1 -1 scale
(0.5) t 
GR
GR
GS
[0.78261 0 0 0.78261 53.91304 90.1956] CT
0.149 GC
/Helvetica 12.778 F
GS
[1 0 0 1 0 0] CT
-21 4 moveto 
1 -1 scale
(0.6) t 
GR
GR
GS
[0.78261 0 0 0.78261 53.91304 57.2282] CT
0.149 GC
/Helvetica 12.778 F
GS
[1 0 0 1 0 0] CT
-21 4 moveto 
1 -1 scale
(0.7) t 
GR
GR
GS
[0.78261 0 0 0.78261 53.91304 24.26082] CT
0.149 GC
/Helvetica 12.778 F
GS
[1 0 0 1 0 0] CT
-21 4 moveto 
1 -1 scale
(0.8) t 
GR
GR
GS
[0.78261 0 0 0.78261 0 -0.00003] CT
0 0.447 0.741 RC
1 LJ
2.556 LW
N
74 368 M
74.147 368 L
74.295 368 L
74.442 368 L
74.59 368 L
74.737 368 L
74.884 368 L
75.032 368 L
75.179 368 L
75.326 368 L
75.474 368 L
75.621 368 L
75.769 368 L
75.916 368 L
76.063 368 L
76.211 368 L
76.358 368 L
76.506 368 L
76.653 368 L
76.8 368 L
76.948 368 L
77.095 368 L
77.242 368 L
77.39 368 L
77.537 368 L
77.685 368 L
77.832 368 L
77.979 368 L
78.127 368 L
78.274 368 L
78.421 368 L
78.569 368 L
78.716 368 L
78.864 368 L
79.011 368 L
79.158 368 L
79.306 368 L
79.453 368 L
79.601 368 L
79.748 368 L
79.895 368 L
80.043 368 L
80.19 368 L
80.337 368 L
80.485 368 L
80.632 368 L
80.78 368 L
80.927 368 L
81.074 368 L
81.222 368 L
81.369 368 L
81.517 368 L
81.664 368 L
81.811 368 L
81.959 368 L
82.106 368 L
82.253 368 L
82.401 368 L
82.548 368 L
82.696 368 L
82.843 368 L
82.99 368 L
83.138 368 L
83.285 368 L
83.432 368 L
83.58 368 L
83.727 368 L
83.875 368 L
84.022 368 L
84.169 368 L
84.317 368 L
84.464 368 L
84.612 368 L
84.759 368 L
84.906 368 L
85.054 368 L
85.201 368 L
85.348 368 L
85.496 368 L
85.643 368 L
85.791 368 L
85.938 367.999 L
86.085 367.999 L
86.233 367.999 L
86.38 367.999 L
86.528 367.999 L
86.675 367.999 L
86.822 367.999 L
86.97 367.999 L
87.117 367.999 L
87.264 367.999 L
87.412 367.999 L
87.559 367.999 L
87.707 367.999 L
87.854 367.999 L
88.001 367.999 L
88.149 367.999 L
88.296 367.999 L
88.443 367.999 L
88.591 367.999 L
88.738 367.999 L
88.886 367.999 L
89.033 367.999 L
89.18 367.998 L
89.328 367.998 L
89.475 367.998 L
89.623 367.998 L
89.77 367.998 L
89.917 367.998 L
90.065 367.998 L
90.212 367.998 L
90.359 367.998 L
90.507 367.998 L
90.654 367.997 L
90.802 367.997 L
90.949 367.997 L
91.096 367.997 L
91.244 367.997 L
91.391 367.997 L
91.539 367.997 L
91.686 367.996 L
91.833 367.996 L
91.981 367.996 L
92.128 367.996 L
92.275 367.996 L
92.423 367.996 L
92.57 367.995 L
92.718 367.995 L
92.865 367.995 L
93.012 367.995 L
93.16 367.994 L
93.307 367.994 L
93.454 367.994 L
93.602 367.994 L
93.749 367.993 L
93.897 367.993 L
94.044 367.993 L
94.191 367.992 L
94.339 367.992 L
94.486 367.992 L
94.634 367.991 L
94.781 367.991 L
94.928 367.99 L
95.076 367.99 L
95.223 367.99 L
95.37 367.989 L
95.518 367.989 L
95.665 367.988 L
95.813 367.988 L
95.96 367.987 L
96.107 367.987 L
96.255 367.986 L
96.402 367.985 L
96.55 367.985 L
96.697 367.984 L
96.844 367.983 L
96.992 367.983 L
97.139 367.982 L
97.286 367.981 L
97.434 367.98 L
97.581 367.979 L
97.729 367.979 L
97.876 367.978 L
98.023 367.977 L
98.171 367.976 L
98.318 367.975 L
98.465 367.974 L
98.613 367.973 L
98.76 367.971 L
98.908 367.97 L
99.055 367.969 L
99.202 367.968 L
99.35 367.966 L
99.497 367.965 L
99.645 367.964 L
99.792 367.962 L
99.939 367.961 L
100.087 367.959 L
100.234 367.957 L
100.381 367.956 L
100.529 367.954 L
100.676 367.952 L
100.824 367.95 L
100.971 367.948 L
101.118 367.946 L
101.266 367.944 L
101.413 367.942 L
101.561 367.94 L
101.708 367.937 L
101.855 367.935 L
102.003 367.932 L
102.15 367.93 L
102.297 367.927 L
102.445 367.924 L
102.592 367.921 L
102.74 367.918 L
102.887 367.915 L
103.034 367.912 L
103.182 367.908 L
103.329 367.905 L
103.477 367.901 L
103.624 367.898 L
103.771 367.894 L
103.919 367.89 L
104.066 367.886 L
104.213 367.881 L
104.361 367.877 L
104.508 367.872 L
104.656 367.868 L
104.803 367.863 L
104.95 367.858 L
105.098 367.853 L
105.245 367.847 L
105.392 367.842 L
105.54 367.836 L
105.687 367.83 L
105.835 367.824 L
105.982 367.818 L
106.129 367.811 L
106.277 367.805 L
106.424 367.798 L
106.572 367.791 L
106.719 367.783 L
106.866 367.776 L
107.014 367.768 L
107.161 367.76 L
107.308 367.752 L
107.456 367.743 L
107.603 367.734 L
107.751 367.725 L
107.898 367.716 L
108.045 367.706 L
108.193 367.696 L
108.34 367.685 L
108.488 367.675 L
108.635 367.664 L
108.782 367.653 L
108.93 367.641 L
109.077 367.629 L
109.224 367.617 L
109.372 367.604 L
109.519 367.591 L
109.667 367.577 L
109.814 367.564 L
109.961 367.549 L
110.109 367.535 L
110.256 367.519 L
110.403 367.504 L
110.551 367.488 L
110.698 367.471 L
110.846 367.454 L
110.993 367.437 L
111.14 367.419 L
111.288 367.401 L
111.435 367.382 L
111.583 367.362 L
111.73 367.342 L
111.877 367.321 L
112.025 367.3 L
112.172 367.279 L
112.319 367.256 L
112.467 367.233 L
112.614 367.21 L
112.762 367.185 L
112.909 367.16 L
113.056 367.135 L
113.204 367.109 L
113.351 367.082 L
113.499 367.054 L
113.646 367.025 L
113.793 366.996 L
113.941 366.966 L
114.088 366.935 L
114.235 366.904 L
114.383 366.872 L
114.53 366.838 L
114.678 366.804 L
114.825 366.769 L
114.972 366.733 L
115.12 366.697 L
115.267 366.659 L
115.414 366.62 L
115.562 366.581 L
115.709 366.54 L
115.857 366.498 L
116.004 366.456 L
116.151 366.412 L
116.299 366.367 L
116.446 366.321 L
116.594 366.274 L
116.741 366.226 L
116.888 366.176 L
117.036 366.126 L
117.183 366.074 L
117.33 366.021 L
117.478 365.967 L
117.625 365.911 L
117.773 365.854 L
117.92 365.796 L
118.067 365.736 L
118.215 365.675 L
118.362 365.613 L
118.51 365.549 L
118.657 365.483 L
118.804 365.417 L
118.952 365.348 L
119.099 365.278 L
119.246 365.207 L
119.394 365.134 L
119.541 365.059 L
119.689 364.982 L
119.836 364.904 L
119.983 364.824 L
120.131 364.743 L
120.278 364.659 L
120.425 364.574 L
120.573 364.487 L
120.72 364.398 L
120.868 364.307 L
121.015 364.214 L
121.162 364.12 L
121.31 364.023 L
121.457 363.924 L
121.605 363.823 L
121.752 363.72 L
121.899 363.615 L
122.047 363.507 L
122.194 363.398 L
122.341 363.286 L
122.489 363.172 L
122.636 363.055 L
122.784 362.936 L
122.931 362.815 L
123.078 362.692 L
123.226 362.565 L
123.373 362.437 L
123.521 362.306 L
123.668 362.172 L
123.815 362.036 L
123.963 361.897 L
124.11 361.755 L
124.257 361.611 L
124.405 361.463 L
124.552 361.313 L
124.7 361.161 L
124.847 361.005 L
124.994 360.846 L
125.142 360.685 L
125.289 360.52 L
125.436 360.352 L
125.584 360.181 L
125.731 360.008 L
125.879 359.831 L
126.026 359.65 L
126.173 359.467 L
126.321 359.28 L
126.468 359.09 L
126.616 358.896 L
126.763 358.699 L
126.91 358.499 L
127.058 358.295 L
127.205 358.088 L
127.352 357.877 L
127.5 357.662 L
127.647 357.444 L
127.795 357.222 L
127.942 356.996 L
128.089 356.766 L
128.237 356.533 L
128.384 356.296 L
128.532 356.055 L
128.679 355.809 L
128.826 355.56 L
128.974 355.307 L
129.121 355.05 L
129.268 354.788 L
129.416 354.523 L
129.563 354.253 L
129.711 353.979 L
129.858 353.7 L
130.005 353.417 L
130.153 353.13 L
130.3 352.839 L
130.447 352.542 L
130.595 352.242 L
130.742 351.937 L
130.89 351.627 L
131.037 351.312 L
131.184 350.993 L
131.332 350.669 L
131.479 350.341 L
131.627 350.007 L
131.774 349.669 L
131.921 349.326 L
132.069 348.978 L
132.216 348.625 L
132.363 348.267 L
132.511 347.904 L
132.658 347.535 L
132.806 347.162 L
132.953 346.784 L
133.1 346.4 L
133.248 346.011 L
133.395 345.617 L
133.543 345.217 L
133.69 344.812 L
133.837 344.402 L
133.985 343.986 L
134.132 343.565 L
134.279 343.138 L
134.427 342.706 L
134.574 342.268 L
134.722 341.825 L
134.869 341.376 L
135.016 340.921 L
135.164 340.461 L
135.311 339.995 L
135.458 339.523 L
135.606 339.045 L
135.753 338.561 L
135.901 338.072 L
136.048 337.577 L
136.195 337.076 L
136.343 336.569 L
136.49 336.056 L
136.638 335.536 L
136.785 335.011 L
136.932 334.48 L
137.08 333.943 L
137.227 333.4 L
137.374 332.85 L
137.522 332.295 L
137.669 331.733 L
137.817 331.165 L
137.964 330.591 L
138.111 330.011 L
138.259 329.424 L
138.406 328.832 L
138.554 328.233 L
138.701 327.627 L
138.848 327.016 L
138.996 326.398 L
139.143 325.773 L
139.29 325.143 L
139.438 324.506 L
139.585 323.862 L
139.733 323.212 L
139.88 322.556 L
140.027 321.894 L
140.175 321.225 L
140.322 320.549 L
140.469 319.867 L
140.617 319.179 L
140.764 318.484 L
140.912 317.783 L
141.059 317.076 L
141.206 316.362 L
141.354 315.641 L
141.501 314.915 L
141.649 314.181 L
141.796 313.442 L
141.943 312.695 L
142.091 311.943 L
142.238 311.184 L
142.385 310.418 L
142.533 309.647 L
142.68 308.868 L
142.828 308.084 L
142.975 307.293 L
143.122 306.496 L
143.27 305.692 L
143.417 304.882 L
143.565 304.066 L
143.712 303.243 L
143.859 302.414 L
144.007 301.579 L
144.154 300.738 L
144.301 299.89 L
144.449 299.036 L
144.596 298.177 L
144.744 297.31 L
144.891 296.438 L
145.038 295.56 L
145.186 294.675 L
145.333 293.785 L
145.48 292.888 L
145.628 291.986 L
145.775 291.078 L
145.923 290.163 L
146.07 289.243 L
146.217 288.317 L
146.365 287.385 L
146.512 286.448 L
146.66 285.504 L
146.807 284.555 L
146.954 283.6 L
147.102 282.64 L
147.249 281.674 L
147.396 280.703 L
147.544 279.726 L
147.691 278.744 L
147.839 277.756 L
147.986 276.763 L
148.133 275.764 L
148.281 274.761 L
148.428 273.752 L
148.576 272.738 L
148.723 271.719 L
148.87 270.695 L
149.018 269.666 L
149.165 268.633 L
149.312 267.594 L
149.46 266.55 L
149.607 265.502 L
149.755 264.449 L
149.902 263.392 L
150.049 262.33 L
150.197 261.263 L
150.344 260.192 L
150.492 259.117 L
150.639 258.038 L
150.786 256.954 L
150.934 255.866 L
151.081 254.774 L
151.228 253.678 L
151.376 252.578 L
151.523 251.475 L
151.671 250.367 L
151.818 249.256 L
151.965 248.141 L
152.113 247.023 L
152.26 245.901 L
152.407 244.776 L
152.555 243.647 L
152.702 242.515 L
152.85 241.38 L
152.997 240.242 L
153.144 239.101 L
153.292 237.957 L
153.439 236.811 L
153.587 235.661 L
153.734 234.509 L
153.881 233.354 L
154.029 232.197 L
154.176 231.037 L
154.323 229.875 L
154.471 228.711 L
154.618 227.545 L
154.766 226.377 L
154.913 225.206 L
155.06 224.034 L
155.208 222.86 L
155.355 221.685 L
155.503 220.508 L
155.65 219.329 L
155.797 218.149 L
155.945 216.968 L
156.092 215.785 L
156.239 214.602 L
156.387 213.417 L
156.534 212.231 L
156.682 211.045 L
156.829 209.858 L
156.976 208.67 L
157.124 207.482 L
157.271 206.293 L
157.418 205.104 L
157.566 203.915 L
157.713 202.725 L
157.861 201.536 L
158.008 200.346 L
158.155 199.157 L
158.303 197.968 L
158.45 196.779 L
158.598 195.591 L
158.745 194.404 L
158.892 193.217 L
159.04 192.03 L
159.187 190.845 L
159.334 189.661 L
159.482 188.477 L
159.629 187.295 L
159.777 186.114 L
159.924 184.935 L
160.071 183.757 L
160.219 182.58 L
160.366 181.405 L
160.514 180.232 L
160.661 179.061 L
160.808 177.892 L
160.956 176.724 L
161.103 175.559 L
161.25 174.397 L
161.398 173.236 L
161.545 172.078 L
161.693 170.923 L
161.84 169.77 L
161.987 168.62 L
162.135 167.473 L
162.282 166.329 L
162.429 165.188 L
162.577 164.05 L
162.724 162.915 L
162.872 161.784 L
163.019 160.656 L
163.166 159.532 L
163.314 158.411 L
163.461 157.294 L
163.609 156.181 L
163.756 155.072 L
163.903 153.967 L
164.051 152.866 L
164.198 151.769 L
164.345 150.676 L
164.493 149.588 L
164.64 148.504 L
164.788 147.425 L
164.935 146.351 L
165.082 145.281 L
165.23 144.216 L
165.377 143.156 L
165.525 142.101 L
165.672 141.051 L
165.819 140.007 L
165.967 138.967 L
166.114 137.933 L
166.261 136.905 L
166.409 135.882 L
166.556 134.864 L
166.704 133.852 L
166.851 132.847 L
166.998 131.846 L
167.146 130.852 L
167.293 129.864 L
167.44 128.882 L
167.588 127.906 L
167.735 126.937 L
167.883 125.973 L
168.03 125.017 L
168.177 124.066 L
168.325 123.122 L
168.472 122.185 L
168.62 121.255 L
168.767 120.331 L
168.914 119.414 L
169.062 118.504 L
169.209 117.601 L
169.356 116.705 L
169.504 115.816 L
169.651 114.934 L
169.799 114.06 L
169.946 113.193 L
170.093 112.333 L
170.241 111.48 L
170.388 110.636 L
170.536 109.798 L
170.683 108.968 L
170.83 108.146 L
170.978 107.332 L
171.125 106.525 L
171.272 105.727 L
171.42 104.936 L
171.567 104.153 L
171.715 103.378 L
171.862 102.611 L
172.009 101.852 L
172.157 101.101 L
172.304 100.359 L
172.451 99.624 L
172.599 98.898 L
172.746 98.18 L
172.894 97.471 L
173.041 96.77 L
173.188 96.078 L
173.336 95.393 L
173.483 94.718 L
173.631 94.051 L
173.778 93.393 L
173.925 92.743 L
174.073 92.102 L
174.22 91.469 L
174.367 90.846 L
174.515 90.231 L
174.662 89.624 L
174.81 89.027 L
174.957 88.439 L
175.104 87.859 L
175.252 87.288 L
175.399 86.727 L
175.547 86.174 L
175.694 85.63 L
175.841 85.095 L
175.989 84.569 L
176.136 84.052 L
176.283 83.545 L
176.431 83.046 L
176.578 82.556 L
176.726 82.076 L
176.873 81.604 L
177.02 81.142 L
177.168 80.689 L
177.315 80.245 L
177.462 79.81 L
177.61 79.384 L
177.757 78.968 L
177.905 78.56 L
178.052 78.162 L
178.199 77.773 L
178.347 77.393 L
178.494 77.023 L
178.642 76.661 L
178.789 76.309 L
178.936 75.966 L
179.084 75.632 L
179.231 75.308 L
179.378 74.992 L
179.526 74.686 L
179.673 74.389 L
179.821 74.101 L
179.968 73.822 L
180.115 73.552 L
180.263 73.292 L
180.41 73.041 L
180.558 72.799 L
180.705 72.566 L
180.852 72.342 L
181 72.127 L
181.147 71.921 L
181.294 71.724 L
181.442 71.537 L
181.589 71.358 L
181.737 71.188 L
181.884 71.028 L
182.031 70.876 L
182.179 70.733 L
182.326 70.599 L
182.473 70.474 L
182.621 70.358 L
182.768 70.251 L
182.916 70.153 L
183.063 70.063 L
183.21 69.982 L
183.358 69.91 L
183.505 69.847 L
183.653 69.792 L
183.8 69.746 L
183.947 69.709 L
184.095 69.68 L
184.242 69.66 L
184.389 69.649 L
184.537 69.646 L
184.684 69.651 L
184.832 69.665 L
184.979 69.687 L
185.126 69.718 L
185.274 69.757 L
185.421 69.804 L
185.569 69.859 L
185.716 69.923 L
185.863 69.995 L
186.011 70.075 L
186.158 70.163 L
186.305 70.259 L
186.453 70.364 L
186.6 70.476 L
186.748 70.596 L
186.895 70.724 L
187.042 70.86 L
187.19 71.004 L
187.337 71.155 L
187.484 71.314 L
187.632 71.481 L
187.779 71.656 L
187.927 71.838 L
188.074 72.027 L
188.221 72.224 L
188.369 72.429 L
188.516 72.641 L
188.664 72.86 L
188.811 73.087 L
188.958 73.321 L
189.106 73.562 L
189.253 73.81 L
189.4 74.065 L
189.548 74.327 L
189.695 74.596 L
189.843 74.873 L
189.99 75.156 L
190.137 75.446 L
190.285 75.742 L
190.432 76.046 L
190.58 76.356 L
190.727 76.673 L
190.874 76.996 L
191.022 77.326 L
191.169 77.662 L
191.316 78.005 L
191.464 78.354 L
191.611 78.71 L
191.759 79.071 L
191.906 79.439 L
192.053 79.813 L
192.201 80.193 L
192.348 80.579 L
192.495 80.971 L
192.643 81.369 L
192.79 81.773 L
192.938 82.183 L
193.085 82.598 L
193.232 83.019 L
193.38 83.446 L
193.527 83.878 L
193.675 84.316 L
193.822 84.759 L
193.969 85.207 L
194.117 85.661 L
194.264 86.121 L
194.411 86.585 L
194.559 87.055 L
194.706 87.53 L
194.854 88.009 L
195.001 88.494 L
195.148 88.984 L
195.296 89.479 L
195.443 89.978 L
195.591 90.482 L
195.738 90.991 L
195.885 91.505 L
196.033 92.023 L
196.18 92.546 L
196.327 93.073 L
196.475 93.605 L
196.622 94.141 L
196.77 94.681 L
196.917 95.226 L
197.064 95.775 L
197.212 96.328 L
197.359 96.885 L
197.507 97.446 L
197.654 98.011 L
197.801 98.58 L
197.949 99.152 L
198.096 99.729 L
198.243 100.309 L
198.391 100.893 L
198.538 101.481 L
198.686 102.072 L
198.833 102.667 L
198.98 103.265 L
199.128 103.867 L
199.275 104.471 L
199.422 105.08 L
199.57 105.691 L
199.717 106.306 L
199.865 106.924 L
200.012 107.544 L
200.159 108.168 L
200.307 108.795 L
200.454 109.425 L
200.602 110.058 L
200.749 110.693 L
200.896 111.331 L
201.044 111.972 L
201.191 112.616 L
201.338 113.262 L
201.486 113.91 L
201.633 114.562 L
201.781 115.215 L
201.928 115.871 L
202.075 116.53 L
202.223 117.19 L
202.37 117.853 L
202.518 118.518 L
202.665 119.185 L
202.812 119.854 L
202.96 120.526 L
203.107 121.199 L
203.254 121.874 L
203.402 122.551 L
203.549 123.23 L
203.697 123.911 L
203.844 124.593 L
203.991 125.277 L
204.139 125.963 L
204.286 126.65 L
204.433 127.339 L
204.581 128.03 L
204.728 128.722 L
204.876 129.415 L
205.023 130.109 L
205.17 130.805 L
205.318 131.503 L
205.465 132.201 L
205.613 132.901 L
205.76 133.601 L
205.907 134.303 L
206.055 135.006 L
206.202 135.71 L
206.349 136.415 L
206.497 137.121 L
206.644 137.827 L
206.792 138.535 L
206.939 139.243 L
207.086 139.952 L
207.234 140.662 L
207.381 141.372 L
207.529 142.084 L
207.676 142.795 L
207.823 143.507 L
207.971 144.22 L
208.118 144.933 L
208.265 145.647 L
208.413 146.361 L
208.56 147.075 L
208.708 147.79 L
208.855 148.505 L
209.002 149.22 L
209.15 149.936 L
209.297 150.651 L
209.444 151.367 L
209.592 152.083 L
209.739 152.799 L
209.887 153.514 L
210.034 154.23 L
210.181 154.946 L
210.329 155.662 L
210.476 156.378 L
210.624 157.093 L
210.771 157.809 L
210.918 158.524 L
211.066 159.239 L
211.213 159.953 L
211.36 160.668 L
211.508 161.382 L
211.655 162.095 L
211.803 162.808 L
211.95 163.521 L
212.097 164.233 L
212.245 164.945 L
212.392 165.657 L
212.54 166.367 L
212.687 167.077 L
212.834 167.787 L
212.982 168.496 L
213.129 169.204 L
213.276 169.912 L
213.424 170.619 L
213.571 171.325 L
213.719 172.03 L
213.866 172.735 L
214.013 173.439 L
214.161 174.141 L
214.308 174.843 L
214.455 175.545 L
214.603 176.245 L
214.75 176.944 L
214.898 177.642 L
215.045 178.34 L
215.192 179.036 L
215.34 179.731 L
215.487 180.425 L
215.635 181.118 L
215.782 181.81 L
215.929 182.501 L
216.077 183.191 L
216.224 183.879 L
216.371 184.567 L
216.519 185.253 L
216.666 185.938 L
216.814 186.621 L
216.961 187.304 L
217.108 187.985 L
217.256 188.664 L
217.403 189.343 L
217.551 190.02 L
217.698 190.695 L
217.845 191.37 L
217.993 192.043 L
218.14 192.714 L
218.287 193.384 L
218.435 194.053 L
218.582 194.72 L
218.73 195.385 L
218.877 196.05 L
219.024 196.712 L
219.172 197.373 L
219.319 198.033 L
219.466 198.691 L
219.614 199.347 L
219.761 200.002 L
219.909 200.655 L
220.056 201.306 L
220.203 201.956 L
220.351 202.605 L
220.498 203.251 L
220.646 203.896 L
220.793 204.539 L
220.94 205.181 L
221.088 205.821 L
221.235 206.459 L
221.382 207.095 L
221.53 207.73 L
221.677 208.362 L
221.825 208.993 L
221.972 209.623 L
222.119 210.25 L
222.267 210.876 L
222.414 211.5 L
222.562 212.122 L
222.709 212.742 L
222.856 213.36 L
223.004 213.977 L
223.151 214.591 L
223.298 215.204 L
223.446 215.815 L
223.593 216.424 L
223.741 217.031 L
223.888 217.637 L
224.035 218.24 L
224.183 218.841 L
224.33 219.441 L
224.477 220.038 L
224.625 220.634 L
224.772 221.228 L
224.92 221.819 L
225.067 222.409 L
225.214 222.997 L
225.362 223.583 L
225.509 224.167 L
225.657 224.749 L
225.804 225.329 L
225.951 225.906 L
226.099 226.482 L
226.246 227.056 L
226.393 227.628 L
226.541 228.198 L
226.688 228.766 L
226.836 229.332 L
226.983 229.896 L
227.13 230.458 L
227.278 231.018 L
227.425 231.575 L
227.573 232.131 L
227.72 232.685 L
227.867 233.236 L
228.015 233.786 L
228.162 234.334 L
228.309 234.879 L
228.457 235.423 L
228.604 235.964 L
228.752 236.504 L
228.899 237.041 L
229.046 237.576 L
229.194 238.109 L
229.341 238.64 L
229.488 239.17 L
229.636 239.697 L
229.783 240.222 L
229.931 240.744 L
230.078 241.265 L
230.225 241.784 L
230.373 242.301 L
230.52 242.815 L
230.668 243.328 L
230.815 243.838 L
230.962 244.347 L
231.11 244.853 L
231.257 245.358 L
231.404 245.86 L
231.552 246.36 L
231.699 246.858 L
231.847 247.354 L
231.994 247.848 L
232.141 248.34 L
232.289 248.83 L
232.436 249.318 L
232.584 249.803 L
232.731 250.287 L
232.878 250.769 L
233.026 251.248 L
233.173 251.726 L
233.32 252.201 L
233.468 252.674 L
233.615 253.146 L
233.763 253.615 L
233.91 254.082 L
234.057 254.548 L
234.205 255.011 L
234.352 255.472 L
234.499 255.931 L
234.647 256.388 L
234.794 256.843 L
234.942 257.296 L
235.089 257.747 L
235.236 258.196 L
235.384 258.643 L
235.531 259.088 L
235.679 259.531 L
235.826 259.972 L
235.973 260.411 L
236.121 260.848 L
236.268 261.283 L
236.415 261.716 L
236.563 262.147 L
236.71 262.575 L
236.858 263.002 L
237.005 263.427 L
237.152 263.85 L
237.3 264.271 L
237.447 264.69 L
237.595 265.108 L
237.742 265.523 L
237.889 265.936 L
238.037 266.347 L
238.184 266.756 L
238.331 267.164 L
238.479 267.569 L
238.626 267.973 L
238.774 268.374 L
238.921 268.774 L
239.068 269.172 L
239.216 269.567 L
239.363 269.961 L
239.511 270.353 L
239.658 270.743 L
239.805 271.131 L
239.953 271.518 L
240.1 271.902 L
240.247 272.284 L
240.395 272.665 L
240.542 273.044 L
240.69 273.421 L
240.837 273.796 L
240.984 274.169 L
241.132 274.54 L
241.279 274.909 L
241.426 275.277 L
241.574 275.643 L
241.721 276.007 L
241.869 276.369 L
242.016 276.729 L
242.163 277.088 L
242.311 277.444 L
242.458 277.799 L
242.606 278.152 L
242.753 278.503 L
242.9 278.853 L
243.048 279.201 L
243.195 279.546 L
243.342 279.891 L
243.49 280.233 L
243.637 280.573 L
243.785 280.912 L
243.932 281.249 L
244.079 281.585 L
244.227 281.918 L
244.374 282.25 L
244.522 282.58 L
244.669 282.909 L
244.816 283.235 L
244.964 283.56 L
245.111 283.884 L
245.258 284.205 L
245.406 284.525 L
245.553 284.843 L
245.701 285.16 L
245.848 285.475 L
245.995 285.788 L
246.143 286.099 L
246.29 286.409 L
246.437 286.717 L
246.585 287.024 L
246.732 287.329 L
246.88 287.632 L
247.027 287.934 L
247.174 288.234 L
247.322 288.532 L
247.469 288.829 L
247.617 289.124 L
247.764 289.418 L
247.911 289.71 L
248.059 290 L
248.206 290.289 L
248.353 290.576 L
248.501 290.862 L
248.648 291.146 L
248.796 291.428 L
248.943 291.709 L
249.09 291.989 L
249.238 292.266 L
249.385 292.543 L
249.533 292.818 L
249.68 293.091 L
249.827 293.363 L
249.975 293.633 L
250.122 293.902 L
250.269 294.169 L
250.417 294.435 L
250.564 294.699 L
250.712 294.962 L
250.859 295.223 L
251.006 295.483 L
251.154 295.741 L
251.301 295.998 L
251.448 296.253 L
251.596 296.507 L
251.743 296.76 L
251.891 297.011 L
252.038 297.261 L
252.185 297.509 L
252.333 297.756 L
252.48 298.001 L
252.628 298.245 L
252.775 298.488 L
252.922 298.729 L
253.07 298.969 L
253.217 299.207 L
253.364 299.445 L
253.512 299.68 L
253.659 299.915 L
253.807 300.147 L
253.954 300.379 L
254.101 300.609 L
254.249 300.838 L
254.396 301.066 L
254.544 301.292 L
254.691 301.517 L
254.838 301.74 L
254.986 301.963 L
255.133 302.184 L
255.28 302.403 L
255.428 302.622 L
255.575 302.839 L
255.723 303.054 L
255.87 303.269 L
256.017 303.482 L
256.165 303.694 L
256.312 303.904 L
256.459 304.114 L
256.607 304.322 L
256.754 304.529 L
256.902 304.734 L
257.049 304.939 L
257.196 305.142 L
257.344 305.344 L
257.491 305.544 L
257.639 305.744 L
257.786 305.942 L
257.933 306.139 L
258.081 306.335 L
258.228 306.53 L
258.375 306.723 L
258.523 306.915 L
258.67 307.106 L
258.818 307.296 L
258.965 307.485 L
259.112 307.672 L
259.26 307.859 L
259.407 308.044 L
259.555 308.228 L
259.702 308.411 L
259.849 308.592 L
259.997 308.773 L
260.144 308.952 L
260.291 309.131 L
260.439 309.308 L
260.586 309.484 L
260.734 309.659 L
260.881 309.833 L
261.028 310.006 L
261.176 310.177 L
261.323 310.348 L
261.47 310.517 L
261.618 310.686 L
261.765 310.853 L
261.913 311.019 L
262.06 311.184 L
262.207 311.348 L
262.355 311.511 L
262.502 311.673 L
262.65 311.834 L
262.797 311.994 L
262.944 312.153 L
263.092 312.31 L
263.239 312.467 L
263.386 312.623 L
263.534 312.777 L
263.681 312.931 L
263.829 313.084 L
263.976 313.235 L
264.123 313.386 L
264.271 313.535 L
264.418 313.684 L
264.566 313.831 L
264.713 313.978 L
264.86 314.123 L
265.008 314.268 L
265.155 314.412 L
265.302 314.554 L
265.45 314.696 L
265.597 314.837 L
265.745 314.976 L
265.892 315.115 L
266.039 315.253 L
266.187 315.39 L
266.334 315.526 L
266.482 315.661 L
266.629 315.795 L
266.776 315.928 L
266.924 316.06 L
267.071 316.191 L
267.218 316.321 L
267.366 316.451 L
267.513 316.579 L
267.661 316.707 L
267.808 316.833 L
267.955 316.959 L
268.103 317.084 L
268.25 317.208 L
268.397 317.331 L
268.545 317.453 L
268.692 317.574 L
268.84 317.694 L
268.987 317.814 L
269.134 317.932 L
269.282 318.05 L
269.429 318.167 L
269.577 318.283 L
269.724 318.398 L
269.871 318.512 L
270.019 318.626 L
270.166 318.738 L
270.313 318.85 L
270.461 318.961 L
270.608 319.071 L
270.756 319.18 L
270.903 319.288 L
271.05 319.396 L
271.198 319.503 L
271.345 319.608 L
271.492 319.713 L
271.64 319.818 L
271.787 319.921 L
271.935 320.024 L
272.082 320.125 L
272.229 320.226 L
272.377 320.326 L
272.524 320.426 L
272.672 320.524 L
272.819 320.622 L
272.966 320.719 L
273.114 320.815 L
273.261 320.911 L
273.408 321.005 L
273.556 321.099 L
273.703 321.192 L
273.851 321.284 L
273.998 321.376 L
274.145 321.467 L
274.293 321.556 L
274.44 321.646 L
274.588 321.734 L
274.735 321.822 L
274.882 321.909 L
275.03 321.995 L
275.177 322.08 L
275.324 322.165 L
275.472 322.249 L
275.619 322.332 L
275.767 322.414 L
275.914 322.496 L
276.061 322.577 L
276.209 322.657 L
276.356 322.737 L
276.504 322.816 L
276.651 322.894 L
276.798 322.971 L
276.946 323.048 L
277.093 323.124 L
277.24 323.199 L
277.388 323.273 L
277.535 323.347 L
277.683 323.42 L
277.83 323.492 L
277.977 323.564 L
278.125 323.635 L
278.272 323.705 L
278.419 323.775 L
278.567 323.844 L
278.714 323.912 L
278.862 323.979 L
279.009 324.046 L
279.156 324.112 L
279.304 324.177 L
279.451 324.242 L
279.599 324.306 L
279.746 324.37 L
279.893 324.432 L
280.041 324.494 L
280.188 324.556 L
280.335 324.616 L
280.483 324.676 L
280.63 324.736 L
280.778 324.794 L
280.925 324.852 L
281.072 324.91 L
281.22 324.966 L
281.367 325.022 L
281.514 325.078 L
281.662 325.132 L
281.809 325.186 L
281.957 325.24 L
282.104 325.293 L
282.251 325.345 L
282.399 325.396 L
282.546 325.447 L
282.694 325.497 L
282.841 325.547 L
282.988 325.596 L
283.136 325.644 L
283.283 325.692 L
283.43 325.739 L
283.578 325.785 L
283.725 325.831 L
283.873 325.876 L
284.02 325.92 L
284.167 325.964 L
284.315 326.007 L
284.462 326.05 L
284.61 326.092 L
284.757 326.133 L
284.904 326.174 L
285.052 326.214 L
285.199 326.254 L
285.346 326.292 L
285.494 326.331 L
285.641 326.368 L
285.789 326.405 L
285.936 326.442 L
286.083 326.478 L
286.231 326.513 L
286.378 326.547 L
286.526 326.581 L
286.673 326.615 L
286.82 326.648 L
286.968 326.68 L
287.115 326.711 L
287.262 326.742 L
287.41 326.773 L
287.557 326.802 L
287.705 326.832 L
287.852 326.86 L
287.999 326.888 L
288.147 326.915 L
288.294 326.942 L
288.441 326.968 L
288.589 326.994 L
288.736 327.019 L
288.884 327.043 L
289.031 327.067 L
289.178 327.09 L
289.326 327.113 L
289.473 327.135 L
289.621 327.157 L
289.768 327.177 L
289.915 327.198 L
290.063 327.217 L
290.21 327.237 L
290.357 327.255 L
290.505 327.273 L
290.652 327.29 L
290.8 327.307 L
290.947 327.323 L
291.094 327.339 L
291.242 327.354 L
291.389 327.368 L
291.536 327.382 L
291.684 327.395 L
291.831 327.408 L
291.979 327.42 L
292.126 327.432 L
292.273 327.443 L
292.421 327.453 L
292.568 327.463 L
292.716 327.472 L
292.863 327.481 L
293.01 327.489 L
293.158 327.496 L
293.305 327.503 L
293.452 327.51 L
293.6 327.515 L
293.747 327.521 L
293.895 327.525 L
294.042 327.529 L
294.189 327.533 L
294.337 327.536 L
294.484 327.538 L
294.632 327.54 L
294.779 327.541 L
294.926 327.541 L
295.074 327.541 L
295.221 327.541 L
295.368 327.54 L
295.516 327.538 L
295.663 327.536 L
295.811 327.533 L
295.958 327.529 L
296.105 327.525 L
296.253 327.521 L
296.4 327.515 L
296.548 327.51 L
296.695 327.503 L
296.842 327.496 L
296.99 327.489 L
297.137 327.481 L
297.284 327.472 L
297.432 327.463 L
297.579 327.453 L
297.727 327.443 L
297.874 327.432 L
298.021 327.42 L
298.169 327.408 L
298.316 327.395 L
298.464 327.382 L
298.611 327.368 L
298.758 327.354 L
298.906 327.339 L
299.053 327.323 L
299.2 327.307 L
299.348 327.29 L
299.495 327.273 L
299.643 327.255 L
299.79 327.237 L
299.937 327.217 L
300.085 327.198 L
300.232 327.177 L
300.379 327.157 L
300.527 327.135 L
300.674 327.113 L
300.822 327.09 L
300.969 327.067 L
301.116 327.043 L
301.264 327.019 L
301.411 326.994 L
301.559 326.968 L
301.706 326.942 L
301.853 326.915 L
302.001 326.888 L
302.148 326.86 L
302.295 326.832 L
302.443 326.802 L
302.59 326.773 L
302.738 326.742 L
302.885 326.711 L
303.032 326.68 L
303.18 326.648 L
303.327 326.615 L
303.474 326.581 L
303.622 326.547 L
303.769 326.513 L
303.917 326.478 L
304.064 326.442 L
304.211 326.405 L
304.359 326.368 L
304.506 326.331 L
304.654 326.292 L
304.801 326.254 L
304.948 326.214 L
305.096 326.174 L
305.243 326.133 L
305.39 326.092 L
305.538 326.05 L
305.685 326.007 L
305.833 325.964 L
305.98 325.92 L
306.127 325.876 L
306.275 325.831 L
306.422 325.785 L
306.57 325.739 L
306.717 325.692 L
306.864 325.644 L
307.012 325.596 L
307.159 325.547 L
307.306 325.497 L
307.454 325.447 L
307.601 325.396 L
307.749 325.345 L
307.896 325.293 L
308.043 325.24 L
308.191 325.186 L
308.338 325.132 L
308.486 325.078 L
308.633 325.022 L
308.78 324.966 L
308.928 324.91 L
309.075 324.852 L
309.222 324.794 L
309.37 324.736 L
309.517 324.676 L
309.665 324.616 L
309.812 324.556 L
309.959 324.494 L
310.107 324.432 L
310.254 324.37 L
310.401 324.306 L
310.549 324.242 L
310.696 324.177 L
310.844 324.112 L
310.991 324.046 L
311.138 323.979 L
311.286 323.912 L
311.433 323.844 L
311.581 323.775 L
311.728 323.705 L
311.875 323.635 L
312.023 323.564 L
312.17 323.492 L
312.317 323.42 L
312.465 323.347 L
312.612 323.273 L
312.76 323.199 L
312.907 323.124 L
313.054 323.048 L
313.202 322.971 L
313.349 322.894 L
313.496 322.816 L
313.644 322.737 L
313.791 322.657 L
313.939 322.577 L
314.086 322.496 L
314.233 322.414 L
314.381 322.332 L
314.528 322.249 L
314.676 322.165 L
314.823 322.08 L
314.97 321.995 L
315.118 321.909 L
315.265 321.822 L
315.412 321.734 L
315.56 321.646 L
315.707 321.556 L
315.855 321.467 L
316.002 321.376 L
316.149 321.284 L
316.297 321.192 L
316.444 321.099 L
316.592 321.005 L
316.739 320.911 L
316.886 320.815 L
317.034 320.719 L
317.181 320.622 L
317.328 320.524 L
317.476 320.426 L
317.623 320.326 L
317.771 320.226 L
317.918 320.125 L
318.065 320.024 L
318.213 319.921 L
318.36 319.818 L
318.508 319.713 L
318.655 319.608 L
318.802 319.503 L
318.95 319.396 L
319.097 319.288 L
319.244 319.18 L
319.392 319.071 L
319.539 318.961 L
319.687 318.85 L
319.834 318.738 L
319.981 318.626 L
320.129 318.512 L
320.276 318.398 L
320.423 318.283 L
320.571 318.167 L
320.718 318.05 L
320.866 317.932 L
321.013 317.814 L
321.16 317.694 L
321.308 317.574 L
321.455 317.453 L
321.603 317.331 L
321.75 317.208 L
321.897 317.084 L
322.045 316.959 L
322.192 316.833 L
322.339 316.707 L
322.487 316.579 L
322.634 316.451 L
322.782 316.321 L
322.929 316.191 L
323.076 316.06 L
323.224 315.928 L
323.371 315.795 L
323.519 315.661 L
323.666 315.526 L
323.813 315.39 L
323.961 315.253 L
324.108 315.115 L
324.255 314.976 L
324.403 314.837 L
324.55 314.696 L
324.698 314.554 L
324.845 314.412 L
324.992 314.268 L
325.14 314.123 L
325.287 313.978 L
325.434 313.831 L
325.582 313.684 L
325.729 313.535 L
325.877 313.386 L
326.024 313.235 L
326.171 313.084 L
326.319 312.931 L
326.466 312.777 L
326.614 312.623 L
326.761 312.467 L
326.908 312.31 L
327.056 312.153 L
327.203 311.994 L
327.35 311.834 L
327.498 311.673 L
327.645 311.511 L
327.793 311.348 L
327.94 311.184 L
328.087 311.019 L
328.235 310.853 L
328.382 310.686 L
328.53 310.517 L
328.677 310.348 L
328.824 310.177 L
328.972 310.006 L
329.119 309.833 L
329.266 309.659 L
329.414 309.484 L
329.561 309.308 L
329.709 309.131 L
329.856 308.952 L
330.003 308.773 L
330.151 308.592 L
330.298 308.411 L
330.445 308.228 L
330.593 308.044 L
330.74 307.859 L
330.888 307.672 L
331.035 307.485 L
331.182 307.296 L
331.33 307.106 L
331.477 306.915 L
331.625 306.723 L
331.772 306.53 L
331.919 306.335 L
332.067 306.139 L
332.214 305.942 L
332.361 305.744 L
332.509 305.544 L
332.656 305.344 L
332.804 305.142 L
332.951 304.939 L
333.098 304.734 L
333.246 304.529 L
333.393 304.322 L
333.541 304.114 L
333.688 303.904 L
333.835 303.694 L
333.983 303.482 L
334.13 303.269 L
334.277 303.054 L
334.425 302.839 L
334.572 302.622 L
334.72 302.403 L
334.867 302.184 L
335.014 301.963 L
335.162 301.74 L
335.309 301.517 L
335.456 301.292 L
335.604 301.066 L
335.751 300.838 L
335.899 300.609 L
336.046 300.379 L
336.193 300.147 L
336.341 299.915 L
336.488 299.68 L
336.636 299.445 L
336.783 299.207 L
336.93 298.969 L
337.078 298.729 L
337.225 298.488 L
337.372 298.245 L
337.52 298.001 L
337.667 297.756 L
337.815 297.509 L
337.962 297.261 L
338.109 297.011 L
338.257 296.76 L
338.404 296.507 L
338.552 296.253 L
338.699 295.998 L
338.846 295.741 L
338.994 295.483 L
339.141 295.223 L
339.288 294.962 L
339.436 294.699 L
339.583 294.435 L
339.731 294.169 L
339.878 293.902 L
340.025 293.633 L
340.173 293.363 L
340.32 293.091 L
340.467 292.818 L
340.615 292.543 L
340.762 292.266 L
340.91 291.989 L
341.057 291.709 L
341.204 291.428 L
341.352 291.146 L
341.499 290.862 L
341.647 290.576 L
341.794 290.289 L
341.941 290 L
342.089 289.71 L
342.236 289.418 L
342.383 289.124 L
342.531 288.829 L
342.678 288.532 L
342.826 288.234 L
342.973 287.934 L
343.12 287.632 L
343.268 287.329 L
343.415 287.024 L
343.563 286.717 L
343.71 286.409 L
343.857 286.099 L
344.005 285.788 L
344.152 285.475 L
344.299 285.16 L
344.447 284.843 L
344.594 284.525 L
344.742 284.205 L
344.889 283.884 L
345.036 283.56 L
345.184 283.235 L
345.331 282.909 L
345.478 282.58 L
345.626 282.25 L
345.773 281.918 L
345.921 281.585 L
346.068 281.249 L
346.215 280.912 L
346.363 280.573 L
346.51 280.233 L
346.658 279.891 L
346.805 279.546 L
346.952 279.201 L
347.1 278.853 L
347.247 278.503 L
347.394 278.152 L
347.542 277.799 L
347.689 277.444 L
347.837 277.088 L
347.984 276.729 L
348.131 276.369 L
348.279 276.007 L
348.426 275.643 L
348.574 275.277 L
348.721 274.909 L
348.868 274.54 L
349.016 274.169 L
349.163 273.796 L
349.31 273.421 L
349.458 273.044 L
349.605 272.665 L
349.753 272.284 L
349.9 271.902 L
350.047 271.518 L
350.195 271.131 L
350.342 270.743 L
350.49 270.353 L
350.637 269.961 L
350.784 269.567 L
350.932 269.171 L
351.079 268.774 L
351.226 268.374 L
351.374 267.973 L
351.521 267.569 L
351.669 267.164 L
351.816 266.756 L
351.963 266.347 L
352.111 265.936 L
352.258 265.523 L
352.405 265.108 L
352.553 264.69 L
352.7 264.271 L
352.848 263.85 L
352.995 263.427 L
353.142 263.002 L
353.29 262.575 L
353.437 262.147 L
353.585 261.716 L
353.732 261.283 L
353.879 260.848 L
354.027 260.411 L
354.174 259.972 L
354.321 259.531 L
354.469 259.088 L
354.616 258.643 L
354.764 258.196 L
354.911 257.747 L
355.058 257.296 L
355.206 256.843 L
355.353 256.388 L
355.5 255.931 L
355.648 255.472 L
355.795 255.011 L
355.943 254.548 L
356.09 254.082 L
356.237 253.615 L
356.385 253.146 L
356.532 252.674 L
356.68 252.201 L
356.827 251.726 L
356.974 251.248 L
357.122 250.769 L
357.269 250.287 L
357.416 249.803 L
357.564 249.318 L
357.711 248.83 L
357.859 248.34 L
358.006 247.848 L
358.153 247.354 L
358.301 246.858 L
358.448 246.36 L
358.596 245.86 L
358.743 245.358 L
358.89 244.853 L
359.038 244.347 L
359.185 243.838 L
359.332 243.328 L
359.48 242.815 L
359.627 242.301 L
359.775 241.784 L
359.922 241.265 L
360.069 240.744 L
360.217 240.222 L
360.364 239.697 L
360.512 239.17 L
360.659 238.64 L
360.806 238.109 L
360.954 237.576 L
361.101 237.041 L
361.248 236.504 L
361.396 235.964 L
361.543 235.423 L
361.691 234.879 L
361.838 234.334 L
361.985 233.786 L
362.133 233.236 L
362.28 232.685 L
362.427 232.131 L
362.575 231.575 L
362.722 231.018 L
362.87 230.458 L
363.017 229.896 L
363.164 229.332 L
363.312 228.766 L
363.459 228.198 L
363.607 227.628 L
363.754 227.056 L
363.901 226.482 L
364.049 225.906 L
364.196 225.329 L
364.343 224.749 L
364.491 224.167 L
364.638 223.583 L
364.786 222.997 L
364.933 222.409 L
365.08 221.819 L
365.228 221.228 L
365.375 220.634 L
365.523 220.038 L
365.67 219.441 L
365.817 218.841 L
365.965 218.24 L
366.112 217.637 L
366.259 217.031 L
366.407 216.424 L
366.554 215.815 L
366.702 215.204 L
366.849 214.591 L
366.996 213.977 L
367.144 213.36 L
367.291 212.742 L
367.438 212.122 L
367.586 211.5 L
367.733 210.876 L
367.881 210.25 L
368.028 209.623 L
368.175 208.993 L
368.323 208.362 L
368.47 207.73 L
368.618 207.095 L
368.765 206.459 L
368.912 205.821 L
369.06 205.181 L
369.207 204.539 L
369.354 203.896 L
369.502 203.251 L
369.649 202.605 L
369.797 201.956 L
369.944 201.306 L
370.091 200.655 L
370.239 200.002 L
370.386 199.347 L
370.534 198.691 L
370.681 198.033 L
370.828 197.373 L
370.976 196.712 L
371.123 196.05 L
371.27 195.385 L
371.418 194.72 L
371.565 194.053 L
371.713 193.384 L
371.86 192.714 L
372.007 192.043 L
372.155 191.37 L
372.302 190.695 L
372.449 190.02 L
372.597 189.343 L
372.744 188.664 L
372.892 187.985 L
373.039 187.304 L
373.186 186.621 L
373.334 185.938 L
373.481 185.253 L
373.629 184.567 L
373.776 183.879 L
373.923 183.191 L
374.071 182.501 L
374.218 181.81 L
374.365 181.118 L
374.513 180.425 L
374.66 179.731 L
374.808 179.036 L
374.955 178.34 L
375.102 177.642 L
375.25 176.944 L
375.397 176.245 L
375.545 175.545 L
375.692 174.843 L
375.839 174.141 L
375.987 173.439 L
376.134 172.735 L
376.281 172.03 L
376.429 171.325 L
376.576 170.619 L
376.724 169.912 L
376.871 169.204 L
377.018 168.496 L
377.166 167.787 L
377.313 167.077 L
377.46 166.367 L
377.608 165.657 L
377.755 164.945 L
377.903 164.233 L
378.05 163.521 L
378.197 162.808 L
378.345 162.095 L
378.492 161.382 L
378.64 160.668 L
378.787 159.953 L
378.934 159.239 L
379.082 158.524 L
379.229 157.809 L
379.376 157.093 L
379.524 156.378 L
379.671 155.662 L
379.819 154.946 L
379.966 154.23 L
380.113 153.514 L
380.261 152.799 L
380.408 152.083 L
380.556 151.367 L
380.703 150.651 L
380.85 149.936 L
380.998 149.22 L
381.145 148.505 L
381.292 147.79 L
381.44 147.075 L
381.587 146.361 L
381.735 145.647 L
381.882 144.933 L
382.029 144.22 L
382.177 143.507 L
382.324 142.795 L
382.471 142.084 L
382.619 141.372 L
382.766 140.662 L
382.914 139.952 L
383.061 139.243 L
383.208 138.535 L
383.356 137.827 L
383.503 137.121 L
383.651 136.415 L
383.798 135.71 L
383.945 135.006 L
384.093 134.303 L
384.24 133.601 L
384.387 132.901 L
384.535 132.201 L
384.682 131.503 L
384.83 130.805 L
384.977 130.109 L
385.124 129.415 L
385.272 128.722 L
385.419 128.03 L
385.567 127.339 L
385.714 126.65 L
385.861 125.963 L
386.009 125.277 L
386.156 124.593 L
386.303 123.911 L
386.451 123.23 L
386.598 122.551 L
386.746 121.874 L
386.893 121.199 L
387.04 120.526 L
387.188 119.854 L
387.335 119.185 L
387.482 118.518 L
387.63 117.853 L
387.777 117.19 L
387.925 116.53 L
388.072 115.871 L
388.219 115.215 L
388.367 114.562 L
388.514 113.91 L
388.662 113.262 L
388.809 112.616 L
388.956 111.972 L
389.104 111.331 L
389.251 110.693 L
389.398 110.058 L
389.546 109.425 L
389.693 108.795 L
389.841 108.168 L
389.988 107.544 L
390.135 106.924 L
390.283 106.306 L
390.43 105.691 L
390.578 105.08 L
390.725 104.471 L
390.872 103.866 L
391.02 103.265 L
391.167 102.667 L
391.314 102.072 L
391.462 101.481 L
391.609 100.893 L
391.757 100.309 L
391.904 99.729 L
392.051 99.152 L
392.199 98.58 L
392.346 98.011 L
392.493 97.446 L
392.641 96.885 L
392.788 96.328 L
392.936 95.775 L
393.083 95.226 L
393.23 94.681 L
393.378 94.141 L
393.525 93.605 L
393.673 93.073 L
393.82 92.546 L
393.967 92.023 L
394.115 91.505 L
394.262 90.991 L
394.409 90.482 L
394.557 89.978 L
394.704 89.479 L
394.852 88.984 L
394.999 88.494 L
395.146 88.009 L
395.294 87.53 L
395.441 87.055 L
395.589 86.585 L
395.736 86.121 L
395.883 85.661 L
396.031 85.207 L
396.178 84.759 L
396.325 84.316 L
396.473 83.878 L
396.62 83.446 L
396.768 83.019 L
396.915 82.598 L
397.062 82.183 L
397.21 81.773 L
397.357 81.369 L
397.505 80.971 L
397.652 80.579 L
397.799 80.193 L
397.947 79.813 L
398.094 79.439 L
398.241 79.071 L
398.389 78.71 L
398.536 78.354 L
398.684 78.005 L
398.831 77.662 L
398.978 77.326 L
399.126 76.996 L
399.273 76.673 L
399.42 76.356 L
399.568 76.046 L
399.715 75.742 L
399.863 75.446 L
400.01 75.156 L
400.157 74.873 L
400.305 74.596 L
400.452 74.327 L
400.6 74.065 L
400.747 73.81 L
400.894 73.562 L
401.042 73.321 L
401.189 73.087 L
401.336 72.86 L
401.484 72.641 L
401.631 72.429 L
401.779 72.224 L
401.926 72.027 L
402.073 71.838 L
402.221 71.656 L
402.368 71.481 L
402.516 71.314 L
402.663 71.155 L
402.81 71.004 L
402.958 70.86 L
403.105 70.724 L
403.252 70.596 L
403.4 70.476 L
403.547 70.364 L
403.695 70.259 L
403.842 70.163 L
403.989 70.075 L
404.137 69.995 L
404.284 69.923 L
404.431 69.859 L
404.579 69.804 L
404.726 69.757 L
404.874 69.718 L
405.021 69.687 L
405.168 69.665 L
405.316 69.651 L
405.463 69.646 L
405.611 69.649 L
405.758 69.66 L
405.905 69.68 L
406.053 69.709 L
406.2 69.746 L
406.347 69.792 L
406.495 69.847 L
406.642 69.91 L
406.79 69.982 L
406.937 70.063 L
407.084 70.153 L
407.232 70.251 L
407.379 70.358 L
407.527 70.474 L
407.674 70.599 L
407.821 70.733 L
407.969 70.876 L
408.116 71.028 L
408.263 71.188 L
408.411 71.358 L
408.558 71.537 L
408.706 71.724 L
408.853 71.921 L
409 72.127 L
409.148 72.342 L
409.295 72.566 L
409.442 72.799 L
409.59 73.041 L
409.737 73.292 L
409.885 73.552 L
410.032 73.822 L
410.179 74.101 L
410.327 74.389 L
410.474 74.686 L
410.622 74.992 L
410.769 75.308 L
410.916 75.632 L
411.064 75.966 L
411.211 76.309 L
411.358 76.661 L
411.506 77.023 L
411.653 77.393 L
411.801 77.773 L
411.948 78.162 L
412.095 78.56 L
412.243 78.968 L
412.39 79.384 L
412.538 79.81 L
412.685 80.245 L
412.832 80.689 L
412.98 81.142 L
413.127 81.604 L
413.274 82.076 L
413.422 82.556 L
413.569 83.046 L
413.717 83.545 L
413.864 84.052 L
414.011 84.569 L
414.159 85.095 L
414.306 85.63 L
414.453 86.174 L
414.601 86.727 L
414.748 87.288 L
414.896 87.859 L
415.043 88.439 L
415.19 89.027 L
415.338 89.624 L
415.485 90.231 L
415.633 90.846 L
415.78 91.469 L
415.927 92.102 L
416.075 92.743 L
416.222 93.393 L
416.369 94.051 L
416.517 94.718 L
416.664 95.393 L
416.812 96.078 L
416.959 96.77 L
417.106 97.471 L
417.254 98.18 L
417.401 98.898 L
417.549 99.624 L
417.696 100.359 L
417.843 101.101 L
417.991 101.852 L
418.138 102.611 L
418.285 103.378 L
418.433 104.153 L
418.58 104.936 L
418.728 105.727 L
418.875 106.525 L
419.022 107.332 L
419.17 108.146 L
419.317 108.968 L
419.465 109.798 L
419.612 110.636 L
419.759 111.48 L
419.907 112.333 L
420.054 113.193 L
420.201 114.06 L
420.349 114.934 L
420.496 115.816 L
420.644 116.705 L
420.791 117.601 L
420.938 118.504 L
421.086 119.414 L
421.233 120.331 L
421.38 121.255 L
421.528 122.185 L
421.675 123.122 L
421.823 124.066 L
421.97 125.017 L
422.117 125.973 L
422.265 126.937 L
422.412 127.906 L
422.56 128.882 L
422.707 129.864 L
422.854 130.852 L
423.002 131.846 L
423.149 132.847 L
423.296 133.852 L
423.444 134.864 L
423.591 135.882 L
423.739 136.905 L
423.886 137.933 L
424.033 138.967 L
424.181 140.007 L
424.328 141.051 L
424.475 142.101 L
424.623 143.156 L
424.77 144.216 L
424.918 145.281 L
425.065 146.351 L
425.212 147.425 L
425.36 148.504 L
425.507 149.588 L
425.655 150.676 L
425.802 151.769 L
425.949 152.866 L
426.097 153.967 L
426.244 155.072 L
426.391 156.181 L
426.539 157.294 L
426.686 158.411 L
426.834 159.532 L
426.981 160.656 L
427.128 161.784 L
427.276 162.915 L
427.423 164.05 L
427.571 165.188 L
427.718 166.329 L
427.865 167.473 L
428.013 168.62 L
428.16 169.77 L
428.307 170.923 L
428.455 172.078 L
428.602 173.236 L
428.75 174.397 L
428.897 175.559 L
429.044 176.724 L
429.192 177.892 L
429.339 179.061 L
429.487 180.232 L
429.634 181.405 L
429.781 182.58 L
429.929 183.757 L
430.076 184.935 L
430.223 186.114 L
430.371 187.295 L
430.518 188.477 L
430.666 189.661 L
430.813 190.845 L
430.96 192.03 L
431.108 193.217 L
431.255 194.404 L
431.402 195.591 L
431.55 196.779 L
431.697 197.968 L
431.845 199.157 L
431.992 200.346 L
432.139 201.536 L
432.287 202.725 L
432.434 203.915 L
432.582 205.104 L
432.729 206.293 L
432.876 207.482 L
433.024 208.67 L
433.171 209.858 L
433.318 211.045 L
433.466 212.231 L
433.613 213.417 L
433.761 214.602 L
433.908 215.785 L
434.055 216.968 L
434.203 218.149 L
434.35 219.329 L
434.497 220.508 L
434.645 221.685 L
434.792 222.86 L
434.94 224.034 L
435.087 225.206 L
435.234 226.377 L
435.382 227.545 L
435.529 228.711 L
435.677 229.875 L
435.824 231.037 L
435.971 232.197 L
436.119 233.354 L
436.266 234.509 L
436.413 235.661 L
436.561 236.811 L
436.708 237.957 L
436.856 239.101 L
437.003 240.242 L
437.15 241.38 L
437.298 242.515 L
437.445 243.647 L
437.593 244.776 L
437.74 245.901 L
437.887 247.023 L
438.035 248.141 L
438.182 249.256 L
438.329 250.367 L
438.477 251.475 L
438.624 252.578 L
438.772 253.678 L
438.919 254.774 L
439.066 255.866 L
439.214 256.954 L
439.361 258.038 L
439.509 259.117 L
439.656 260.192 L
439.803 261.263 L
439.951 262.33 L
440.098 263.392 L
440.245 264.449 L
440.393 265.502 L
440.54 266.55 L
440.688 267.594 L
440.835 268.633 L
440.982 269.666 L
441.13 270.695 L
441.277 271.719 L
441.424 272.738 L
441.572 273.752 L
441.719 274.761 L
441.867 275.764 L
442.014 276.763 L
442.161 277.756 L
442.309 278.744 L
442.456 279.726 L
442.604 280.703 L
442.751 281.674 L
442.898 282.64 L
443.046 283.6 L
443.193 284.555 L
443.34 285.504 L
443.488 286.448 L
443.635 287.385 L
443.783 288.317 L
443.93 289.243 L
444.077 290.163 L
444.225 291.078 L
444.372 291.986 L
444.52 292.888 L
444.667 293.785 L
444.814 294.675 L
444.962 295.56 L
445.109 296.438 L
445.256 297.31 L
445.404 298.177 L
445.551 299.036 L
445.699 299.89 L
445.846 300.738 L
445.993 301.579 L
446.141 302.414 L
446.288 303.243 L
446.435 304.066 L
446.583 304.882 L
446.73 305.692 L
446.878 306.496 L
447.025 307.293 L
447.172 308.084 L
447.32 308.868 L
447.467 309.647 L
447.615 310.418 L
447.762 311.184 L
447.909 311.943 L
448.057 312.695 L
448.204 313.442 L
448.351 314.181 L
448.499 314.915 L
448.646 315.641 L
448.794 316.362 L
448.941 317.076 L
449.088 317.783 L
449.236 318.484 L
449.383 319.179 L
449.531 319.867 L
449.678 320.549 L
449.825 321.225 L
449.973 321.894 L
450.12 322.556 L
450.267 323.212 L
450.415 323.862 L
450.562 324.506 L
450.71 325.143 L
450.857 325.773 L
451.004 326.398 L
451.152 327.016 L
451.299 327.627 L
451.447 328.233 L
451.594 328.832 L
451.741 329.424 L
451.889 330.011 L
452.036 330.591 L
452.183 331.165 L
452.331 331.733 L
452.478 332.295 L
452.626 332.85 L
452.773 333.4 L
452.92 333.943 L
453.068 334.48 L
453.215 335.011 L
453.362 335.536 L
453.51 336.056 L
453.657 336.569 L
453.805 337.076 L
453.952 337.577 L
454.099 338.072 L
454.247 338.561 L
454.394 339.045 L
454.542 339.523 L
454.689 339.995 L
454.836 340.461 L
454.984 340.921 L
455.131 341.376 L
455.278 341.825 L
455.426 342.268 L
455.573 342.706 L
455.721 343.138 L
455.868 343.565 L
456.015 343.986 L
456.163 344.402 L
456.31 344.812 L
456.457 345.217 L
456.605 345.617 L
456.752 346.011 L
456.9 346.4 L
457.047 346.784 L
457.194 347.162 L
457.342 347.535 L
457.489 347.904 L
457.637 348.267 L
457.784 348.625 L
457.931 348.978 L
458.079 349.326 L
458.226 349.669 L
458.373 350.007 L
458.521 350.341 L
458.668 350.669 L
458.816 350.993 L
458.963 351.312 L
459.11 351.627 L
459.258 351.937 L
459.405 352.242 L
459.553 352.542 L
459.7 352.839 L
459.847 353.13 L
459.995 353.417 L
460.142 353.7 L
460.289 353.979 L
460.437 354.253 L
460.584 354.523 L
460.732 354.788 L
460.879 355.05 L
461.026 355.307 L
461.174 355.56 L
461.321 355.809 L
461.469 356.055 L
461.616 356.296 L
461.763 356.533 L
461.911 356.766 L
462.058 356.996 L
462.205 357.222 L
462.353 357.444 L
462.5 357.662 L
462.648 357.877 L
462.795 358.088 L
462.942 358.295 L
463.09 358.499 L
463.237 358.699 L
463.384 358.896 L
463.532 359.09 L
463.679 359.28 L
463.827 359.467 L
463.974 359.65 L
464.121 359.831 L
464.269 360.008 L
464.416 360.181 L
464.564 360.352 L
464.711 360.52 L
464.858 360.685 L
465.006 360.846 L
465.153 361.005 L
465.3 361.161 L
465.448 361.313 L
465.595 361.463 L
465.743 361.611 L
465.89 361.755 L
466.037 361.897 L
466.185 362.036 L
466.332 362.172 L
466.479 362.306 L
466.627 362.437 L
466.774 362.565 L
466.922 362.692 L
467.069 362.815 L
467.216 362.936 L
467.364 363.055 L
467.511 363.172 L
467.659 363.286 L
467.806 363.398 L
467.953 363.507 L
468.101 363.615 L
468.248 363.72 L
468.395 363.823 L
468.543 363.924 L
468.69 364.023 L
468.838 364.12 L
468.985 364.214 L
469.132 364.307 L
469.28 364.398 L
469.427 364.487 L
469.575 364.574 L
469.722 364.659 L
469.869 364.743 L
470.017 364.824 L
470.164 364.904 L
470.311 364.982 L
470.459 365.059 L
470.606 365.134 L
470.754 365.207 L
470.901 365.278 L
471.048 365.348 L
471.196 365.417 L
471.343 365.483 L
471.491 365.549 L
471.638 365.613 L
471.785 365.675 L
471.933 365.736 L
472.08 365.796 L
472.227 365.854 L
472.375 365.911 L
472.522 365.967 L
472.67 366.021 L
472.817 366.074 L
472.964 366.126 L
473.112 366.176 L
473.259 366.226 L
473.406 366.274 L
473.554 366.321 L
473.701 366.367 L
473.849 366.412 L
473.996 366.456 L
474.143 366.498 L
474.291 366.54 L
474.438 366.581 L
474.586 366.62 L
474.733 366.659 L
474.88 366.697 L
475.028 366.733 L
475.175 366.769 L
475.322 366.804 L
475.47 366.838 L
475.617 366.872 L
475.765 366.904 L
475.912 366.935 L
476.059 366.966 L
476.207 366.996 L
476.354 367.025 L
476.502 367.054 L
476.649 367.082 L
476.796 367.109 L
476.944 367.135 L
477.091 367.16 L
477.238 367.185 L
477.386 367.21 L
477.533 367.233 L
477.681 367.256 L
477.828 367.279 L
477.975 367.3 L
478.123 367.321 L
478.27 367.342 L
478.417 367.362 L
478.565 367.382 L
478.712 367.401 L
478.86 367.419 L
479.007 367.437 L
479.154 367.454 L
479.302 367.471 L
479.449 367.488 L
479.597 367.504 L
479.744 367.519 L
479.891 367.535 L
480.039 367.549 L
480.186 367.564 L
480.333 367.577 L
480.481 367.591 L
480.628 367.604 L
480.776 367.617 L
480.923 367.629 L
481.07 367.641 L
481.218 367.653 L
481.365 367.664 L
481.513 367.675 L
481.66 367.685 L
481.807 367.696 L
481.955 367.706 L
482.102 367.716 L
482.249 367.725 L
482.397 367.734 L
482.544 367.743 L
482.692 367.752 L
482.839 367.76 L
482.986 367.768 L
483.134 367.776 L
483.281 367.783 L
483.428 367.791 L
483.576 367.798 L
483.723 367.805 L
483.871 367.811 L
484.018 367.818 L
484.165 367.824 L
484.313 367.83 L
484.46 367.836 L
484.608 367.842 L
484.755 367.847 L
484.902 367.853 L
485.05 367.858 L
485.197 367.863 L
485.344 367.868 L
485.492 367.872 L
485.639 367.877 L
485.787 367.881 L
485.934 367.886 L
486.081 367.89 L
486.229 367.894 L
486.376 367.898 L
486.523 367.901 L
486.671 367.905 L
486.818 367.908 L
486.966 367.912 L
487.113 367.915 L
487.26 367.918 L
487.408 367.921 L
487.555 367.924 L
487.703 367.927 L
487.85 367.93 L
487.997 367.932 L
488.145 367.935 L
488.292 367.937 L
488.439 367.94 L
488.587 367.942 L
488.734 367.944 L
488.882 367.946 L
489.029 367.948 L
489.176 367.95 L
489.324 367.952 L
489.471 367.954 L
489.619 367.956 L
489.766 367.957 L
489.913 367.959 L
490.061 367.961 L
490.208 367.962 L
490.355 367.964 L
490.503 367.965 L
490.65 367.966 L
490.798 367.968 L
490.945 367.969 L
491.092 367.97 L
491.24 367.971 L
491.387 367.973 L
491.535 367.974 L
491.682 367.975 L
491.829 367.976 L
491.977 367.977 L
492.124 367.978 L
492.271 367.979 L
492.419 367.979 L
492.566 367.98 L
492.714 367.981 L
492.861 367.982 L
493.008 367.983 L
493.156 367.983 L
493.303 367.984 L
493.451 367.985 L
493.598 367.985 L
493.745 367.986 L
493.893 367.987 L
494.04 367.987 L
494.187 367.988 L
494.335 367.988 L
494.482 367.989 L
494.63 367.989 L
494.777 367.99 L
494.924 367.99 L
495.072 367.99 L
495.219 367.991 L
495.366 367.991 L
495.514 367.992 L
495.661 367.992 L
495.809 367.992 L
495.956 367.993 L
496.103 367.993 L
496.251 367.993 L
496.398 367.994 L
496.546 367.994 L
496.693 367.994 L
496.84 367.994 L
496.988 367.995 L
497.135 367.995 L
497.282 367.995 L
497.43 367.995 L
497.577 367.996 L
497.725 367.996 L
497.872 367.996 L
498.019 367.996 L
498.167 367.996 L
498.314 367.996 L
498.461 367.997 L
498.609 367.997 L
498.756 367.997 L
498.904 367.997 L
499.051 367.997 L
499.198 367.997 L
499.346 367.997 L
499.493 367.998 L
499.641 367.998 L
499.788 367.998 L
499.935 367.998 L
500.083 367.998 L
500.23 367.998 L
500.377 367.998 L
500.525 367.998 L
500.672 367.998 L
500.82 367.998 L
500.967 367.999 L
501.114 367.999 L
501.262 367.999 L
501.409 367.999 L
501.557 367.999 L
501.704 367.999 L
501.851 367.999 L
501.999 367.999 L
502.146 367.999 L
502.293 367.999 L
502.441 367.999 L
502.588 367.999 L
502.736 367.999 L
502.883 367.999 L
503.03 367.999 L
503.178 367.999 L
503.325 367.999 L
503.473 367.999 L
503.62 367.999 L
503.767 367.999 L
503.915 367.999 L
504.062 367.999 L
504.209 368 L
504.357 368 L
504.504 368 L
504.652 368 L
504.799 368 L
504.946 368 L
505.094 368 L
505.241 368 L
505.388 368 L
505.536 368 L
505.683 368 L
505.831 368 L
505.978 368 L
506.125 368 L
506.273 368 L
506.42 368 L
506.568 368 L
506.715 368 L
506.862 368 L
507.01 368 L
507.157 368 L
507.304 368 L
507.452 368 L
507.599 368 L
507.747 368 L
507.894 368 L
508.041 368 L
508.189 368 L
508.336 368 L
508.483 368 L
508.631 368 L
508.778 368 L
508.926 368 L
509.073 368 L
509.22 368 L
509.368 368 L
509.515 368 L
509.663 368 L
509.81 368 L
509.957 368 L
510.105 368 L
510.252 368 L
510.399 368 L
510.547 368 L
510.694 368 L
510.842 368 L
510.989 368 L
511.136 368 L
511.284 368 L
511.431 368 L
511.579 368 L
511.726 368 L
511.873 368 L
512.021 368 L
512.168 368 L
512.315 368 L
512.463 368 L
512.61 368 L
512.758 368 L
512.905 368 L
513.052 368 L
513.2 368 L
513.347 368 L
513.495 368 L
513.642 368 L
513.789 368 L
513.937 368 L
514.084 368 L
514.231 368 L
514.379 368 L
514.526 368 L
514.674 368 L
514.821 368 L
514.968 368 L
515.116 368 L
515.263 368 L
515.41 368 L
515.558 368 L
515.705 368 L
515.853 368 L
516 368 L
S
GR
%%Trailer
%%Pages: 1
%%EOF
