%!PS-Adobe-3.0 EPSF-3.0
%%Creator: (MATLAB, The Mathworks, Inc. Version 9.9.0.1524771 \(R2020b\) Update 2. Operating System: Linux)
%%Title: /evo/src/dissertation/figs/ou-validated.eps
%%CreationDate: 2022-04-01T22:49:23
%%Pages: (atend)
%%BoundingBox:     0     0   446   324
%%LanguageLevel: 3
%%EndComments
%%BeginProlog
%%BeginResource: procset (Apache XML Graphics Std ProcSet) 1.2 0
%%Version: 1.2 0
%%Copyright: (Copyright 2001-2003,2010 The Apache Software Foundation. License terms: http://www.apache.org/licenses/LICENSE-2.0)
/bd{bind def}bind def
/ld{load def}bd
/GR/grestore ld
/GS/gsave ld
/RM/rmoveto ld
/C/curveto ld
/t/show ld
/L/lineto ld
/ML/setmiterlimit ld
/CT/concat ld
/f/fill ld
/N/newpath ld
/S/stroke ld
/CC/setcmykcolor ld
/A/ashow ld
/cp/closepath ld
/RC/setrgbcolor ld
/LJ/setlinejoin ld
/GC/setgray ld
/LW/setlinewidth ld
/M/moveto ld
/re {4 2 roll M
1 index 0 rlineto
0 exch rlineto
neg 0 rlineto
cp } bd
/_ctm matrix def
/_tm matrix def
/BT { _ctm currentmatrix pop matrix _tm copy pop 0 0 moveto } bd
/ET { _ctm setmatrix } bd
/iTm { _ctm setmatrix _tm concat } bd
/Tm { _tm astore pop iTm 0 0 moveto } bd
/ux 0.0 def
/uy 0.0 def
/F {
  /Tp exch def
  /Tf exch def
  Tf findfont Tp scalefont setfont
  /cf Tf def  /cs Tp def
} bd
/ULS {currentpoint /uy exch def /ux exch def} bd
/ULE {
  /Tcx currentpoint pop def
  gsave
  newpath
  cf findfont cs scalefont dup
  /FontMatrix get 0 get /Ts exch def /FontInfo get dup
  /UnderlinePosition get Ts mul /To exch def
  /UnderlineThickness get Ts mul /Tt exch def
  ux uy To add moveto  Tcx uy To add lineto
  Tt setlinewidth stroke
  grestore
} bd
/OLE {
  /Tcx currentpoint pop def
  gsave
  newpath
  cf findfont cs scalefont dup
  /FontMatrix get 0 get /Ts exch def /FontInfo get dup
  /UnderlinePosition get Ts mul /To exch def
  /UnderlineThickness get Ts mul /Tt exch def
  ux uy To add cs add moveto Tcx uy To add cs add lineto
  Tt setlinewidth stroke
  grestore
} bd
/SOE {
  /Tcx currentpoint pop def
  gsave
  newpath
  cf findfont cs scalefont dup
  /FontMatrix get 0 get /Ts exch def /FontInfo get dup
  /UnderlinePosition get Ts mul /To exch def
  /UnderlineThickness get Ts mul /Tt exch def
  ux uy To add cs 10 mul 26 idiv add moveto Tcx uy To add cs 10 mul 26 idiv add lineto
  Tt setlinewidth stroke
  grestore
} bd
/QT {
/Y22 exch store
/X22 exch store
/Y21 exch store
/X21 exch store
currentpoint
/Y21 load 2 mul add 3 div exch
/X21 load 2 mul add 3 div exch
/X21 load 2 mul /X22 load add 3 div
/Y21 load 2 mul /Y22 load add 3 div
/X22 load /Y22 load curveto
} bd
/SSPD {
dup length /d exch dict def
{
/v exch def
/k exch def
currentpagedevice k known {
/cpdv currentpagedevice k get def
v cpdv ne {
/upd false def
/nullv v type /nulltype eq def
/nullcpdv cpdv type /nulltype eq def
nullv nullcpdv or
{
/upd true def
} {
/sametype v type cpdv type eq def
sametype {
v type /arraytype eq {
/vlen v length def
/cpdvlen cpdv length def
vlen cpdvlen eq {
0 1 vlen 1 sub {
/i exch def
/obj v i get def
/cpdobj cpdv i get def
obj cpdobj ne {
/upd true def
exit
} if
} for
} {
/upd true def
} ifelse
} {
v type /dicttype eq {
v {
/dv exch def
/dk exch def
/cpddv cpdv dk get def
dv cpddv ne {
/upd true def
exit
} if
} forall
} {
/upd true def
} ifelse
} ifelse
} if
} ifelse
upd true eq {
d k v put
} if
} if
} if
} forall
d length 0 gt {
d setpagedevice
} if
} bd
/RE { % /NewFontName [NewEncodingArray] /FontName RE -
  findfont dup length dict begin
  {
    1 index /FID ne
    {def} {pop pop} ifelse
  } forall
  /Encoding exch def
  /FontName 1 index def
  currentdict definefont pop
  end
} bind def
%%EndResource
%%BeginResource: procset (Apache XML Graphics EPS ProcSet) 1.0 0
%%Version: 1.0 0
%%Copyright: (Copyright 2002-2003 The Apache Software Foundation. License terms: http://www.apache.org/licenses/LICENSE-2.0)
/BeginEPSF { %def
/b4_Inc_state save def         % Save state for cleanup
/dict_count countdictstack def % Count objects on dict stack
/op_count count 1 sub def      % Count objects on operand stack
userdict begin                 % Push userdict on dict stack
/showpage { } def              % Redefine showpage, { } = null proc
0 setgray 0 setlinecap         % Prepare graphics state
1 setlinewidth 0 setlinejoin
10 setmiterlimit [ ] 0 setdash newpath
/languagelevel where           % If level not equal to 1 then
{pop languagelevel             % set strokeadjust and
1 ne                           % overprint to their defaults.
{false setstrokeadjust false setoverprint
} if
} if
} bd
/EndEPSF { %def
count op_count sub {pop} repeat            % Clean up stacks
countdictstack dict_count sub {end} repeat
b4_Inc_state restore
} bd
%%EndResource
%FOPBeginFontDict
%%IncludeResource: font Courier-Oblique
%%IncludeResource: font Courier-BoldOblique
%%IncludeResource: font Courier-Bold
%%IncludeResource: font ZapfDingbats
%%IncludeResource: font Symbol
%%IncludeResource: font Helvetica
%%IncludeResource: font Helvetica-Oblique
%%IncludeResource: font Helvetica-Bold
%%IncludeResource: font Helvetica-BoldOblique
%%IncludeResource: font Times-Roman
%%IncludeResource: font Times-Italic
%%IncludeResource: font Times-Bold
%%IncludeResource: font Times-BoldItalic
%%IncludeResource: font Courier
%FOPEndFontDict
%%BeginResource: encoding WinAnsiEncoding
/WinAnsiEncoding [
/.notdef /.notdef /.notdef /.notdef /.notdef
/.notdef /.notdef /.notdef /.notdef /.notdef
/.notdef /.notdef /.notdef /.notdef /.notdef
/.notdef /.notdef /.notdef /.notdef /.notdef
/.notdef /.notdef /.notdef /.notdef /.notdef
/.notdef /.notdef /.notdef /.notdef /.notdef
/.notdef /.notdef /space /exclam /quotedbl
/numbersign /dollar /percent /ampersand /quotesingle
/parenleft /parenright /asterisk /plus /comma
/hyphen /period /slash /zero /one
/two /three /four /five /six
/seven /eight /nine /colon /semicolon
/less /equal /greater /question /at
/A /B /C /D /E
/F /G /H /I /J
/K /L /M /N /O
/P /Q /R /S /T
/U /V /W /X /Y
/Z /bracketleft /backslash /bracketright /asciicircum
/underscore /quoteleft /a /b /c
/d /e /f /g /h
/i /j /k /l /m
/n /o /p /q /r
/s /t /u /v /w
/x /y /z /braceleft /bar
/braceright /asciitilde /bullet /Euro /bullet
/quotesinglbase /florin /quotedblbase /ellipsis /dagger
/daggerdbl /circumflex /perthousand /Scaron /guilsinglleft
/OE /bullet /Zcaron /bullet /bullet
/quoteleft /quoteright /quotedblleft /quotedblright /bullet
/endash /emdash /asciitilde /trademark /scaron
/guilsinglright /oe /bullet /zcaron /Ydieresis
/space /exclamdown /cent /sterling /currency
/yen /brokenbar /section /dieresis /copyright
/ordfeminine /guillemotleft /logicalnot /sfthyphen /registered
/macron /degree /plusminus /twosuperior /threesuperior
/acute /mu /paragraph /middot /cedilla
/onesuperior /ordmasculine /guillemotright /onequarter /onehalf
/threequarters /questiondown /Agrave /Aacute /Acircumflex
/Atilde /Adieresis /Aring /AE /Ccedilla
/Egrave /Eacute /Ecircumflex /Edieresis /Igrave
/Iacute /Icircumflex /Idieresis /Eth /Ntilde
/Ograve /Oacute /Ocircumflex /Otilde /Odieresis
/multiply /Oslash /Ugrave /Uacute /Ucircumflex
/Udieresis /Yacute /Thorn /germandbls /agrave
/aacute /acircumflex /atilde /adieresis /aring
/ae /ccedilla /egrave /eacute /ecircumflex
/edieresis /igrave /iacute /icircumflex /idieresis
/eth /ntilde /ograve /oacute /ocircumflex
/otilde /odieresis /divide /oslash /ugrave
/uacute /ucircumflex /udieresis /yacute /thorn
/ydieresis
] def
%%EndResource
%FOPBeginFontReencode
/Courier-Oblique findfont
dup length dict begin
  {1 index /FID ne {def} {pop pop} ifelse} forall
  /Encoding WinAnsiEncoding def
  currentdict
end
/Courier-Oblique exch definefont pop
/Courier-BoldOblique findfont
dup length dict begin
  {1 index /FID ne {def} {pop pop} ifelse} forall
  /Encoding WinAnsiEncoding def
  currentdict
end
/Courier-BoldOblique exch definefont pop
/Courier-Bold findfont
dup length dict begin
  {1 index /FID ne {def} {pop pop} ifelse} forall
  /Encoding WinAnsiEncoding def
  currentdict
end
/Courier-Bold exch definefont pop
/Helvetica findfont
dup length dict begin
  {1 index /FID ne {def} {pop pop} ifelse} forall
  /Encoding WinAnsiEncoding def
  currentdict
end
/Helvetica exch definefont pop
/Helvetica-Oblique findfont
dup length dict begin
  {1 index /FID ne {def} {pop pop} ifelse} forall
  /Encoding WinAnsiEncoding def
  currentdict
end
/Helvetica-Oblique exch definefont pop
/Helvetica-Bold findfont
dup length dict begin
  {1 index /FID ne {def} {pop pop} ifelse} forall
  /Encoding WinAnsiEncoding def
  currentdict
end
/Helvetica-Bold exch definefont pop
/Helvetica-BoldOblique findfont
dup length dict begin
  {1 index /FID ne {def} {pop pop} ifelse} forall
  /Encoding WinAnsiEncoding def
  currentdict
end
/Helvetica-BoldOblique exch definefont pop
/Times-Roman findfont
dup length dict begin
  {1 index /FID ne {def} {pop pop} ifelse} forall
  /Encoding WinAnsiEncoding def
  currentdict
end
/Times-Roman exch definefont pop
/Times-Italic findfont
dup length dict begin
  {1 index /FID ne {def} {pop pop} ifelse} forall
  /Encoding WinAnsiEncoding def
  currentdict
end
/Times-Italic exch definefont pop
/Times-Bold findfont
dup length dict begin
  {1 index /FID ne {def} {pop pop} ifelse} forall
  /Encoding WinAnsiEncoding def
  currentdict
end
/Times-Bold exch definefont pop
/Times-BoldItalic findfont
dup length dict begin
  {1 index /FID ne {def} {pop pop} ifelse} forall
  /Encoding WinAnsiEncoding def
  currentdict
end
/Times-BoldItalic exch definefont pop
/Courier findfont
dup length dict begin
  {1 index /FID ne {def} {pop pop} ifelse} forall
  /Encoding WinAnsiEncoding def
  currentdict
end
/Courier exch definefont pop
%FOPEndFontReencode
%%EndProlog
%%Page: 1 1
%%PageBoundingBox: 0 0 446 324
%%BeginPageSetup
[1 0 0 -1 0 324] CT
%%EndPageSetup
GS
[0.78261 0 0 0.78261 0 -0.00003] CT
N
0 0 M
570 0 L
570 414 L
0 414 L
0 0 L
cp
clip
1 GC
N
0 0 570 414 re
f
GR
GS
[0.78261 0 0 0.78261 0 -0.00003] CT
1 GC
N
0 0 570 414 re
f
GR
GS
[0.78261 0 0 0.78261 0 -0.00003] CT
1 GC
N
74 368 M
516 368 L
516 31 L
74 31 L
cp
f
GR
GS
[0.78261 0 0 0.78261 0 -0.00003] CT
0.149 GC
2 setlinecap
1 LJ
0.639 LW
N
74 368 M
516 368 L
S
GR
GS
[0.78261 0 0 0.78261 0 -0.00003] CT
0.149 GC
2 setlinecap
1 LJ
0.639 LW
N
74 31 M
516 31 L
S
GR
GS
[0.78261 0 0 0.78261 0 -0.00003] CT
0.149 GC
2 setlinecap
1 LJ
0.639 LW
N
74 368 M
74 363.58 L
S
GR
GS
[0.78261 0 0 0.78261 0 -0.00003] CT
0.149 GC
2 setlinecap
1 LJ
0.639 LW
N
118.2 368 M
118.2 363.58 L
S
GR
GS
[0.78261 0 0 0.78261 0 -0.00003] CT
0.149 GC
2 setlinecap
1 LJ
0.639 LW
N
162.4 368 M
162.4 363.58 L
S
GR
GS
[0.78261 0 0 0.78261 0 -0.00003] CT
0.149 GC
2 setlinecap
1 LJ
0.639 LW
N
206.6 368 M
206.6 363.58 L
S
GR
GS
[0.78261 0 0 0.78261 0 -0.00003] CT
0.149 GC
2 setlinecap
1 LJ
0.639 LW
N
250.8 368 M
250.8 363.58 L
S
GR
GS
[0.78261 0 0 0.78261 0 -0.00003] CT
0.149 GC
2 setlinecap
1 LJ
0.639 LW
N
295 368 M
295 363.58 L
S
GR
GS
[0.78261 0 0 0.78261 0 -0.00003] CT
0.149 GC
2 setlinecap
1 LJ
0.639 LW
N
339.2 368 M
339.2 363.58 L
S
GR
GS
[0.78261 0 0 0.78261 0 -0.00003] CT
0.149 GC
2 setlinecap
1 LJ
0.639 LW
N
383.4 368 M
383.4 363.58 L
S
GR
GS
[0.78261 0 0 0.78261 0 -0.00003] CT
0.149 GC
2 setlinecap
1 LJ
0.639 LW
N
427.6 368 M
427.6 363.58 L
S
GR
GS
[0.78261 0 0 0.78261 0 -0.00003] CT
0.149 GC
2 setlinecap
1 LJ
0.639 LW
N
471.8 368 M
471.8 363.58 L
S
GR
GS
[0.78261 0 0 0.78261 0 -0.00003] CT
0.149 GC
2 setlinecap
1 LJ
0.639 LW
N
516 368 M
516 363.58 L
S
GR
GS
[0.78261 0 0 0.78261 0 -0.00003] CT
0.149 GC
2 setlinecap
1 LJ
0.639 LW
N
74 31 M
74 35.42 L
S
GR
GS
[0.78261 0 0 0.78261 0 -0.00003] CT
0.149 GC
2 setlinecap
1 LJ
0.639 LW
N
118.2 31 M
118.2 35.42 L
S
GR
GS
[0.78261 0 0 0.78261 0 -0.00003] CT
0.149 GC
2 setlinecap
1 LJ
0.639 LW
N
162.4 31 M
162.4 35.42 L
S
GR
GS
[0.78261 0 0 0.78261 0 -0.00003] CT
0.149 GC
2 setlinecap
1 LJ
0.639 LW
N
206.6 31 M
206.6 35.42 L
S
GR
GS
[0.78261 0 0 0.78261 0 -0.00003] CT
0.149 GC
2 setlinecap
1 LJ
0.639 LW
N
250.8 31 M
250.8 35.42 L
S
GR
GS
[0.78261 0 0 0.78261 0 -0.00003] CT
0.149 GC
2 setlinecap
1 LJ
0.639 LW
N
295 31 M
295 35.42 L
S
GR
GS
[0.78261 0 0 0.78261 0 -0.00003] CT
0.149 GC
2 setlinecap
1 LJ
0.639 LW
N
339.2 31 M
339.2 35.42 L
S
GR
GS
[0.78261 0 0 0.78261 0 -0.00003] CT
0.149 GC
2 setlinecap
1 LJ
0.639 LW
N
383.4 31 M
383.4 35.42 L
S
GR
GS
[0.78261 0 0 0.78261 0 -0.00003] CT
0.149 GC
2 setlinecap
1 LJ
0.639 LW
N
427.6 31 M
427.6 35.42 L
S
GR
GS
[0.78261 0 0 0.78261 0 -0.00003] CT
0.149 GC
2 setlinecap
1 LJ
0.639 LW
N
471.8 31 M
471.8 35.42 L
S
GR
GS
[0.78261 0 0 0.78261 0 -0.00003] CT
0.149 GC
2 setlinecap
1 LJ
0.639 LW
N
516 31 M
516 35.42 L
S
GR
GS
[0.78261 0 0 0.78261 57.91306 292] CT
0.149 GC
/Helvetica 12.778 F
GS
[1 0 0 1 0 0] CT
-6.5 12 moveto 
1 -1 scale
(-5) t 
GR
GR
GS
[0.78261 0 0 0.78261 92.50436 292] CT
0.149 GC
/Helvetica 12.778 F
GS
[1 0 0 1 0 0] CT
-6.5 12 moveto 
1 -1 scale
(-4) t 
GR
GR
GS
[0.78261 0 0 0.78261 127.09566 292] CT
0.149 GC
/Helvetica 12.778 F
GS
[1 0 0 1 0 0] CT
-6.5 12 moveto 
1 -1 scale
(-3) t 
GR
GR
GS
[0.78261 0 0 0.78261 161.68697 292] CT
0.149 GC
/Helvetica 12.778 F
GS
[1 0 0 1 0 0] CT
-6.5 12 moveto 
1 -1 scale
(-2) t 
GR
GR
GS
[0.78261 0 0 0.78261 196.27827 292] CT
0.149 GC
/Helvetica 12.778 F
GS
[1 0 0 1 0 0] CT
-6.5 12 moveto 
1 -1 scale
(-1) t 
GR
GR
GS
[0.78261 0 0 0.78261 230.86957 292] CT
0.149 GC
/Helvetica 12.778 F
GS
[1 0 0 1 0 0] CT
-4.5 12 moveto 
1 -1 scale
(0) t 
GR
GR
GS
[0.78261 0 0 0.78261 265.46089 292] CT
0.149 GC
/Helvetica 12.778 F
GS
[1 0 0 1 0 0] CT
-4.5 12 moveto 
1 -1 scale
(1) t 
GR
GR
GS
[0.78261 0 0 0.78261 300.05221 292] CT
0.149 GC
/Helvetica 12.778 F
GS
[1 0 0 1 0 0] CT
-4.5 12 moveto 
1 -1 scale
(2) t 
GR
GR
GS
[0.78261 0 0 0.78261 334.6435 292] CT
0.149 GC
/Helvetica 12.778 F
GS
[1 0 0 1 0 0] CT
-4.5 12 moveto 
1 -1 scale
(3) t 
GR
GR
GS
[0.78261 0 0 0.78261 369.23481 292] CT
0.149 GC
/Helvetica 12.778 F
GS
[1 0 0 1 0 0] CT
-4.5 12 moveto 
1 -1 scale
(4) t 
GR
GR
GS
[0.78261 0 0 0.78261 403.8261 292] CT
0.149 GC
/Helvetica 12.778 F
GS
[1 0 0 1 0 0] CT
-4.5 12 moveto 
1 -1 scale
(5) t 
GR
GR
GS
[0.78261 0 0 0.78261 0 -0.00003] CT
0.149 GC
2 setlinecap
1 LJ
0.639 LW
N
74 368 M
74 31 L
S
GR
GS
[0.78261 0 0 0.78261 0 -0.00003] CT
0.149 GC
2 setlinecap
1 LJ
0.639 LW
N
516 368 M
516 31 L
S
GR
GS
[0.78261 0 0 0.78261 0 -0.00003] CT
0.149 GC
2 setlinecap
1 LJ
0.639 LW
N
74 368 M
78.42 368 L
S
GR
GS
[0.78261 0 0 0.78261 0 -0.00003] CT
0.149 GC
2 setlinecap
1 LJ
0.639 LW
N
74 311.833 M
78.42 311.833 L
S
GR
GS
[0.78261 0 0 0.78261 0 -0.00003] CT
0.149 GC
2 setlinecap
1 LJ
0.639 LW
N
74 255.667 M
78.42 255.667 L
S
GR
GS
[0.78261 0 0 0.78261 0 -0.00003] CT
0.149 GC
2 setlinecap
1 LJ
0.639 LW
N
74 199.5 M
78.42 199.5 L
S
GR
GS
[0.78261 0 0 0.78261 0 -0.00003] CT
0.149 GC
2 setlinecap
1 LJ
0.639 LW
N
74 143.333 M
78.42 143.333 L
S
GR
GS
[0.78261 0 0 0.78261 0 -0.00003] CT
0.149 GC
2 setlinecap
1 LJ
0.639 LW
N
74 87.167 M
78.42 87.167 L
S
GR
GS
[0.78261 0 0 0.78261 0 -0.00003] CT
0.149 GC
2 setlinecap
1 LJ
0.639 LW
N
74 31 M
78.42 31 L
S
GR
GS
[0.78261 0 0 0.78261 0 -0.00003] CT
0.149 GC
2 setlinecap
1 LJ
0.639 LW
N
516 368 M
511.58 368 L
S
GR
GS
[0.78261 0 0 0.78261 0 -0.00003] CT
0.149 GC
2 setlinecap
1 LJ
0.639 LW
N
516 311.833 M
511.58 311.833 L
S
GR
GS
[0.78261 0 0 0.78261 0 -0.00003] CT
0.149 GC
2 setlinecap
1 LJ
0.639 LW
N
516 255.667 M
511.58 255.667 L
S
GR
GS
[0.78261 0 0 0.78261 0 -0.00003] CT
0.149 GC
2 setlinecap
1 LJ
0.639 LW
N
516 199.5 M
511.58 199.5 L
S
GR
GS
[0.78261 0 0 0.78261 0 -0.00003] CT
0.149 GC
2 setlinecap
1 LJ
0.639 LW
N
516 143.333 M
511.58 143.333 L
S
GR
GS
[0.78261 0 0 0.78261 0 -0.00003] CT
0.149 GC
2 setlinecap
1 LJ
0.639 LW
N
516 87.167 M
511.58 87.167 L
S
GR
GS
[0.78261 0 0 0.78261 0 -0.00003] CT
0.149 GC
2 setlinecap
1 LJ
0.639 LW
N
516 31 M
511.58 31 L
S
GR
GS
[0.78261 0 0 0.78261 53.91305 288] CT
0.149 GC
/Helvetica 12.778 F
GS
[1 0 0 1 0 0] CT
-9 4 moveto 
1 -1 scale
(0) t 
GR
GR
GS
[0.78261 0 0 0.78261 53.91305 244.04348] CT
0.149 GC
/Helvetica 12.778 F
GS
[1 0 0 1 0 0] CT
-21 4 moveto 
1 -1 scale
(0.1) t 
GR
GR
GS
[0.78261 0 0 0.78261 53.91305 200.08694] CT
0.149 GC
/Helvetica 12.778 F
GS
[1 0 0 1 0 0] CT
-21 4 moveto 
1 -1 scale
(0.2) t 
GR
GR
GS
[0.78261 0 0 0.78261 53.91305 156.1304] CT
0.149 GC
/Helvetica 12.778 F
GS
[1 0 0 1 0 0] CT
-21 4 moveto 
1 -1 scale
(0.3) t 
GR
GR
GS
[0.78261 0 0 0.78261 53.91305 112.17388] CT
0.149 GC
/Helvetica 12.778 F
GS
[1 0 0 1 0 0] CT
-21 4 moveto 
1 -1 scale
(0.4) t 
GR
GR
GS
[0.78261 0 0 0.78261 53.91305 68.21732] CT
0.149 GC
/Helvetica 12.778 F
GS
[1 0 0 1 0 0] CT
-21 4 moveto 
1 -1 scale
(0.5) t 
GR
GR
GS
[0.78261 0 0 0.78261 53.91305 24.2608] CT
0.149 GC
/Helvetica 12.778 F
GS
[1 0 0 1 0 0] CT
-21 4 moveto 
1 -1 scale
(0.6) t 
GR
GR
GS
[0.78261 0 0 0.78261 0 -0.00003] CT
0 0.447 0.741 RC
1 LJ
2.556 LW
N
74 368 M
74.111 368 L
74.221 368 L
74.332 368 L
74.442 368 L
74.553 368 L
74.663 368 L
74.774 368 L
74.884 368 L
74.995 368 L
75.105 368 L
75.216 368 L
75.326 368 L
75.437 368 L
75.547 368 L
75.658 368 L
75.768 368 L
75.879 368 L
75.99 368 L
76.1 368 L
76.211 368 L
76.321 368 L
76.432 368 L
76.542 368 L
76.653 368 L
76.763 368 L
76.874 368 L
76.984 368 L
77.095 368 L
77.205 368 L
77.316 368 L
77.426 368 L
77.537 368 L
77.647 368 L
77.758 368 L
77.868 368 L
77.979 368 L
78.09 368 L
78.2 368 L
78.311 368 L
78.421 368 L
78.532 368 L
78.642 368 L
78.753 368 L
78.863 368 L
78.974 368 L
79.084 368 L
79.195 368 L
79.305 368 L
79.416 368 L
79.526 368 L
79.637 368 L
79.747 368 L
79.858 368 L
79.969 368 L
80.079 368 L
80.19 368 L
80.3 368 L
80.411 368 L
80.521 368 L
80.632 368 L
80.742 368 L
80.853 368 L
80.963 368 L
81.074 368 L
81.184 368 L
81.295 368 L
81.405 368 L
81.516 368 L
81.626 368 L
81.737 368 L
81.847 368 L
81.958 368 L
82.069 368 L
82.179 368 L
82.29 368 L
82.4 368 L
82.511 368 L
82.621 368 L
82.732 368 L
82.842 368 L
82.953 368 L
83.063 368 L
83.174 368 L
83.284 368 L
83.395 368 L
83.505 368 L
83.616 368 L
83.726 368 L
83.837 368 L
83.948 368 L
84.058 368 L
84.169 368 L
84.279 368 L
84.39 368 L
84.5 368 L
84.611 368 L
84.721 368 L
84.832 368 L
84.942 368 L
85.053 368 L
85.163 368 L
85.274 368 L
85.384 368 L
85.495 368 L
85.605 368 L
85.716 368 L
85.826 368 L
85.937 368 L
86.048 368 L
86.158 368 L
86.269 368 L
86.379 368 L
86.49 368 L
86.6 368 L
86.711 368 L
86.821 368 L
86.932 368 L
87.042 368 L
87.153 368 L
87.263 368 L
87.374 368 L
87.484 368 L
87.595 368 L
87.705 368 L
87.816 368 L
87.926 368 L
88.037 368 L
88.148 368 L
88.258 368 L
88.369 368 L
88.479 368 L
88.59 368 L
88.7 368 L
88.811 368 L
88.921 368 L
89.032 368 L
89.142 368 L
89.253 368 L
89.363 368 L
89.474 368 L
89.584 368 L
89.695 368 L
89.805 368 L
89.916 368 L
90.027 368 L
90.137 368 L
90.248 368 L
90.358 368 L
90.469 368 L
90.579 368 L
90.69 368 L
90.8 368 L
90.911 368 L
91.021 368 L
91.132 368 L
91.242 368 L
91.353 368 L
91.463 368 L
91.574 368 L
91.684 368 L
91.795 368 L
91.905 368 L
92.016 368 L
92.127 368 L
92.237 368 L
92.348 368 L
92.458 368 L
92.569 368 L
92.679 368 L
92.79 368 L
92.9 368 L
93.011 368 L
93.121 368 L
93.232 368 L
93.342 368 L
93.453 368 L
93.563 368 L
93.674 368 L
93.784 368 L
93.895 368 L
94.006 368 L
94.116 368 L
94.227 368 L
94.337 368 L
94.448 368 L
94.558 368 L
94.669 368 L
94.779 368 L
94.89 368 L
95 368 L
95.111 368 L
95.221 368 L
95.332 368 L
95.442 368 L
95.553 368 L
95.663 368 L
95.774 368 L
95.884 368 L
95.995 368 L
96.106 368 L
96.216 368 L
96.327 368 L
96.437 368 L
96.548 368 L
96.658 368 L
96.769 368 L
96.879 368 L
96.99 368 L
97.1 368 L
97.211 368 L
97.321 368 L
97.432 368 L
97.542 368 L
97.653 368 L
97.763 368 L
97.874 368 L
97.985 368 L
98.095 368 L
98.206 368 L
98.316 368 L
98.427 368 L
98.537 368 L
98.648 368 L
98.758 368 L
98.869 368 L
98.979 368 L
99.09 368 L
99.2 368 L
99.311 368 L
99.421 368 L
99.532 368 L
99.642 368 L
99.753 368 L
99.863 368 L
99.974 368 L
100.085 368 L
100.195 368 L
100.306 368 L
100.416 368 L
100.527 368 L
100.637 368 L
100.748 368 L
100.858 368 L
100.969 368 L
101.079 368 L
101.19 368 L
101.3 368 L
101.411 368 L
101.521 368 L
101.632 368 L
101.742 368 L
101.853 368 L
101.964 368 L
102.074 368 L
102.185 368 L
102.295 368 L
102.406 368 L
102.516 368 L
102.627 368 L
102.737 368 L
102.848 368 L
102.958 368 L
103.069 368 L
103.179 368 L
103.29 368 L
103.4 368 L
103.511 368 L
103.621 368 L
103.732 368 L
103.842 368 L
103.953 368 L
104.064 368 L
104.174 368 L
104.285 368 L
104.395 368 L
104.506 368 L
104.616 368 L
104.727 368 L
104.837 368 L
104.948 368 L
105.058 368 L
105.169 368 L
105.279 368 L
105.39 368 L
105.5 368 L
105.611 368 L
105.721 368 L
105.832 368 L
105.943 368 L
106.053 368 L
106.164 368 L
106.274 368 L
106.385 368 L
106.495 368 L
106.606 368 L
106.716 368 L
106.827 368 L
106.937 368 L
107.048 368 L
107.158 368 L
107.269 368 L
107.379 368 L
107.49 368 L
107.6 368 L
107.711 368 L
107.821 368 L
107.932 368 L
108.043 368 L
108.153 368 L
108.264 368 L
108.374 368 L
108.485 368 L
108.595 368 L
108.706 368 L
108.816 368 L
108.927 368 L
109.037 368 L
109.148 368 L
109.258 368 L
109.369 368 L
109.479 368 L
109.59 368 L
109.7 368 L
109.811 368 L
109.922 368 L
110.032 368 L
110.143 368 L
110.253 368 L
110.364 368 L
110.474 368 L
110.585 368 L
110.695 368 L
110.806 368 L
110.916 368 L
111.027 368 L
111.137 368 L
111.248 368 L
111.358 368 L
111.469 368 L
111.579 368 L
111.69 368 L
111.8 368 L
111.911 368 L
112.022 368 L
112.132 368 L
112.243 368 L
112.353 368 L
112.464 368 L
112.574 368 L
112.685 368 L
112.795 368 L
112.906 368 L
113.016 368 L
113.127 368 L
113.237 368 L
113.348 368 L
113.458 368 L
113.569 368 L
113.679 368 L
113.79 368 L
113.9 368 L
114.011 368 L
114.122 368 L
114.232 368 L
114.343 368 L
114.453 368 L
114.564 368 L
114.674 368 L
114.785 368 L
114.895 368 L
115.006 368 L
115.116 368 L
115.227 368 L
115.337 368 L
115.448 368 L
115.558 368 L
115.669 368 L
115.779 368 L
115.89 368 L
116.001 368 L
116.111 368 L
116.222 368 L
116.332 368 L
116.443 368 L
116.553 368 L
116.664 368 L
116.774 368 L
116.885 368 L
116.995 368 L
117.106 368 L
117.216 368 L
117.327 368 L
117.437 368 L
117.548 368 L
117.658 368 L
117.769 368 L
117.879 368 L
117.99 368 L
118.101 368 L
118.211 368 L
118.322 368 L
118.432 368 L
118.543 368 L
118.653 368 L
118.764 368 L
118.874 368 L
118.985 368 L
119.095 368 L
119.206 368 L
119.316 368 L
119.427 368 L
119.537 368 L
119.648 368 L
119.758 368 L
119.869 368 L
119.979 368 L
120.09 368 L
120.201 368 L
120.311 368 L
120.422 368 L
120.532 368 L
120.643 368 L
120.753 368 L
120.864 368 L
120.974 368 L
121.085 368 L
121.195 368 L
121.306 368 L
121.416 368 L
121.527 368 L
121.637 368 L
121.748 368 L
121.858 368 L
121.969 368 L
122.08 368 L
122.19 368 L
122.301 368 L
122.411 368 L
122.522 368 L
122.632 368 L
122.743 368 L
122.853 368 L
122.964 368 L
123.074 368 L
123.185 368 L
123.295 368 L
123.406 368 L
123.516 368 L
123.627 368 L
123.737 368 L
123.848 368 L
123.958 368 L
124.069 368 L
124.18 368 L
124.29 368 L
124.401 368 L
124.511 368 L
124.622 368 L
124.732 368 L
124.843 368 L
124.953 368 L
125.064 368 L
125.174 368 L
125.285 368 L
125.395 368 L
125.506 368 L
125.616 368 L
125.727 368 L
125.837 368 L
125.948 368 L
126.059 368 L
126.169 368 L
126.28 368 L
126.39 368 L
126.501 368 L
126.611 368 L
126.722 368 L
126.832 368 L
126.943 368 L
127.053 368 L
127.164 368 L
127.274 368 L
127.385 368 L
127.495 368 L
127.606 368 L
127.716 368 L
127.827 368 L
127.937 368 L
128.048 368 L
128.159 368 L
128.269 368 L
128.38 368 L
128.49 368 L
128.601 368 L
128.711 368 L
128.822 368 L
128.932 368 L
129.043 368 L
129.153 368 L
129.264 368 L
129.374 368 L
129.485 368 L
129.595 368 L
129.706 368 L
129.816 368 L
129.927 368 L
130.038 368 L
130.148 368 L
130.259 368 L
130.369 368 L
130.48 368 L
130.59 368 L
130.701 368 L
130.811 368 L
130.922 368 L
131.032 368 L
131.143 368 L
131.253 368 L
131.364 368 L
131.474 368 L
131.585 368 L
131.695 368 L
131.806 368 L
131.916 368 L
132.027 368 L
132.138 368 L
132.248 368 L
132.359 368 L
132.469 368 L
132.58 368 L
132.69 368 L
132.801 368 L
132.911 368 L
133.022 368 L
133.132 368 L
133.243 368 L
133.353 368 L
133.464 368 L
133.574 367.999 L
133.685 367.999 L
133.795 367.999 L
133.906 367.999 L
134.017 367.999 L
134.127 367.999 L
134.238 367.999 L
134.348 367.999 L
134.459 367.999 L
134.569 367.999 L
134.68 367.999 L
134.79 367.999 L
134.901 367.999 L
135.011 367.999 L
135.122 367.999 L
135.232 367.999 L
135.343 367.999 L
135.453 367.999 L
135.564 367.999 L
135.674 367.999 L
135.785 367.999 L
135.895 367.999 L
136.006 367.999 L
136.117 367.999 L
136.227 367.999 L
136.338 367.999 L
136.448 367.999 L
136.559 367.999 L
136.669 367.999 L
136.78 367.999 L
136.89 367.999 L
137.001 367.999 L
137.111 367.999 L
137.222 367.999 L
137.332 367.999 L
137.443 367.999 L
137.553 367.999 L
137.664 367.999 L
137.774 367.999 L
137.885 367.999 L
137.996 367.999 L
138.106 367.999 L
138.217 367.999 L
138.327 367.999 L
138.438 367.999 L
138.548 367.999 L
138.659 367.999 L
138.769 367.999 L
138.88 367.999 L
138.99 367.999 L
139.101 367.999 L
139.211 367.999 L
139.322 367.999 L
139.432 367.999 L
139.543 367.999 L
139.653 367.999 L
139.764 367.999 L
139.874 367.999 L
139.985 367.999 L
140.096 367.999 L
140.206 367.999 L
140.317 367.998 L
140.427 367.998 L
140.538 367.998 L
140.648 367.998 L
140.759 367.998 L
140.869 367.998 L
140.98 367.998 L
141.09 367.998 L
141.201 367.998 L
141.311 367.998 L
141.422 367.998 L
141.532 367.998 L
141.643 367.998 L
141.753 367.998 L
141.864 367.998 L
141.974 367.998 L
142.085 367.998 L
142.196 367.998 L
142.306 367.998 L
142.417 367.998 L
142.527 367.998 L
142.638 367.998 L
142.748 367.998 L
142.859 367.998 L
142.969 367.998 L
143.08 367.998 L
143.19 367.998 L
143.301 367.998 L
143.411 367.998 L
143.522 367.997 L
143.632 367.997 L
143.743 367.997 L
143.853 367.997 L
143.964 367.997 L
144.075 367.997 L
144.185 367.997 L
144.296 367.997 L
144.406 367.997 L
144.517 367.997 L
144.627 367.997 L
144.738 367.997 L
144.848 367.997 L
144.959 367.997 L
145.069 367.997 L
145.18 367.997 L
145.29 367.997 L
145.401 367.997 L
145.511 367.997 L
145.622 367.997 L
145.732 367.996 L
145.843 367.996 L
145.953 367.996 L
146.064 367.996 L
146.175 367.996 L
146.285 367.996 L
146.396 367.996 L
146.506 367.996 L
146.617 367.996 L
146.727 367.996 L
146.838 367.996 L
146.948 367.996 L
147.059 367.996 L
147.169 367.996 L
147.28 367.996 L
147.39 367.995 L
147.501 367.995 L
147.611 367.995 L
147.722 367.995 L
147.832 367.995 L
147.943 367.995 L
148.054 367.995 L
148.164 367.995 L
148.275 367.995 L
148.385 367.995 L
148.496 367.995 L
148.606 367.995 L
148.717 367.994 L
148.827 367.994 L
148.938 367.994 L
149.048 367.994 L
149.159 367.994 L
149.269 367.994 L
149.38 367.994 L
149.49 367.994 L
149.601 367.994 L
149.711 367.994 L
149.822 367.993 L
149.932 367.993 L
150.043 367.993 L
150.154 367.993 L
150.264 367.993 L
150.375 367.993 L
150.485 367.993 L
150.596 367.993 L
150.706 367.993 L
150.817 367.992 L
150.927 367.992 L
151.038 367.992 L
151.148 367.992 L
151.259 367.992 L
151.369 367.992 L
151.48 367.992 L
151.59 367.992 L
151.701 367.991 L
151.811 367.991 L
151.922 367.991 L
152.033 367.991 L
152.143 367.991 L
152.254 367.991 L
152.364 367.99 L
152.475 367.99 L
152.585 367.99 L
152.696 367.99 L
152.806 367.99 L
152.917 367.99 L
153.027 367.99 L
153.138 367.989 L
153.248 367.989 L
153.359 367.989 L
153.469 367.989 L
153.58 367.989 L
153.69 367.988 L
153.801 367.988 L
153.911 367.988 L
154.022 367.988 L
154.133 367.988 L
154.243 367.988 L
154.354 367.987 L
154.464 367.987 L
154.575 367.987 L
154.685 367.987 L
154.796 367.986 L
154.906 367.986 L
155.017 367.986 L
155.127 367.986 L
155.238 367.986 L
155.348 367.985 L
155.459 367.985 L
155.569 367.985 L
155.68 367.985 L
155.79 367.984 L
155.901 367.984 L
156.012 367.984 L
156.122 367.984 L
156.233 367.983 L
156.343 367.983 L
156.454 367.983 L
156.564 367.983 L
156.675 367.982 L
156.785 367.982 L
156.896 367.982 L
157.006 367.981 L
157.117 367.981 L
157.227 367.981 L
157.338 367.981 L
157.448 367.98 L
157.559 367.98 L
157.669 367.98 L
157.78 367.979 L
157.89 367.979 L
158.001 367.979 L
158.112 367.978 L
158.222 367.978 L
158.333 367.978 L
158.443 367.977 L
158.554 367.977 L
158.664 367.977 L
158.775 367.976 L
158.885 367.976 L
158.996 367.976 L
159.106 367.975 L
159.217 367.975 L
159.327 367.974 L
159.438 367.974 L
159.548 367.974 L
159.659 367.973 L
159.769 367.973 L
159.88 367.972 L
159.991 367.972 L
160.101 367.971 L
160.212 367.971 L
160.322 367.971 L
160.433 367.97 L
160.543 367.97 L
160.654 367.969 L
160.764 367.969 L
160.875 367.968 L
160.985 367.968 L
161.096 367.967 L
161.206 367.967 L
161.317 367.966 L
161.427 367.966 L
161.538 367.965 L
161.648 367.965 L
161.759 367.964 L
161.869 367.964 L
161.98 367.963 L
162.091 367.962 L
162.201 367.962 L
162.312 367.961 L
162.422 367.961 L
162.533 367.96 L
162.643 367.96 L
162.754 367.959 L
162.864 367.958 L
162.975 367.958 L
163.085 367.957 L
163.196 367.956 L
163.306 367.956 L
163.417 367.955 L
163.527 367.954 L
163.638 367.954 L
163.748 367.953 L
163.859 367.952 L
163.969 367.952 L
164.08 367.951 L
164.191 367.95 L
164.301 367.949 L
164.412 367.949 L
164.522 367.948 L
164.633 367.947 L
164.743 367.946 L
164.854 367.946 L
164.964 367.945 L
165.075 367.944 L
165.185 367.943 L
165.296 367.942 L
165.406 367.941 L
165.517 367.941 L
165.627 367.94 L
165.738 367.939 L
165.848 367.938 L
165.959 367.937 L
166.07 367.936 L
166.18 367.935 L
166.291 367.934 L
166.401 367.933 L
166.512 367.932 L
166.622 367.931 L
166.733 367.93 L
166.843 367.929 L
166.954 367.928 L
167.064 367.927 L
167.175 367.926 L
167.285 367.925 L
167.396 367.924 L
167.506 367.923 L
167.617 367.922 L
167.727 367.921 L
167.838 367.919 L
167.948 367.918 L
168.059 367.917 L
168.17 367.916 L
168.28 367.915 L
168.391 367.913 L
168.501 367.912 L
168.612 367.911 L
168.722 367.91 L
168.833 367.908 L
168.943 367.907 L
169.054 367.906 L
169.164 367.904 L
169.275 367.903 L
169.385 367.902 L
169.496 367.9 L
169.606 367.899 L
169.717 367.897 L
169.827 367.896 L
169.938 367.894 L
170.049 367.893 L
170.159 367.891 L
170.27 367.89 L
170.38 367.888 L
170.491 367.887 L
170.601 367.885 L
170.712 367.883 L
170.822 367.882 L
170.933 367.88 L
171.043 367.878 L
171.154 367.877 L
171.264 367.875 L
171.375 367.873 L
171.485 367.871 L
171.596 367.87 L
171.706 367.868 L
171.817 367.866 L
171.927 367.864 L
172.038 367.862 L
172.149 367.86 L
172.259 367.858 L
172.37 367.856 L
172.48 367.854 L
172.591 367.852 L
172.701 367.85 L
172.812 367.848 L
172.922 367.846 L
173.033 367.844 L
173.143 367.842 L
173.254 367.839 L
173.364 367.837 L
173.475 367.835 L
173.585 367.833 L
173.696 367.83 L
173.806 367.828 L
173.917 367.826 L
174.028 367.823 L
174.138 367.821 L
174.249 367.818 L
174.359 367.816 L
174.47 367.813 L
174.58 367.811 L
174.691 367.808 L
174.801 367.805 L
174.912 367.803 L
175.022 367.8 L
175.133 367.797 L
175.243 367.795 L
175.354 367.792 L
175.464 367.789 L
175.575 367.786 L
175.685 367.783 L
175.796 367.78 L
175.906 367.777 L
176.017 367.774 L
176.128 367.771 L
176.238 367.768 L
176.349 367.765 L
176.459 367.762 L
176.57 367.758 L
176.68 367.755 L
176.791 367.752 L
176.901 367.749 L
177.012 367.745 L
177.122 367.742 L
177.233 367.738 L
177.343 367.735 L
177.454 367.731 L
177.564 367.728 L
177.675 367.724 L
177.785 367.72 L
177.896 367.717 L
178.007 367.713 L
178.117 367.709 L
178.228 367.705 L
178.338 367.701 L
178.449 367.697 L
178.559 367.693 L
178.67 367.689 L
178.78 367.685 L
178.891 367.681 L
179.001 367.677 L
179.112 367.672 L
179.222 367.668 L
179.333 367.664 L
179.443 367.659 L
179.554 367.655 L
179.664 367.65 L
179.775 367.646 L
179.885 367.641 L
179.996 367.636 L
180.107 367.632 L
180.217 367.627 L
180.328 367.622 L
180.438 367.617 L
180.549 367.612 L
180.659 367.607 L
180.77 367.602 L
180.88 367.597 L
180.991 367.591 L
181.101 367.586 L
181.212 367.581 L
181.322 367.575 L
181.433 367.57 L
181.543 367.564 L
181.654 367.559 L
181.764 367.553 L
181.875 367.547 L
181.986 367.541 L
182.096 367.535 L
182.207 367.529 L
182.317 367.523 L
182.428 367.517 L
182.538 367.511 L
182.649 367.505 L
182.759 367.498 L
182.87 367.492 L
182.98 367.486 L
183.091 367.479 L
183.201 367.472 L
183.312 367.466 L
183.422 367.459 L
183.533 367.452 L
183.643 367.445 L
183.754 367.438 L
183.864 367.431 L
183.975 367.424 L
184.086 367.416 L
184.196 367.409 L
184.307 367.402 L
184.417 367.394 L
184.528 367.386 L
184.638 367.379 L
184.749 367.371 L
184.859 367.363 L
184.97 367.355 L
185.08 367.347 L
185.191 367.339 L
185.301 367.33 L
185.412 367.322 L
185.522 367.314 L
185.633 367.305 L
185.743 367.296 L
185.854 367.288 L
185.965 367.279 L
186.075 367.27 L
186.186 367.261 L
186.296 367.252 L
186.407 367.242 L
186.517 367.233 L
186.628 367.224 L
186.738 367.214 L
186.849 367.204 L
186.959 367.195 L
187.07 367.185 L
187.18 367.175 L
187.291 367.165 L
187.401 367.154 L
187.512 367.144 L
187.622 367.133 L
187.733 367.123 L
187.843 367.112 L
187.954 367.101 L
188.065 367.09 L
188.175 367.079 L
188.286 367.068 L
188.396 367.057 L
188.507 367.045 L
188.617 367.034 L
188.728 367.022 L
188.838 367.01 L
188.949 366.998 L
189.059 366.986 L
189.17 366.974 L
189.28 366.962 L
189.391 366.949 L
189.501 366.937 L
189.612 366.924 L
189.722 366.911 L
189.833 366.898 L
189.943 366.885 L
190.054 366.871 L
190.165 366.858 L
190.275 366.844 L
190.386 366.831 L
190.496 366.817 L
190.607 366.803 L
190.717 366.788 L
190.828 366.774 L
190.938 366.759 L
191.049 366.745 L
191.159 366.73 L
191.27 366.715 L
191.38 366.7 L
191.491 366.684 L
191.601 366.669 L
191.712 366.653 L
191.822 366.637 L
191.933 366.621 L
192.044 366.605 L
192.154 366.589 L
192.265 366.572 L
192.375 366.556 L
192.486 366.539 L
192.596 366.522 L
192.707 366.505 L
192.817 366.487 L
192.928 366.47 L
193.038 366.452 L
193.149 366.434 L
193.259 366.416 L
193.37 366.397 L
193.48 366.379 L
193.591 366.36 L
193.701 366.341 L
193.812 366.322 L
193.922 366.303 L
194.033 366.283 L
194.144 366.264 L
194.254 366.244 L
194.365 366.224 L
194.475 366.203 L
194.586 366.183 L
194.696 366.162 L
194.807 366.141 L
194.917 366.12 L
195.028 366.098 L
195.138 366.077 L
195.249 366.055 L
195.359 366.033 L
195.47 366.011 L
195.58 365.988 L
195.691 365.965 L
195.801 365.942 L
195.912 365.919 L
196.023 365.896 L
196.133 365.872 L
196.244 365.848 L
196.354 365.824 L
196.465 365.799 L
196.575 365.775 L
196.686 365.75 L
196.796 365.725 L
196.907 365.699 L
197.017 365.674 L
197.128 365.648 L
197.238 365.622 L
197.349 365.595 L
197.459 365.568 L
197.57 365.541 L
197.68 365.514 L
197.791 365.487 L
197.901 365.459 L
198.012 365.431 L
198.123 365.402 L
198.233 365.374 L
198.344 365.345 L
198.454 365.316 L
198.565 365.286 L
198.675 365.257 L
198.786 365.227 L
198.896 365.196 L
199.007 365.166 L
199.117 365.135 L
199.228 365.103 L
199.338 365.072 L
199.449 365.04 L
199.559 365.008 L
199.67 364.975 L
199.78 364.943 L
199.891 364.909 L
200.002 364.876 L
200.112 364.842 L
200.223 364.808 L
200.333 364.774 L
200.444 364.739 L
200.554 364.704 L
200.665 364.669 L
200.775 364.633 L
200.886 364.597 L
200.996 364.56 L
201.107 364.524 L
201.217 364.487 L
201.328 364.449 L
201.438 364.411 L
201.549 364.373 L
201.659 364.335 L
201.77 364.296 L
201.88 364.257 L
201.991 364.217 L
202.102 364.177 L
202.212 364.137 L
202.323 364.096 L
202.433 364.055 L
202.544 364.013 L
202.654 363.971 L
202.765 363.929 L
202.875 363.886 L
202.986 363.843 L
203.096 363.8 L
203.207 363.756 L
203.317 363.711 L
203.428 363.667 L
203.538 363.622 L
203.649 363.576 L
203.759 363.53 L
203.87 363.484 L
203.98 363.437 L
204.091 363.39 L
204.202 363.342 L
204.312 363.294 L
204.423 363.246 L
204.533 363.197 L
204.644 363.147 L
204.754 363.098 L
204.865 363.047 L
204.975 362.996 L
205.086 362.945 L
205.196 362.894 L
205.307 362.841 L
205.417 362.789 L
205.528 362.736 L
205.638 362.682 L
205.749 362.628 L
205.859 362.574 L
205.97 362.519 L
206.081 362.463 L
206.191 362.407 L
206.302 362.351 L
206.412 362.294 L
206.523 362.237 L
206.633 362.179 L
206.744 362.12 L
206.854 362.061 L
206.965 362.002 L
207.075 361.942 L
207.186 361.881 L
207.296 361.82 L
207.407 361.759 L
207.517 361.696 L
207.628 361.634 L
207.738 361.571 L
207.849 361.507 L
207.959 361.442 L
208.07 361.378 L
208.181 361.312 L
208.291 361.246 L
208.402 361.18 L
208.512 361.113 L
208.623 361.045 L
208.733 360.977 L
208.844 360.908 L
208.954 360.838 L
209.065 360.768 L
209.175 360.698 L
209.286 360.626 L
209.396 360.555 L
209.507 360.482 L
209.617 360.409 L
209.728 360.336 L
209.838 360.261 L
209.949 360.186 L
210.06 360.111 L
210.17 360.035 L
210.281 359.958 L
210.391 359.881 L
210.502 359.802 L
210.612 359.724 L
210.723 359.644 L
210.833 359.564 L
210.944 359.484 L
211.054 359.402 L
211.165 359.32 L
211.275 359.238 L
211.386 359.154 L
211.496 359.07 L
211.607 358.986 L
211.717 358.9 L
211.828 358.814 L
211.938 358.727 L
212.049 358.64 L
212.16 358.552 L
212.27 358.463 L
212.381 358.373 L
212.491 358.283 L
212.602 358.192 L
212.712 358.1 L
212.823 358.007 L
212.933 357.914 L
213.044 357.82 L
213.154 357.725 L
213.265 357.63 L
213.375 357.533 L
213.486 357.436 L
213.596 357.339 L
213.707 357.24 L
213.817 357.141 L
213.928 357.04 L
214.039 356.939 L
214.149 356.838 L
214.26 356.735 L
214.37 356.632 L
214.481 356.528 L
214.591 356.423 L
214.702 356.317 L
214.812 356.211 L
214.923 356.103 L
215.033 355.995 L
215.144 355.886 L
215.254 355.776 L
215.365 355.665 L
215.475 355.554 L
215.586 355.441 L
215.696 355.328 L
215.807 355.214 L
215.917 355.099 L
216.028 354.983 L
216.139 354.866 L
216.249 354.749 L
216.36 354.63 L
216.47 354.511 L
216.581 354.39 L
216.691 354.269 L
216.802 354.147 L
216.912 354.024 L
217.023 353.9 L
217.133 353.775 L
217.244 353.649 L
217.354 353.523 L
217.465 353.395 L
217.575 353.266 L
217.686 353.137 L
217.796 353.006 L
217.907 352.875 L
218.018 352.743 L
218.128 352.609 L
218.239 352.475 L
218.349 352.339 L
218.46 352.203 L
218.57 352.066 L
218.681 351.928 L
218.791 351.788 L
218.902 351.648 L
219.012 351.507 L
219.123 351.364 L
219.233 351.221 L
219.344 351.077 L
219.454 350.931 L
219.565 350.785 L
219.675 350.637 L
219.786 350.489 L
219.896 350.339 L
220.007 350.189 L
220.118 350.037 L
220.228 349.884 L
220.339 349.73 L
220.449 349.576 L
220.56 349.42 L
220.67 349.263 L
220.781 349.104 L
220.891 348.945 L
221.002 348.785 L
221.112 348.623 L
221.223 348.461 L
221.333 348.297 L
221.444 348.132 L
221.554 347.966 L
221.665 347.799 L
221.775 347.631 L
221.886 347.462 L
221.997 347.291 L
222.107 347.12 L
222.218 346.947 L
222.328 346.773 L
222.439 346.598 L
222.549 346.422 L
222.66 346.244 L
222.77 346.065 L
222.881 345.886 L
222.991 345.704 L
223.102 345.522 L
223.212 345.339 L
223.323 345.154 L
223.433 344.968 L
223.544 344.781 L
223.654 344.593 L
223.765 344.403 L
223.875 344.212 L
223.986 344.02 L
224.097 343.827 L
224.207 343.632 L
224.318 343.437 L
224.428 343.239 L
224.539 343.041 L
224.649 342.841 L
224.76 342.641 L
224.87 342.438 L
224.981 342.235 L
225.091 342.03 L
225.202 341.824 L
225.312 341.617 L
225.423 341.408 L
225.533 341.198 L
225.644 340.987 L
225.754 340.774 L
225.865 340.56 L
225.975 340.345 L
226.086 340.128 L
226.197 339.91 L
226.307 339.691 L
226.418 339.47 L
226.528 339.248 L
226.639 339.024 L
226.749 338.8 L
226.86 338.573 L
226.97 338.346 L
227.081 338.117 L
227.191 337.886 L
227.302 337.655 L
227.412 337.422 L
227.523 337.187 L
227.633 336.951 L
227.744 336.714 L
227.854 336.475 L
227.965 336.235 L
228.076 335.993 L
228.186 335.75 L
228.297 335.505 L
228.407 335.259 L
228.518 335.012 L
228.628 334.763 L
228.739 334.513 L
228.849 334.261 L
228.96 334.008 L
229.07 333.753 L
229.181 333.497 L
229.291 333.239 L
229.402 332.98 L
229.512 332.719 L
229.623 332.457 L
229.733 332.193 L
229.844 331.928 L
229.954 331.661 L
230.065 331.393 L
230.176 331.123 L
230.286 330.852 L
230.397 330.579 L
230.507 330.305 L
230.618 330.029 L
230.728 329.752 L
230.839 329.473 L
230.949 329.192 L
231.06 328.91 L
231.17 328.627 L
231.281 328.342 L
231.391 328.055 L
231.502 327.767 L
231.612 327.477 L
231.723 327.185 L
231.833 326.892 L
231.944 326.598 L
232.055 326.302 L
232.165 326.004 L
232.276 325.704 L
232.386 325.403 L
232.497 325.101 L
232.607 324.797 L
232.718 324.491 L
232.828 324.183 L
232.939 323.874 L
233.049 323.564 L
233.16 323.251 L
233.27 322.937 L
233.381 322.622 L
233.491 322.305 L
233.602 321.986 L
233.712 321.665 L
233.823 321.343 L
233.933 321.019 L
234.044 320.694 L
234.155 320.367 L
234.265 320.038 L
234.376 319.708 L
234.486 319.375 L
234.597 319.042 L
234.707 318.706 L
234.818 318.369 L
234.928 318.03 L
235.039 317.69 L
235.149 317.348 L
235.26 317.004 L
235.37 316.658 L
235.481 316.311 L
235.591 315.962 L
235.702 315.611 L
235.812 315.259 L
235.923 314.905 L
236.034 314.549 L
236.144 314.192 L
236.255 313.832 L
236.365 313.471 L
236.476 313.109 L
236.586 312.745 L
236.697 312.378 L
236.807 312.011 L
236.918 311.641 L
237.028 311.27 L
237.139 310.897 L
237.249 310.522 L
237.36 310.146 L
237.47 309.767 L
237.581 309.388 L
237.691 309.006 L
237.802 308.622 L
237.912 308.237 L
238.023 307.85 L
238.134 307.462 L
238.244 307.071 L
238.355 306.679 L
238.465 306.285 L
238.576 305.89 L
238.686 305.492 L
238.797 305.093 L
238.907 304.692 L
239.018 304.289 L
239.128 303.885 L
239.239 303.479 L
239.349 303.071 L
239.46 302.661 L
239.57 302.249 L
239.681 301.836 L
239.791 301.421 L
239.902 301.004 L
240.012 300.586 L
240.123 300.165 L
240.234 299.743 L
240.344 299.32 L
240.455 298.894 L
240.565 298.467 L
240.676 298.037 L
240.786 297.606 L
240.897 297.174 L
241.007 296.739 L
241.118 296.303 L
241.228 295.865 L
241.339 295.425 L
241.449 294.984 L
241.56 294.54 L
241.67 294.095 L
241.781 293.648 L
241.891 293.2 L
242.002 292.749 L
242.113 292.297 L
242.223 291.843 L
242.334 291.388 L
242.444 290.93 L
242.555 290.471 L
242.665 290.01 L
242.776 289.547 L
242.886 289.083 L
242.997 288.617 L
243.107 288.149 L
243.218 287.679 L
243.328 287.208 L
243.439 286.734 L
243.549 286.259 L
243.66 285.783 L
243.77 285.304 L
243.881 284.824 L
243.992 284.342 L
244.102 283.858 L
244.213 283.373 L
244.323 282.885 L
244.434 282.397 L
244.544 281.906 L
244.655 281.414 L
244.765 280.919 L
244.876 280.424 L
244.986 279.926 L
245.097 279.427 L
245.207 278.926 L
245.318 278.423 L
245.428 277.919 L
245.539 277.413 L
245.649 276.905 L
245.76 276.395 L
245.87 275.884 L
245.981 275.371 L
246.092 274.856 L
246.202 274.34 L
246.313 273.822 L
246.423 273.302 L
246.534 272.781 L
246.644 272.258 L
246.755 271.733 L
246.865 271.207 L
246.976 270.679 L
247.086 270.149 L
247.197 269.618 L
247.307 269.085 L
247.418 268.55 L
247.528 268.014 L
247.639 267.476 L
247.749 266.937 L
247.86 266.396 L
247.97 265.853 L
248.081 265.309 L
248.192 264.763 L
248.302 264.215 L
248.413 263.666 L
248.523 263.115 L
248.634 262.563 L
248.744 262.009 L
248.855 261.453 L
248.965 260.896 L
249.076 260.337 L
249.186 259.777 L
249.297 259.215 L
249.407 258.652 L
249.518 258.087 L
249.628 257.521 L
249.739 256.953 L
249.849 256.383 L
249.96 255.812 L
250.071 255.24 L
250.181 254.666 L
250.292 254.09 L
250.402 253.513 L
250.513 252.935 L
250.623 252.355 L
250.734 251.773 L
250.844 251.191 L
250.955 250.606 L
251.065 250.021 L
251.176 249.433 L
251.286 248.845 L
251.397 248.255 L
251.507 247.663 L
251.618 247.07 L
251.728 246.476 L
251.839 245.88 L
251.949 245.283 L
252.06 244.685 L
252.171 244.085 L
252.281 243.484 L
252.392 242.881 L
252.502 242.277 L
252.613 241.672 L
252.723 241.065 L
252.834 240.457 L
252.944 239.848 L
253.055 239.238 L
253.165 238.626 L
253.276 238.013 L
253.386 237.399 L
253.497 236.783 L
253.607 236.166 L
253.718 235.548 L
253.828 234.929 L
253.939 234.308 L
254.05 233.687 L
254.16 233.064 L
254.271 232.44 L
254.381 231.814 L
254.492 231.188 L
254.602 230.56 L
254.713 229.931 L
254.823 229.301 L
254.934 228.67 L
255.044 228.038 L
255.155 227.405 L
255.265 226.77 L
255.376 226.135 L
255.486 225.498 L
255.597 224.86 L
255.707 224.222 L
255.818 223.582 L
255.928 222.941 L
256.039 222.299 L
256.15 221.657 L
256.26 221.013 L
256.371 220.368 L
256.481 219.722 L
256.592 219.075 L
256.702 218.428 L
256.813 217.779 L
256.923 217.13 L
257.034 216.479 L
257.144 215.828 L
257.255 215.175 L
257.365 214.522 L
257.476 213.868 L
257.586 213.213 L
257.697 212.558 L
257.807 211.901 L
257.918 211.244 L
258.029 210.586 L
258.139 209.927 L
258.25 209.267 L
258.36 208.607 L
258.471 207.946 L
258.581 207.284 L
258.692 206.621 L
258.802 205.958 L
258.913 205.294 L
259.023 204.629 L
259.134 203.964 L
259.244 203.298 L
259.355 202.631 L
259.465 201.964 L
259.576 201.296 L
259.686 200.627 L
259.797 199.958 L
259.907 199.289 L
260.018 198.618 L
260.129 197.948 L
260.239 197.276 L
260.35 196.605 L
260.46 195.932 L
260.571 195.26 L
260.681 194.587 L
260.792 193.913 L
260.902 193.239 L
261.013 192.564 L
261.123 191.89 L
261.234 191.214 L
261.344 190.539 L
261.455 189.863 L
261.565 189.186 L
261.676 188.51 L
261.786 187.833 L
261.897 187.156 L
262.008 186.478 L
262.118 185.8 L
262.229 185.122 L
262.339 184.444 L
262.45 183.766 L
262.56 183.087 L
262.671 182.408 L
262.781 181.729 L
262.892 181.05 L
263.002 180.371 L
263.113 179.691 L
263.223 179.012 L
263.334 178.332 L
263.444 177.653 L
263.555 176.973 L
263.665 176.293 L
263.776 175.614 L
263.886 174.934 L
263.997 174.254 L
264.108 173.575 L
264.218 172.895 L
264.329 172.216 L
264.439 171.536 L
264.55 170.857 L
264.66 170.178 L
264.771 169.499 L
264.881 168.82 L
264.992 168.141 L
265.102 167.462 L
265.213 166.784 L
265.323 166.106 L
265.434 165.428 L
265.544 164.751 L
265.655 164.073 L
265.765 163.397 L
265.876 162.72 L
265.987 162.044 L
266.097 161.368 L
266.208 160.692 L
266.318 160.017 L
266.429 159.342 L
266.539 158.668 L
266.65 157.994 L
266.76 157.32 L
266.871 156.647 L
266.981 155.975 L
267.092 155.303 L
267.202 154.632 L
267.313 153.961 L
267.423 153.291 L
267.534 152.621 L
267.644 151.952 L
267.755 151.283 L
267.865 150.616 L
267.976 149.949 L
268.087 149.282 L
268.197 148.617 L
268.308 147.952 L
268.418 147.287 L
268.529 146.624 L
268.639 145.961 L
268.75 145.299 L
268.86 144.638 L
268.971 143.978 L
269.081 143.319 L
269.192 142.66 L
269.302 142.003 L
269.413 141.346 L
269.523 140.69 L
269.634 140.035 L
269.744 139.382 L
269.855 138.729 L
269.965 138.077 L
270.076 137.426 L
270.187 136.776 L
270.297 136.128 L
270.408 135.48 L
270.518 134.834 L
270.629 134.188 L
270.739 133.544 L
270.85 132.901 L
270.96 132.259 L
271.071 131.619 L
271.181 130.979 L
271.292 130.341 L
271.402 129.704 L
271.513 129.069 L
271.623 128.434 L
271.734 127.801 L
271.844 127.17 L
271.955 126.539 L
272.066 125.91 L
272.176 125.283 L
272.287 124.657 L
272.397 124.032 L
272.508 123.409 L
272.618 122.787 L
272.729 122.167 L
272.839 121.548 L
272.95 120.931 L
273.06 120.315 L
273.171 119.701 L
273.281 119.089 L
273.392 118.478 L
273.502 117.868 L
273.613 117.261 L
273.723 116.655 L
273.834 116.051 L
273.944 115.448 L
274.055 114.847 L
274.166 114.248 L
274.276 113.651 L
274.387 113.055 L
274.497 112.462 L
274.608 111.87 L
274.718 111.28 L
274.829 110.691 L
274.939 110.105 L
275.05 109.521 L
275.16 108.938 L
275.271 108.358 L
275.381 107.779 L
275.492 107.202 L
275.602 106.628 L
275.713 106.055 L
275.823 105.484 L
275.934 104.916 L
276.045 104.349 L
276.155 103.785 L
276.266 103.222 L
276.376 102.662 L
276.487 102.104 L
276.597 101.548 L
276.708 100.994 L
276.818 100.443 L
276.929 99.894 L
277.039 99.347 L
277.15 98.802 L
277.26 98.259 L
277.371 97.719 L
277.481 97.181 L
277.592 96.645 L
277.702 96.112 L
277.813 95.581 L
277.923 95.052 L
278.034 94.526 L
278.145 94.002 L
278.255 93.481 L
278.366 92.962 L
278.476 92.446 L
278.587 91.932 L
278.697 91.42 L
278.808 90.911 L
278.918 90.405 L
279.029 89.901 L
279.139 89.4 L
279.25 88.901 L
279.36 88.405 L
279.471 87.911 L
279.581 87.421 L
279.692 86.932 L
279.802 86.447 L
279.913 85.964 L
280.023 85.484 L
280.134 85.007 L
280.245 84.532 L
280.355 84.06 L
280.466 83.591 L
280.576 83.125 L
280.687 82.661 L
280.797 82.2 L
280.908 81.743 L
281.018 81.288 L
281.129 80.835 L
281.239 80.386 L
281.35 79.94 L
281.46 79.496 L
281.571 79.056 L
281.681 78.618 L
281.792 78.184 L
281.902 77.752 L
282.013 77.323 L
282.124 76.898 L
282.234 76.475 L
282.345 76.055 L
282.455 75.639 L
282.566 75.225 L
282.676 74.815 L
282.787 74.408 L
282.897 74.004 L
283.008 73.603 L
283.118 73.205 L
283.229 72.81 L
283.339 72.418 L
283.45 72.03 L
283.56 71.645 L
283.671 71.263 L
283.781 70.884 L
283.892 70.508 L
284.003 70.136 L
284.113 69.767 L
284.224 69.401 L
284.334 69.039 L
284.445 68.68 L
284.555 68.324 L
284.666 67.971 L
284.776 67.622 L
284.887 67.276 L
284.997 66.934 L
285.108 66.595 L
285.218 66.259 L
285.329 65.927 L
285.439 65.598 L
285.55 65.273 L
285.66 64.951 L
285.771 64.632 L
285.881 64.317 L
285.992 64.006 L
286.103 63.698 L
286.213 63.393 L
286.324 63.092 L
286.434 62.794 L
286.545 62.5 L
286.655 62.21 L
286.766 61.923 L
286.876 61.639 L
286.987 61.36 L
287.097 61.083 L
287.208 60.811 L
287.318 60.542 L
287.429 60.276 L
287.539 60.014 L
287.65 59.756 L
287.76 59.502 L
287.871 59.251 L
287.982 59.004 L
288.092 58.76 L
288.203 58.52 L
288.313 58.284 L
288.424 58.051 L
288.534 57.823 L
288.645 57.598 L
288.755 57.376 L
288.866 57.159 L
288.976 56.945 L
289.087 56.735 L
289.197 56.528 L
289.308 56.326 L
289.418 56.127 L
289.529 55.932 L
289.639 55.74 L
289.75 55.553 L
289.86 55.369 L
289.971 55.189 L
290.082 55.013 L
290.192 54.841 L
290.303 54.672 L
290.413 54.508 L
290.524 54.347 L
290.634 54.19 L
290.745 54.037 L
290.855 53.888 L
290.966 53.742 L
291.076 53.601 L
291.187 53.463 L
291.297 53.329 L
291.408 53.2 L
291.518 53.074 L
291.629 52.951 L
291.739 52.833 L
291.85 52.719 L
291.96 52.608 L
292.071 52.502 L
292.182 52.399 L
292.292 52.301 L
292.403 52.206 L
292.513 52.115 L
292.624 52.028 L
292.734 51.945 L
292.845 51.866 L
292.955 51.791 L
293.066 51.72 L
293.176 51.652 L
293.287 51.589 L
293.397 51.53 L
293.508 51.474 L
293.618 51.423 L
293.729 51.375 L
293.839 51.332 L
293.95 51.292 L
294.061 51.257 L
294.171 51.225 L
294.282 51.197 L
294.392 51.173 L
294.503 51.154 L
294.613 51.138 L
294.724 51.126 L
294.834 51.118 L
294.945 51.114 L
295.055 51.114 L
295.166 51.118 L
295.276 51.126 L
295.387 51.138 L
295.497 51.154 L
295.608 51.173 L
295.718 51.197 L
295.829 51.225 L
295.939 51.257 L
296.05 51.292 L
296.161 51.332 L
296.271 51.375 L
296.382 51.423 L
296.492 51.474 L
296.603 51.53 L
296.713 51.589 L
296.824 51.652 L
296.934 51.72 L
297.045 51.791 L
297.155 51.866 L
297.266 51.945 L
297.376 52.028 L
297.487 52.115 L
297.597 52.206 L
297.708 52.301 L
297.818 52.399 L
297.929 52.502 L
298.04 52.608 L
298.15 52.719 L
298.261 52.833 L
298.371 52.951 L
298.482 53.074 L
298.592 53.2 L
298.703 53.329 L
298.813 53.463 L
298.924 53.601 L
299.034 53.742 L
299.145 53.888 L
299.255 54.037 L
299.366 54.19 L
299.476 54.347 L
299.587 54.508 L
299.697 54.672 L
299.808 54.841 L
299.918 55.013 L
300.029 55.189 L
300.14 55.369 L
300.25 55.553 L
300.361 55.74 L
300.471 55.932 L
300.582 56.127 L
300.692 56.326 L
300.803 56.528 L
300.913 56.735 L
301.024 56.945 L
301.134 57.159 L
301.245 57.376 L
301.355 57.598 L
301.466 57.823 L
301.576 58.051 L
301.687 58.284 L
301.797 58.52 L
301.908 58.76 L
302.018 59.004 L
302.129 59.251 L
302.24 59.502 L
302.35 59.756 L
302.461 60.014 L
302.571 60.276 L
302.682 60.542 L
302.792 60.811 L
302.903 61.083 L
303.013 61.36 L
303.124 61.639 L
303.234 61.923 L
303.345 62.21 L
303.455 62.5 L
303.566 62.794 L
303.676 63.092 L
303.787 63.393 L
303.897 63.698 L
304.008 64.006 L
304.119 64.317 L
304.229 64.632 L
304.34 64.951 L
304.45 65.273 L
304.561 65.598 L
304.671 65.927 L
304.782 66.259 L
304.892 66.595 L
305.003 66.934 L
305.113 67.276 L
305.224 67.622 L
305.334 67.971 L
305.445 68.324 L
305.555 68.68 L
305.666 69.039 L
305.776 69.401 L
305.887 69.767 L
305.997 70.136 L
306.108 70.508 L
306.219 70.884 L
306.329 71.263 L
306.44 71.645 L
306.55 72.03 L
306.661 72.418 L
306.771 72.81 L
306.882 73.205 L
306.992 73.603 L
307.103 74.004 L
307.213 74.408 L
307.324 74.815 L
307.434 75.225 L
307.545 75.639 L
307.655 76.055 L
307.766 76.475 L
307.876 76.898 L
307.987 77.323 L
308.098 77.752 L
308.208 78.184 L
308.319 78.618 L
308.429 79.056 L
308.54 79.496 L
308.65 79.94 L
308.761 80.386 L
308.871 80.835 L
308.982 81.288 L
309.092 81.743 L
309.203 82.2 L
309.313 82.661 L
309.424 83.125 L
309.534 83.591 L
309.645 84.06 L
309.755 84.532 L
309.866 85.007 L
309.977 85.484 L
310.087 85.964 L
310.198 86.447 L
310.308 86.932 L
310.419 87.421 L
310.529 87.911 L
310.64 88.405 L
310.75 88.901 L
310.861 89.4 L
310.971 89.901 L
311.082 90.405 L
311.192 90.911 L
311.303 91.42 L
311.413 91.932 L
311.524 92.446 L
311.634 92.962 L
311.745 93.481 L
311.855 94.002 L
311.966 94.526 L
312.077 95.052 L
312.187 95.581 L
312.298 96.112 L
312.408 96.645 L
312.519 97.181 L
312.629 97.719 L
312.74 98.259 L
312.85 98.802 L
312.961 99.347 L
313.071 99.894 L
313.182 100.443 L
313.292 100.994 L
313.403 101.548 L
313.513 102.104 L
313.624 102.662 L
313.734 103.222 L
313.845 103.785 L
313.955 104.349 L
314.066 104.916 L
314.177 105.484 L
314.287 106.055 L
314.398 106.628 L
314.508 107.202 L
314.619 107.779 L
314.729 108.358 L
314.84 108.938 L
314.95 109.521 L
315.061 110.105 L
315.171 110.691 L
315.282 111.28 L
315.392 111.87 L
315.503 112.462 L
315.613 113.055 L
315.724 113.651 L
315.834 114.248 L
315.945 114.847 L
316.056 115.448 L
316.166 116.051 L
316.277 116.655 L
316.387 117.261 L
316.498 117.868 L
316.608 118.478 L
316.719 119.089 L
316.829 119.701 L
316.94 120.315 L
317.05 120.931 L
317.161 121.548 L
317.271 122.167 L
317.382 122.787 L
317.492 123.409 L
317.603 124.032 L
317.713 124.657 L
317.824 125.283 L
317.934 125.91 L
318.045 126.539 L
318.156 127.17 L
318.266 127.801 L
318.377 128.434 L
318.487 129.069 L
318.598 129.704 L
318.708 130.341 L
318.819 130.979 L
318.929 131.619 L
319.04 132.259 L
319.15 132.901 L
319.261 133.544 L
319.371 134.188 L
319.482 134.834 L
319.592 135.48 L
319.703 136.128 L
319.813 136.776 L
319.924 137.426 L
320.035 138.077 L
320.145 138.729 L
320.256 139.382 L
320.366 140.035 L
320.477 140.69 L
320.587 141.346 L
320.698 142.003 L
320.808 142.66 L
320.919 143.319 L
321.029 143.978 L
321.14 144.638 L
321.25 145.299 L
321.361 145.961 L
321.471 146.624 L
321.582 147.287 L
321.692 147.952 L
321.803 148.617 L
321.913 149.282 L
322.024 149.949 L
322.135 150.616 L
322.245 151.283 L
322.356 151.952 L
322.466 152.621 L
322.577 153.291 L
322.687 153.961 L
322.798 154.632 L
322.908 155.303 L
323.019 155.975 L
323.129 156.647 L
323.24 157.32 L
323.35 157.994 L
323.461 158.668 L
323.571 159.342 L
323.682 160.017 L
323.792 160.692 L
323.903 161.368 L
324.014 162.044 L
324.124 162.72 L
324.235 163.397 L
324.345 164.073 L
324.456 164.751 L
324.566 165.428 L
324.677 166.106 L
324.787 166.784 L
324.898 167.462 L
325.008 168.141 L
325.119 168.82 L
325.229 169.499 L
325.34 170.178 L
325.45 170.857 L
325.561 171.536 L
325.671 172.216 L
325.782 172.895 L
325.892 173.575 L
326.003 174.254 L
326.114 174.934 L
326.224 175.614 L
326.335 176.293 L
326.445 176.973 L
326.556 177.653 L
326.666 178.332 L
326.777 179.012 L
326.887 179.691 L
326.998 180.371 L
327.108 181.05 L
327.219 181.729 L
327.329 182.408 L
327.44 183.087 L
327.55 183.766 L
327.661 184.444 L
327.771 185.122 L
327.882 185.8 L
327.992 186.478 L
328.103 187.156 L
328.214 187.833 L
328.324 188.51 L
328.435 189.186 L
328.545 189.863 L
328.656 190.539 L
328.766 191.214 L
328.877 191.89 L
328.987 192.564 L
329.098 193.239 L
329.208 193.913 L
329.319 194.587 L
329.429 195.26 L
329.54 195.932 L
329.65 196.605 L
329.761 197.276 L
329.871 197.948 L
329.982 198.618 L
330.093 199.289 L
330.203 199.958 L
330.314 200.627 L
330.424 201.296 L
330.535 201.964 L
330.645 202.631 L
330.756 203.298 L
330.866 203.964 L
330.977 204.629 L
331.087 205.294 L
331.198 205.958 L
331.308 206.621 L
331.419 207.284 L
331.529 207.946 L
331.64 208.607 L
331.75 209.267 L
331.861 209.927 L
331.971 210.586 L
332.082 211.244 L
332.193 211.901 L
332.303 212.558 L
332.414 213.213 L
332.524 213.868 L
332.635 214.522 L
332.745 215.175 L
332.856 215.828 L
332.966 216.479 L
333.077 217.13 L
333.187 217.779 L
333.298 218.428 L
333.408 219.075 L
333.519 219.722 L
333.629 220.368 L
333.74 221.013 L
333.85 221.657 L
333.961 222.299 L
334.072 222.941 L
334.182 223.582 L
334.293 224.222 L
334.403 224.86 L
334.514 225.498 L
334.624 226.135 L
334.735 226.77 L
334.845 227.405 L
334.956 228.038 L
335.066 228.67 L
335.177 229.301 L
335.287 229.931 L
335.398 230.56 L
335.508 231.188 L
335.619 231.814 L
335.729 232.44 L
335.84 233.064 L
335.951 233.687 L
336.061 234.308 L
336.172 234.929 L
336.282 235.548 L
336.393 236.166 L
336.503 236.783 L
336.614 237.399 L
336.724 238.013 L
336.835 238.626 L
336.945 239.238 L
337.056 239.848 L
337.166 240.457 L
337.277 241.065 L
337.387 241.672 L
337.498 242.277 L
337.608 242.881 L
337.719 243.484 L
337.829 244.085 L
337.94 244.685 L
338.051 245.283 L
338.161 245.88 L
338.272 246.476 L
338.382 247.07 L
338.493 247.663 L
338.603 248.255 L
338.714 248.845 L
338.824 249.433 L
338.935 250.021 L
339.045 250.606 L
339.156 251.191 L
339.266 251.773 L
339.377 252.355 L
339.487 252.935 L
339.598 253.513 L
339.708 254.09 L
339.819 254.666 L
339.929 255.24 L
340.04 255.812 L
340.151 256.383 L
340.261 256.953 L
340.372 257.521 L
340.482 258.087 L
340.593 258.652 L
340.703 259.215 L
340.814 259.777 L
340.924 260.337 L
341.035 260.896 L
341.145 261.453 L
341.256 262.009 L
341.366 262.563 L
341.477 263.115 L
341.587 263.666 L
341.698 264.215 L
341.808 264.763 L
341.919 265.309 L
342.03 265.853 L
342.14 266.396 L
342.251 266.937 L
342.361 267.476 L
342.472 268.014 L
342.582 268.55 L
342.693 269.085 L
342.803 269.618 L
342.914 270.149 L
343.024 270.679 L
343.135 271.207 L
343.245 271.733 L
343.356 272.258 L
343.466 272.781 L
343.577 273.302 L
343.687 273.822 L
343.798 274.34 L
343.908 274.856 L
344.019 275.371 L
344.13 275.884 L
344.24 276.395 L
344.351 276.905 L
344.461 277.413 L
344.572 277.919 L
344.682 278.423 L
344.793 278.926 L
344.903 279.427 L
345.014 279.926 L
345.124 280.424 L
345.235 280.919 L
345.345 281.414 L
345.456 281.906 L
345.566 282.397 L
345.677 282.885 L
345.787 283.373 L
345.898 283.858 L
346.009 284.342 L
346.119 284.824 L
346.23 285.304 L
346.34 285.783 L
346.451 286.259 L
346.561 286.734 L
346.672 287.208 L
346.782 287.679 L
346.893 288.149 L
347.003 288.617 L
347.114 289.083 L
347.224 289.547 L
347.335 290.01 L
347.445 290.471 L
347.556 290.93 L
347.666 291.388 L
347.777 291.843 L
347.887 292.297 L
347.998 292.749 L
348.109 293.2 L
348.219 293.648 L
348.33 294.095 L
348.44 294.54 L
348.551 294.984 L
348.661 295.425 L
348.772 295.865 L
348.882 296.303 L
348.993 296.739 L
349.103 297.174 L
349.214 297.606 L
349.324 298.037 L
349.435 298.467 L
349.545 298.894 L
349.656 299.32 L
349.766 299.743 L
349.877 300.165 L
349.987 300.586 L
350.098 301.004 L
350.209 301.421 L
350.319 301.836 L
350.43 302.249 L
350.54 302.661 L
350.651 303.071 L
350.761 303.479 L
350.872 303.885 L
350.982 304.289 L
351.093 304.692 L
351.203 305.093 L
351.314 305.492 L
351.424 305.89 L
351.535 306.285 L
351.645 306.679 L
351.756 307.071 L
351.866 307.462 L
351.977 307.85 L
352.088 308.237 L
352.198 308.622 L
352.309 309.006 L
352.419 309.388 L
352.53 309.767 L
352.64 310.146 L
352.751 310.522 L
352.861 310.897 L
352.972 311.27 L
353.082 311.641 L
353.193 312.011 L
353.303 312.378 L
353.414 312.745 L
353.524 313.109 L
353.635 313.471 L
353.745 313.832 L
353.856 314.192 L
353.966 314.549 L
354.077 314.905 L
354.188 315.259 L
354.298 315.611 L
354.409 315.962 L
354.519 316.311 L
354.63 316.658 L
354.74 317.004 L
354.851 317.348 L
354.961 317.69 L
355.072 318.03 L
355.182 318.369 L
355.293 318.706 L
355.403 319.042 L
355.514 319.375 L
355.624 319.708 L
355.735 320.038 L
355.845 320.367 L
355.956 320.694 L
356.067 321.019 L
356.177 321.343 L
356.288 321.665 L
356.398 321.986 L
356.509 322.305 L
356.619 322.622 L
356.73 322.937 L
356.84 323.251 L
356.951 323.564 L
357.061 323.874 L
357.172 324.183 L
357.282 324.491 L
357.393 324.797 L
357.503 325.101 L
357.614 325.403 L
357.724 325.704 L
357.835 326.004 L
357.945 326.302 L
358.056 326.598 L
358.167 326.892 L
358.277 327.185 L
358.388 327.477 L
358.498 327.767 L
358.609 328.055 L
358.719 328.342 L
358.83 328.627 L
358.94 328.91 L
359.051 329.192 L
359.161 329.473 L
359.272 329.752 L
359.382 330.029 L
359.493 330.305 L
359.603 330.579 L
359.714 330.852 L
359.824 331.123 L
359.935 331.393 L
360.046 331.661 L
360.156 331.928 L
360.267 332.193 L
360.377 332.457 L
360.488 332.719 L
360.598 332.98 L
360.709 333.239 L
360.819 333.497 L
360.93 333.753 L
361.04 334.008 L
361.151 334.261 L
361.261 334.513 L
361.372 334.763 L
361.482 335.012 L
361.593 335.259 L
361.703 335.505 L
361.814 335.75 L
361.924 335.993 L
362.035 336.235 L
362.146 336.475 L
362.256 336.714 L
362.367 336.951 L
362.477 337.187 L
362.588 337.422 L
362.698 337.655 L
362.809 337.886 L
362.919 338.117 L
363.03 338.346 L
363.14 338.573 L
363.251 338.8 L
363.361 339.024 L
363.472 339.248 L
363.582 339.47 L
363.693 339.691 L
363.803 339.91 L
363.914 340.128 L
364.025 340.345 L
364.135 340.56 L
364.246 340.774 L
364.356 340.987 L
364.467 341.198 L
364.577 341.408 L
364.688 341.617 L
364.798 341.824 L
364.909 342.03 L
365.019 342.235 L
365.13 342.438 L
365.24 342.641 L
365.351 342.841 L
365.461 343.041 L
365.572 343.239 L
365.682 343.437 L
365.793 343.632 L
365.903 343.827 L
366.014 344.02 L
366.125 344.212 L
366.235 344.403 L
366.346 344.593 L
366.456 344.781 L
366.567 344.968 L
366.677 345.154 L
366.788 345.339 L
366.898 345.522 L
367.009 345.704 L
367.119 345.886 L
367.23 346.065 L
367.34 346.244 L
367.451 346.422 L
367.561 346.598 L
367.672 346.773 L
367.782 346.947 L
367.893 347.12 L
368.004 347.291 L
368.114 347.462 L
368.225 347.631 L
368.335 347.799 L
368.446 347.966 L
368.556 348.132 L
368.667 348.297 L
368.777 348.461 L
368.888 348.623 L
368.998 348.785 L
369.109 348.945 L
369.219 349.104 L
369.33 349.263 L
369.44 349.42 L
369.551 349.576 L
369.661 349.73 L
369.772 349.884 L
369.882 350.037 L
369.993 350.189 L
370.104 350.339 L
370.214 350.489 L
370.325 350.637 L
370.435 350.785 L
370.546 350.931 L
370.656 351.077 L
370.767 351.221 L
370.877 351.364 L
370.988 351.507 L
371.098 351.648 L
371.209 351.788 L
371.319 351.928 L
371.43 352.066 L
371.54 352.203 L
371.651 352.339 L
371.761 352.475 L
371.872 352.609 L
371.983 352.743 L
372.093 352.875 L
372.204 353.006 L
372.314 353.137 L
372.425 353.266 L
372.535 353.395 L
372.646 353.523 L
372.756 353.649 L
372.867 353.775 L
372.977 353.9 L
373.088 354.024 L
373.198 354.147 L
373.309 354.269 L
373.419 354.39 L
373.53 354.511 L
373.64 354.63 L
373.751 354.749 L
373.861 354.866 L
373.972 354.983 L
374.083 355.099 L
374.193 355.214 L
374.304 355.328 L
374.414 355.441 L
374.525 355.554 L
374.635 355.665 L
374.746 355.776 L
374.856 355.886 L
374.967 355.995 L
375.077 356.103 L
375.188 356.211 L
375.298 356.317 L
375.409 356.423 L
375.519 356.528 L
375.63 356.632 L
375.74 356.735 L
375.851 356.838 L
375.961 356.939 L
376.072 357.04 L
376.183 357.141 L
376.293 357.24 L
376.404 357.339 L
376.514 357.436 L
376.625 357.533 L
376.735 357.63 L
376.846 357.725 L
376.956 357.82 L
377.067 357.914 L
377.177 358.007 L
377.288 358.1 L
377.398 358.192 L
377.509 358.283 L
377.619 358.373 L
377.73 358.463 L
377.84 358.552 L
377.951 358.64 L
378.062 358.727 L
378.172 358.814 L
378.283 358.9 L
378.393 358.986 L
378.504 359.07 L
378.614 359.154 L
378.725 359.238 L
378.835 359.32 L
378.946 359.402 L
379.056 359.484 L
379.167 359.564 L
379.277 359.644 L
379.388 359.724 L
379.498 359.802 L
379.609 359.881 L
379.719 359.958 L
379.83 360.035 L
379.94 360.111 L
380.051 360.186 L
380.162 360.261 L
380.272 360.336 L
380.383 360.409 L
380.493 360.482 L
380.604 360.555 L
380.714 360.626 L
380.825 360.698 L
380.935 360.768 L
381.046 360.838 L
381.156 360.908 L
381.267 360.977 L
381.377 361.045 L
381.488 361.113 L
381.598 361.18 L
381.709 361.246 L
381.819 361.312 L
381.93 361.378 L
382.04 361.442 L
382.151 361.507 L
382.262 361.571 L
382.372 361.634 L
382.483 361.696 L
382.593 361.759 L
382.704 361.82 L
382.814 361.881 L
382.925 361.942 L
383.035 362.002 L
383.146 362.061 L
383.256 362.12 L
383.367 362.179 L
383.477 362.237 L
383.588 362.294 L
383.698 362.351 L
383.809 362.407 L
383.919 362.463 L
384.03 362.519 L
384.141 362.574 L
384.251 362.628 L
384.362 362.682 L
384.472 362.736 L
384.583 362.789 L
384.693 362.841 L
384.804 362.894 L
384.914 362.945 L
385.025 362.996 L
385.135 363.047 L
385.246 363.098 L
385.356 363.147 L
385.467 363.197 L
385.577 363.246 L
385.688 363.294 L
385.798 363.342 L
385.909 363.39 L
386.02 363.437 L
386.13 363.484 L
386.241 363.53 L
386.351 363.576 L
386.462 363.622 L
386.572 363.667 L
386.683 363.711 L
386.793 363.756 L
386.904 363.8 L
387.014 363.843 L
387.125 363.886 L
387.235 363.929 L
387.346 363.971 L
387.456 364.013 L
387.567 364.055 L
387.677 364.096 L
387.788 364.137 L
387.898 364.177 L
388.009 364.217 L
388.12 364.257 L
388.23 364.296 L
388.341 364.335 L
388.451 364.373 L
388.562 364.411 L
388.672 364.449 L
388.783 364.487 L
388.893 364.524 L
389.004 364.56 L
389.114 364.597 L
389.225 364.633 L
389.335 364.669 L
389.446 364.704 L
389.556 364.739 L
389.667 364.774 L
389.777 364.808 L
389.888 364.842 L
389.999 364.876 L
390.109 364.909 L
390.22 364.943 L
390.33 364.975 L
390.441 365.008 L
390.551 365.04 L
390.662 365.072 L
390.772 365.103 L
390.883 365.135 L
390.993 365.166 L
391.104 365.196 L
391.214 365.227 L
391.325 365.257 L
391.435 365.286 L
391.546 365.316 L
391.656 365.345 L
391.767 365.374 L
391.877 365.402 L
391.988 365.431 L
392.099 365.459 L
392.209 365.487 L
392.32 365.514 L
392.43 365.541 L
392.541 365.568 L
392.651 365.595 L
392.762 365.622 L
392.872 365.648 L
392.983 365.674 L
393.093 365.699 L
393.204 365.725 L
393.314 365.75 L
393.425 365.775 L
393.535 365.799 L
393.646 365.824 L
393.756 365.848 L
393.867 365.872 L
393.978 365.896 L
394.088 365.919 L
394.199 365.942 L
394.309 365.965 L
394.42 365.988 L
394.53 366.011 L
394.641 366.033 L
394.751 366.055 L
394.862 366.077 L
394.972 366.098 L
395.083 366.12 L
395.193 366.141 L
395.304 366.162 L
395.414 366.183 L
395.525 366.203 L
395.635 366.224 L
395.746 366.244 L
395.856 366.264 L
395.967 366.283 L
396.078 366.303 L
396.188 366.322 L
396.299 366.341 L
396.409 366.36 L
396.52 366.379 L
396.63 366.397 L
396.741 366.416 L
396.851 366.434 L
396.962 366.452 L
397.072 366.47 L
397.183 366.487 L
397.293 366.505 L
397.404 366.522 L
397.514 366.539 L
397.625 366.556 L
397.735 366.572 L
397.846 366.589 L
397.956 366.605 L
398.067 366.621 L
398.178 366.637 L
398.288 366.653 L
398.399 366.669 L
398.509 366.684 L
398.62 366.7 L
398.73 366.715 L
398.841 366.73 L
398.951 366.745 L
399.062 366.759 L
399.172 366.774 L
399.283 366.788 L
399.393 366.803 L
399.504 366.817 L
399.614 366.831 L
399.725 366.844 L
399.835 366.858 L
399.946 366.871 L
400.057 366.885 L
400.167 366.898 L
400.278 366.911 L
400.388 366.924 L
400.499 366.937 L
400.609 366.949 L
400.72 366.962 L
400.83 366.974 L
400.941 366.986 L
401.051 366.998 L
401.162 367.01 L
401.272 367.022 L
401.383 367.034 L
401.493 367.045 L
401.604 367.057 L
401.714 367.068 L
401.825 367.079 L
401.935 367.09 L
402.046 367.101 L
402.157 367.112 L
402.267 367.123 L
402.378 367.133 L
402.488 367.144 L
402.599 367.154 L
402.709 367.165 L
402.82 367.175 L
402.93 367.185 L
403.041 367.195 L
403.151 367.204 L
403.262 367.214 L
403.372 367.224 L
403.483 367.233 L
403.593 367.242 L
403.704 367.252 L
403.814 367.261 L
403.925 367.27 L
404.036 367.279 L
404.146 367.288 L
404.257 367.296 L
404.367 367.305 L
404.478 367.314 L
404.588 367.322 L
404.699 367.33 L
404.809 367.339 L
404.92 367.347 L
405.03 367.355 L
405.141 367.363 L
405.251 367.371 L
405.362 367.379 L
405.472 367.386 L
405.583 367.394 L
405.693 367.402 L
405.804 367.409 L
405.914 367.416 L
406.025 367.424 L
406.136 367.431 L
406.246 367.438 L
406.357 367.445 L
406.467 367.452 L
406.578 367.459 L
406.688 367.466 L
406.799 367.472 L
406.909 367.479 L
407.02 367.486 L
407.13 367.492 L
407.241 367.498 L
407.351 367.505 L
407.462 367.511 L
407.572 367.517 L
407.683 367.523 L
407.793 367.529 L
407.904 367.535 L
408.014 367.541 L
408.125 367.547 L
408.236 367.553 L
408.346 367.559 L
408.457 367.564 L
408.567 367.57 L
408.678 367.575 L
408.788 367.581 L
408.899 367.586 L
409.009 367.591 L
409.12 367.597 L
409.23 367.602 L
409.341 367.607 L
409.451 367.612 L
409.562 367.617 L
409.672 367.622 L
409.783 367.627 L
409.893 367.632 L
410.004 367.636 L
410.115 367.641 L
410.225 367.646 L
410.336 367.65 L
410.446 367.655 L
410.557 367.659 L
410.667 367.664 L
410.778 367.668 L
410.888 367.672 L
410.999 367.677 L
411.109 367.681 L
411.22 367.685 L
411.33 367.689 L
411.441 367.693 L
411.551 367.697 L
411.662 367.701 L
411.772 367.705 L
411.883 367.709 L
411.993 367.713 L
412.104 367.717 L
412.215 367.72 L
412.325 367.724 L
412.436 367.728 L
412.546 367.731 L
412.657 367.735 L
412.767 367.738 L
412.878 367.742 L
412.988 367.745 L
413.099 367.749 L
413.209 367.752 L
413.32 367.755 L
413.43 367.758 L
413.541 367.762 L
413.651 367.765 L
413.762 367.768 L
413.872 367.771 L
413.983 367.774 L
414.094 367.777 L
414.204 367.78 L
414.315 367.783 L
414.425 367.786 L
414.536 367.789 L
414.646 367.792 L
414.757 367.795 L
414.867 367.797 L
414.978 367.8 L
415.088 367.803 L
415.199 367.805 L
415.309 367.808 L
415.42 367.811 L
415.53 367.813 L
415.641 367.816 L
415.751 367.818 L
415.862 367.821 L
415.973 367.823 L
416.083 367.826 L
416.194 367.828 L
416.304 367.83 L
416.415 367.833 L
416.525 367.835 L
416.636 367.837 L
416.746 367.839 L
416.857 367.842 L
416.967 367.844 L
417.078 367.846 L
417.188 367.848 L
417.299 367.85 L
417.409 367.852 L
417.52 367.854 L
417.63 367.856 L
417.741 367.858 L
417.851 367.86 L
417.962 367.862 L
418.073 367.864 L
418.183 367.866 L
418.294 367.868 L
418.404 367.87 L
418.515 367.871 L
418.625 367.873 L
418.736 367.875 L
418.846 367.877 L
418.957 367.878 L
419.067 367.88 L
419.178 367.882 L
419.288 367.883 L
419.399 367.885 L
419.509 367.887 L
419.62 367.888 L
419.73 367.89 L
419.841 367.891 L
419.951 367.893 L
420.062 367.894 L
420.173 367.896 L
420.283 367.897 L
420.394 367.899 L
420.504 367.9 L
420.615 367.902 L
420.725 367.903 L
420.836 367.904 L
420.946 367.906 L
421.057 367.907 L
421.167 367.908 L
421.278 367.91 L
421.388 367.911 L
421.499 367.912 L
421.609 367.913 L
421.72 367.915 L
421.83 367.916 L
421.941 367.917 L
422.052 367.918 L
422.162 367.919 L
422.273 367.921 L
422.383 367.922 L
422.494 367.923 L
422.604 367.924 L
422.715 367.925 L
422.825 367.926 L
422.936 367.927 L
423.046 367.928 L
423.157 367.929 L
423.267 367.93 L
423.378 367.931 L
423.488 367.932 L
423.599 367.933 L
423.709 367.934 L
423.82 367.935 L
423.93 367.936 L
424.041 367.937 L
424.152 367.938 L
424.262 367.939 L
424.373 367.94 L
424.483 367.941 L
424.594 367.941 L
424.704 367.942 L
424.815 367.943 L
424.925 367.944 L
425.036 367.945 L
425.146 367.946 L
425.257 367.946 L
425.367 367.947 L
425.478 367.948 L
425.588 367.949 L
425.699 367.949 L
425.809 367.95 L
425.92 367.951 L
426.031 367.952 L
426.141 367.952 L
426.252 367.953 L
426.362 367.954 L
426.473 367.954 L
426.583 367.955 L
426.694 367.956 L
426.804 367.956 L
426.915 367.957 L
427.025 367.958 L
427.136 367.958 L
427.246 367.959 L
427.357 367.96 L
427.467 367.96 L
427.578 367.961 L
427.688 367.961 L
427.799 367.962 L
427.909 367.962 L
428.02 367.963 L
428.131 367.964 L
428.241 367.964 L
428.352 367.965 L
428.462 367.965 L
428.573 367.966 L
428.683 367.966 L
428.794 367.967 L
428.904 367.967 L
429.015 367.968 L
429.125 367.968 L
429.236 367.969 L
429.346 367.969 L
429.457 367.97 L
429.567 367.97 L
429.678 367.971 L
429.788 367.971 L
429.899 367.971 L
430.009 367.972 L
430.12 367.972 L
430.231 367.973 L
430.341 367.973 L
430.452 367.974 L
430.562 367.974 L
430.673 367.974 L
430.783 367.975 L
430.894 367.975 L
431.004 367.976 L
431.115 367.976 L
431.225 367.976 L
431.336 367.977 L
431.446 367.977 L
431.557 367.977 L
431.667 367.978 L
431.778 367.978 L
431.888 367.978 L
431.999 367.979 L
432.11 367.979 L
432.22 367.979 L
432.331 367.98 L
432.441 367.98 L
432.552 367.98 L
432.662 367.981 L
432.773 367.981 L
432.883 367.981 L
432.994 367.981 L
433.104 367.982 L
433.215 367.982 L
433.325 367.982 L
433.436 367.983 L
433.546 367.983 L
433.657 367.983 L
433.767 367.983 L
433.878 367.984 L
433.988 367.984 L
434.099 367.984 L
434.21 367.984 L
434.32 367.985 L
434.431 367.985 L
434.541 367.985 L
434.652 367.985 L
434.762 367.986 L
434.873 367.986 L
434.983 367.986 L
435.094 367.986 L
435.204 367.986 L
435.315 367.987 L
435.425 367.987 L
435.536 367.987 L
435.646 367.987 L
435.757 367.988 L
435.867 367.988 L
435.978 367.988 L
436.089 367.988 L
436.199 367.988 L
436.31 367.988 L
436.42 367.989 L
436.531 367.989 L
436.641 367.989 L
436.752 367.989 L
436.862 367.989 L
436.973 367.99 L
437.083 367.99 L
437.194 367.99 L
437.304 367.99 L
437.415 367.99 L
437.525 367.99 L
437.636 367.99 L
437.746 367.991 L
437.857 367.991 L
437.967 367.991 L
438.078 367.991 L
438.189 367.991 L
438.299 367.991 L
438.41 367.992 L
438.52 367.992 L
438.631 367.992 L
438.741 367.992 L
438.852 367.992 L
438.962 367.992 L
439.073 367.992 L
439.183 367.992 L
439.294 367.993 L
439.404 367.993 L
439.515 367.993 L
439.625 367.993 L
439.736 367.993 L
439.846 367.993 L
439.957 367.993 L
440.068 367.993 L
440.178 367.993 L
440.289 367.994 L
440.399 367.994 L
440.51 367.994 L
440.62 367.994 L
440.731 367.994 L
440.841 367.994 L
440.952 367.994 L
441.062 367.994 L
441.173 367.994 L
441.283 367.994 L
441.394 367.995 L
441.504 367.995 L
441.615 367.995 L
441.725 367.995 L
441.836 367.995 L
441.946 367.995 L
442.057 367.995 L
442.168 367.995 L
442.278 367.995 L
442.389 367.995 L
442.499 367.995 L
442.61 367.995 L
442.72 367.996 L
442.831 367.996 L
442.941 367.996 L
443.052 367.996 L
443.162 367.996 L
443.273 367.996 L
443.383 367.996 L
443.494 367.996 L
443.604 367.996 L
443.715 367.996 L
443.825 367.996 L
443.936 367.996 L
444.047 367.996 L
444.157 367.996 L
444.268 367.996 L
444.378 367.997 L
444.489 367.997 L
444.599 367.997 L
444.71 367.997 L
444.82 367.997 L
444.931 367.997 L
445.041 367.997 L
445.152 367.997 L
445.262 367.997 L
445.373 367.997 L
445.483 367.997 L
445.594 367.997 L
445.704 367.997 L
445.815 367.997 L
445.925 367.997 L
446.036 367.997 L
446.147 367.997 L
446.257 367.997 L
446.368 367.997 L
446.478 367.997 L
446.589 367.998 L
446.699 367.998 L
446.81 367.998 L
446.92 367.998 L
447.031 367.998 L
447.141 367.998 L
447.252 367.998 L
447.362 367.998 L
447.473 367.998 L
447.583 367.998 L
447.694 367.998 L
447.804 367.998 L
447.915 367.998 L
448.026 367.998 L
448.136 367.998 L
448.247 367.998 L
448.357 367.998 L
448.468 367.998 L
448.578 367.998 L
448.689 367.998 L
448.799 367.998 L
448.91 367.998 L
449.02 367.998 L
449.131 367.998 L
449.241 367.998 L
449.352 367.998 L
449.462 367.998 L
449.573 367.998 L
449.683 367.998 L
449.794 367.999 L
449.904 367.999 L
450.015 367.999 L
450.126 367.999 L
450.236 367.999 L
450.347 367.999 L
450.457 367.999 L
450.568 367.999 L
450.678 367.999 L
450.789 367.999 L
450.899 367.999 L
451.01 367.999 L
451.12 367.999 L
451.231 367.999 L
451.341 367.999 L
451.452 367.999 L
451.562 367.999 L
451.673 367.999 L
451.783 367.999 L
451.894 367.999 L
452.005 367.999 L
452.115 367.999 L
452.226 367.999 L
452.336 367.999 L
452.447 367.999 L
452.557 367.999 L
452.668 367.999 L
452.778 367.999 L
452.889 367.999 L
452.999 367.999 L
453.11 367.999 L
453.22 367.999 L
453.331 367.999 L
453.441 367.999 L
453.552 367.999 L
453.662 367.999 L
453.773 367.999 L
453.883 367.999 L
453.994 367.999 L
454.105 367.999 L
454.215 367.999 L
454.326 367.999 L
454.436 367.999 L
454.547 367.999 L
454.657 367.999 L
454.768 367.999 L
454.878 367.999 L
454.989 367.999 L
455.099 367.999 L
455.21 367.999 L
455.32 367.999 L
455.431 367.999 L
455.541 367.999 L
455.652 367.999 L
455.762 367.999 L
455.873 367.999 L
455.983 367.999 L
456.094 367.999 L
456.205 367.999 L
456.315 367.999 L
456.426 367.999 L
456.536 368 L
456.647 368 L
456.757 368 L
456.868 368 L
456.978 368 L
457.089 368 L
457.199 368 L
457.31 368 L
457.42 368 L
457.531 368 L
457.641 368 L
457.752 368 L
457.862 368 L
457.973 368 L
458.084 368 L
458.194 368 L
458.305 368 L
458.415 368 L
458.526 368 L
458.636 368 L
458.747 368 L
458.857 368 L
458.968 368 L
459.078 368 L
459.189 368 L
459.299 368 L
459.41 368 L
459.52 368 L
459.631 368 L
459.741 368 L
459.852 368 L
459.962 368 L
460.073 368 L
460.184 368 L
460.294 368 L
460.405 368 L
460.515 368 L
460.626 368 L
460.736 368 L
460.847 368 L
460.957 368 L
461.068 368 L
461.178 368 L
461.289 368 L
461.399 368 L
461.51 368 L
461.62 368 L
461.731 368 L
461.841 368 L
461.952 368 L
462.063 368 L
462.173 368 L
462.284 368 L
462.394 368 L
462.505 368 L
462.615 368 L
462.726 368 L
462.836 368 L
462.947 368 L
463.057 368 L
463.168 368 L
463.278 368 L
463.389 368 L
463.499 368 L
463.61 368 L
463.72 368 L
463.831 368 L
463.941 368 L
464.052 368 L
464.163 368 L
464.273 368 L
464.384 368 L
464.494 368 L
464.605 368 L
464.715 368 L
464.826 368 L
464.936 368 L
465.047 368 L
465.157 368 L
465.268 368 L
465.378 368 L
465.489 368 L
465.599 368 L
465.71 368 L
465.82 368 L
465.931 368 L
466.042 368 L
466.152 368 L
466.263 368 L
466.373 368 L
466.484 368 L
466.594 368 L
466.705 368 L
466.815 368 L
466.926 368 L
467.036 368 L
467.147 368 L
467.257 368 L
467.368 368 L
467.478 368 L
467.589 368 L
467.699 368 L
467.81 368 L
467.92 368 L
468.031 368 L
468.142 368 L
468.252 368 L
468.363 368 L
468.473 368 L
468.584 368 L
468.694 368 L
468.805 368 L
468.915 368 L
469.026 368 L
469.136 368 L
469.247 368 L
469.357 368 L
469.468 368 L
469.578 368 L
469.689 368 L
469.799 368 L
469.91 368 L
470.021 368 L
470.131 368 L
470.242 368 L
470.352 368 L
470.463 368 L
470.573 368 L
470.684 368 L
470.794 368 L
470.905 368 L
471.015 368 L
471.126 368 L
471.236 368 L
471.347 368 L
471.457 368 L
471.568 368 L
471.678 368 L
471.789 368 L
471.899 368 L
472.01 368 L
472.121 368 L
472.231 368 L
472.342 368 L
472.452 368 L
472.563 368 L
472.673 368 L
472.784 368 L
472.894 368 L
473.005 368 L
473.115 368 L
473.226 368 L
473.336 368 L
473.447 368 L
473.557 368 L
473.668 368 L
473.778 368 L
473.889 368 L
474 368 L
474.11 368 L
474.221 368 L
474.331 368 L
474.442 368 L
474.552 368 L
474.663 368 L
474.773 368 L
474.884 368 L
474.994 368 L
475.105 368 L
475.215 368 L
475.326 368 L
475.436 368 L
475.547 368 L
475.657 368 L
475.768 368 L
475.878 368 L
475.989 368 L
476.1 368 L
476.21 368 L
476.321 368 L
476.431 368 L
476.542 368 L
476.652 368 L
476.763 368 L
476.873 368 L
476.984 368 L
477.094 368 L
477.205 368 L
477.315 368 L
477.426 368 L
477.536 368 L
477.647 368 L
477.757 368 L
477.868 368 L
477.979 368 L
478.089 368 L
478.2 368 L
478.31 368 L
478.421 368 L
478.531 368 L
478.642 368 L
478.752 368 L
478.863 368 L
478.973 368 L
479.084 368 L
479.194 368 L
479.305 368 L
479.415 368 L
479.526 368 L
479.636 368 L
479.747 368 L
479.857 368 L
479.968 368 L
480.079 368 L
480.189 368 L
480.3 368 L
480.41 368 L
480.521 368 L
480.631 368 L
480.742 368 L
480.852 368 L
480.963 368 L
481.073 368 L
481.184 368 L
481.294 368 L
481.405 368 L
481.515 368 L
481.626 368 L
481.736 368 L
481.847 368 L
481.958 368 L
482.068 368 L
482.179 368 L
482.289 368 L
482.4 368 L
482.51 368 L
482.621 368 L
482.731 368 L
482.842 368 L
482.952 368 L
483.063 368 L
483.173 368 L
483.284 368 L
483.394 368 L
483.505 368 L
483.615 368 L
483.726 368 L
483.836 368 L
483.947 368 L
484.058 368 L
484.168 368 L
484.279 368 L
484.389 368 L
484.5 368 L
484.61 368 L
484.721 368 L
484.831 368 L
484.942 368 L
485.052 368 L
485.163 368 L
485.273 368 L
485.384 368 L
485.494 368 L
485.605 368 L
485.715 368 L
485.826 368 L
485.936 368 L
486.047 368 L
486.158 368 L
486.268 368 L
486.379 368 L
486.489 368 L
486.6 368 L
486.71 368 L
486.821 368 L
486.931 368 L
487.042 368 L
487.152 368 L
487.263 368 L
487.373 368 L
487.484 368 L
487.594 368 L
487.705 368 L
487.815 368 L
487.926 368 L
488.037 368 L
488.147 368 L
488.258 368 L
488.368 368 L
488.479 368 L
488.589 368 L
488.7 368 L
488.81 368 L
488.921 368 L
489.031 368 L
489.142 368 L
489.252 368 L
489.363 368 L
489.473 368 L
489.584 368 L
489.694 368 L
489.805 368 L
489.915 368 L
490.026 368 L
490.137 368 L
490.247 368 L
490.358 368 L
490.468 368 L
490.579 368 L
490.689 368 L
490.8 368 L
490.91 368 L
491.021 368 L
491.131 368 L
491.242 368 L
491.352 368 L
491.463 368 L
491.573 368 L
491.684 368 L
491.794 368 L
491.905 368 L
492.016 368 L
492.126 368 L
492.237 368 L
492.347 368 L
492.458 368 L
492.568 368 L
492.679 368 L
492.789 368 L
492.9 368 L
493.01 368 L
493.121 368 L
493.231 368 L
493.342 368 L
493.452 368 L
493.563 368 L
493.673 368 L
493.784 368 L
493.894 368 L
494.005 368 L
494.116 368 L
494.226 368 L
494.337 368 L
494.447 368 L
494.558 368 L
494.668 368 L
494.779 368 L
494.889 368 L
495 368 L
495.11 368 L
495.221 368 L
495.331 368 L
495.442 368 L
495.552 368 L
495.663 368 L
495.773 368 L
495.884 368 L
495.995 368 L
496.105 368 L
496.216 368 L
496.326 368 L
496.437 368 L
496.547 368 L
496.658 368 L
496.768 368 L
496.879 368 L
496.989 368 L
497.1 368 L
497.21 368 L
497.321 368 L
497.431 368 L
497.542 368 L
497.652 368 L
497.763 368 L
497.873 368 L
497.984 368 L
498.095 368 L
498.205 368 L
498.316 368 L
498.426 368 L
498.537 368 L
498.647 368 L
498.758 368 L
498.868 368 L
498.979 368 L
499.089 368 L
499.2 368 L
499.31 368 L
499.421 368 L
499.531 368 L
499.642 368 L
499.752 368 L
499.863 368 L
499.974 368 L
500.084 368 L
500.195 368 L
500.305 368 L
500.416 368 L
500.526 368 L
500.637 368 L
500.747 368 L
500.858 368 L
500.968 368 L
501.079 368 L
501.189 368 L
501.3 368 L
501.41 368 L
501.521 368 L
501.631 368 L
501.742 368 L
501.852 368 L
501.963 368 L
502.074 368 L
502.184 368 L
502.295 368 L
502.405 368 L
502.516 368 L
502.626 368 L
502.737 368 L
502.847 368 L
502.958 368 L
503.068 368 L
503.179 368 L
503.289 368 L
503.4 368 L
503.51 368 L
503.621 368 L
503.731 368 L
503.842 368 L
503.953 368 L
504.063 368 L
504.174 368 L
504.284 368 L
504.395 368 L
504.505 368 L
504.616 368 L
504.726 368 L
504.837 368 L
504.947 368 L
505.058 368 L
505.168 368 L
505.279 368 L
505.389 368 L
505.5 368 L
505.61 368 L
505.721 368 L
505.831 368 L
505.942 368 L
506.053 368 L
506.163 368 L
506.274 368 L
506.384 368 L
506.495 368 L
506.605 368 L
506.716 368 L
506.826 368 L
506.937 368 L
507.047 368 L
507.158 368 L
507.268 368 L
507.379 368 L
507.489 368 L
507.6 368 L
507.71 368 L
507.821 368 L
507.931 368 L
508.042 368 L
508.153 368 L
508.263 368 L
508.374 368 L
508.484 368 L
508.595 368 L
508.705 368 L
508.816 368 L
508.926 368 L
509.037 368 L
509.147 368 L
509.258 368 L
509.368 368 L
509.479 368 L
509.589 368 L
509.7 368 L
509.81 368 L
509.921 368 L
510.032 368 L
510.142 368 L
510.253 368 L
510.363 368 L
510.474 368 L
510.584 368 L
510.695 368 L
510.805 368 L
510.916 368 L
511.026 368 L
511.137 368 L
511.247 368 L
511.358 368 L
511.468 368 L
511.579 368 L
511.689 368 L
511.8 368 L
511.91 368 L
512.021 368 L
512.132 368 L
512.242 368 L
512.353 368 L
512.463 368 L
512.574 368 L
512.684 368 L
512.795 368 L
512.905 368 L
513.016 368 L
513.126 368 L
513.237 368 L
513.347 368 L
513.458 368 L
513.568 368 L
513.679 368 L
513.789 368 L
513.9 368 L
514.01 368 L
514.121 368 L
514.232 368 L
514.342 368 L
514.453 368 L
514.563 368 L
514.674 368 L
514.784 368 L
514.895 368 L
515.005 368 L
515.116 368 L
515.226 368 L
515.337 368 L
515.447 368 L
515.558 368 L
515.668 368 L
515.779 368 L
515.889 368 L
516 368 L
S
GR
%%Trailer
%%Pages: 1
%%EOF
