%!PS-Adobe-3.0 EPSF-3.0
%%Creator: (MATLAB, The Mathworks, Inc. Version 9.9.0.1524771 \(R2020b\) Update 2. Operating System: Linux)
%%Title: /evo/src/dissertation/figs/pitchfork-spatial-validated.eps
%%CreationDate: 2022-03-30T12:47:59
%%Pages: (atend)
%%BoundingBox:     0     0   446   324
%%LanguageLevel: 3
%%EndComments
%%BeginProlog
%%BeginResource: procset (Apache XML Graphics Std ProcSet) 1.2 0
%%Version: 1.2 0
%%Copyright: (Copyright 2001-2003,2010 The Apache Software Foundation. License terms: http://www.apache.org/licenses/LICENSE-2.0)
/bd{bind def}bind def
/ld{load def}bd
/GR/grestore ld
/GS/gsave ld
/RM/rmoveto ld
/C/curveto ld
/t/show ld
/L/lineto ld
/ML/setmiterlimit ld
/CT/concat ld
/f/fill ld
/N/newpath ld
/S/stroke ld
/CC/setcmykcolor ld
/A/ashow ld
/cp/closepath ld
/RC/setrgbcolor ld
/LJ/setlinejoin ld
/GC/setgray ld
/LW/setlinewidth ld
/M/moveto ld
/re {4 2 roll M
1 index 0 rlineto
0 exch rlineto
neg 0 rlineto
cp } bd
/_ctm matrix def
/_tm matrix def
/BT { _ctm currentmatrix pop matrix _tm copy pop 0 0 moveto } bd
/ET { _ctm setmatrix } bd
/iTm { _ctm setmatrix _tm concat } bd
/Tm { _tm astore pop iTm 0 0 moveto } bd
/ux 0.0 def
/uy 0.0 def
/F {
  /Tp exch def
  /Tf exch def
  Tf findfont Tp scalefont setfont
  /cf Tf def  /cs Tp def
} bd
/ULS {currentpoint /uy exch def /ux exch def} bd
/ULE {
  /Tcx currentpoint pop def
  gsave
  newpath
  cf findfont cs scalefont dup
  /FontMatrix get 0 get /Ts exch def /FontInfo get dup
  /UnderlinePosition get Ts mul /To exch def
  /UnderlineThickness get Ts mul /Tt exch def
  ux uy To add moveto  Tcx uy To add lineto
  Tt setlinewidth stroke
  grestore
} bd
/OLE {
  /Tcx currentpoint pop def
  gsave
  newpath
  cf findfont cs scalefont dup
  /FontMatrix get 0 get /Ts exch def /FontInfo get dup
  /UnderlinePosition get Ts mul /To exch def
  /UnderlineThickness get Ts mul /Tt exch def
  ux uy To add cs add moveto Tcx uy To add cs add lineto
  Tt setlinewidth stroke
  grestore
} bd
/SOE {
  /Tcx currentpoint pop def
  gsave
  newpath
  cf findfont cs scalefont dup
  /FontMatrix get 0 get /Ts exch def /FontInfo get dup
  /UnderlinePosition get Ts mul /To exch def
  /UnderlineThickness get Ts mul /Tt exch def
  ux uy To add cs 10 mul 26 idiv add moveto Tcx uy To add cs 10 mul 26 idiv add lineto
  Tt setlinewidth stroke
  grestore
} bd
/QT {
/Y22 exch store
/X22 exch store
/Y21 exch store
/X21 exch store
currentpoint
/Y21 load 2 mul add 3 div exch
/X21 load 2 mul add 3 div exch
/X21 load 2 mul /X22 load add 3 div
/Y21 load 2 mul /Y22 load add 3 div
/X22 load /Y22 load curveto
} bd
/SSPD {
dup length /d exch dict def
{
/v exch def
/k exch def
currentpagedevice k known {
/cpdv currentpagedevice k get def
v cpdv ne {
/upd false def
/nullv v type /nulltype eq def
/nullcpdv cpdv type /nulltype eq def
nullv nullcpdv or
{
/upd true def
} {
/sametype v type cpdv type eq def
sametype {
v type /arraytype eq {
/vlen v length def
/cpdvlen cpdv length def
vlen cpdvlen eq {
0 1 vlen 1 sub {
/i exch def
/obj v i get def
/cpdobj cpdv i get def
obj cpdobj ne {
/upd true def
exit
} if
} for
} {
/upd true def
} ifelse
} {
v type /dicttype eq {
v {
/dv exch def
/dk exch def
/cpddv cpdv dk get def
dv cpddv ne {
/upd true def
exit
} if
} forall
} {
/upd true def
} ifelse
} ifelse
} if
} ifelse
upd true eq {
d k v put
} if
} if
} if
} forall
d length 0 gt {
d setpagedevice
} if
} bd
/RE { % /NewFontName [NewEncodingArray] /FontName RE -
  findfont dup length dict begin
  {
    1 index /FID ne
    {def} {pop pop} ifelse
  } forall
  /Encoding exch def
  /FontName 1 index def
  currentdict definefont pop
  end
} bind def
%%EndResource
%%BeginResource: procset (Apache XML Graphics EPS ProcSet) 1.0 0
%%Version: 1.0 0
%%Copyright: (Copyright 2002-2003 The Apache Software Foundation. License terms: http://www.apache.org/licenses/LICENSE-2.0)
/BeginEPSF { %def
/b4_Inc_state save def         % Save state for cleanup
/dict_count countdictstack def % Count objects on dict stack
/op_count count 1 sub def      % Count objects on operand stack
userdict begin                 % Push userdict on dict stack
/showpage { } def              % Redefine showpage, { } = null proc
0 setgray 0 setlinecap         % Prepare graphics state
1 setlinewidth 0 setlinejoin
10 setmiterlimit [ ] 0 setdash newpath
/languagelevel where           % If level not equal to 1 then
{pop languagelevel             % set strokeadjust and
1 ne                           % overprint to their defaults.
{false setstrokeadjust false setoverprint
} if
} if
} bd
/EndEPSF { %def
count op_count sub {pop} repeat            % Clean up stacks
countdictstack dict_count sub {end} repeat
b4_Inc_state restore
} bd
%%EndResource
%FOPBeginFontDict
%%IncludeResource: font Courier-Oblique
%%IncludeResource: font Courier-BoldOblique
%%IncludeResource: font Courier-Bold
%%IncludeResource: font ZapfDingbats
%%IncludeResource: font Symbol
%%IncludeResource: font Helvetica
%%IncludeResource: font Helvetica-Oblique
%%IncludeResource: font Helvetica-Bold
%%IncludeResource: font Helvetica-BoldOblique
%%IncludeResource: font Times-Roman
%%IncludeResource: font Times-Italic
%%IncludeResource: font Times-Bold
%%IncludeResource: font Times-BoldItalic
%%IncludeResource: font Courier
%FOPEndFontDict
%%BeginResource: encoding WinAnsiEncoding
/WinAnsiEncoding [
/.notdef /.notdef /.notdef /.notdef /.notdef
/.notdef /.notdef /.notdef /.notdef /.notdef
/.notdef /.notdef /.notdef /.notdef /.notdef
/.notdef /.notdef /.notdef /.notdef /.notdef
/.notdef /.notdef /.notdef /.notdef /.notdef
/.notdef /.notdef /.notdef /.notdef /.notdef
/.notdef /.notdef /space /exclam /quotedbl
/numbersign /dollar /percent /ampersand /quotesingle
/parenleft /parenright /asterisk /plus /comma
/hyphen /period /slash /zero /one
/two /three /four /five /six
/seven /eight /nine /colon /semicolon
/less /equal /greater /question /at
/A /B /C /D /E
/F /G /H /I /J
/K /L /M /N /O
/P /Q /R /S /T
/U /V /W /X /Y
/Z /bracketleft /backslash /bracketright /asciicircum
/underscore /quoteleft /a /b /c
/d /e /f /g /h
/i /j /k /l /m
/n /o /p /q /r
/s /t /u /v /w
/x /y /z /braceleft /bar
/braceright /asciitilde /bullet /Euro /bullet
/quotesinglbase /florin /quotedblbase /ellipsis /dagger
/daggerdbl /circumflex /perthousand /Scaron /guilsinglleft
/OE /bullet /Zcaron /bullet /bullet
/quoteleft /quoteright /quotedblleft /quotedblright /bullet
/endash /emdash /asciitilde /trademark /scaron
/guilsinglright /oe /bullet /zcaron /Ydieresis
/space /exclamdown /cent /sterling /currency
/yen /brokenbar /section /dieresis /copyright
/ordfeminine /guillemotleft /logicalnot /sfthyphen /registered
/macron /degree /plusminus /twosuperior /threesuperior
/acute /mu /paragraph /middot /cedilla
/onesuperior /ordmasculine /guillemotright /onequarter /onehalf
/threequarters /questiondown /Agrave /Aacute /Acircumflex
/Atilde /Adieresis /Aring /AE /Ccedilla
/Egrave /Eacute /Ecircumflex /Edieresis /Igrave
/Iacute /Icircumflex /Idieresis /Eth /Ntilde
/Ograve /Oacute /Ocircumflex /Otilde /Odieresis
/multiply /Oslash /Ugrave /Uacute /Ucircumflex
/Udieresis /Yacute /Thorn /germandbls /agrave
/aacute /acircumflex /atilde /adieresis /aring
/ae /ccedilla /egrave /eacute /ecircumflex
/edieresis /igrave /iacute /icircumflex /idieresis
/eth /ntilde /ograve /oacute /ocircumflex
/otilde /odieresis /divide /oslash /ugrave
/uacute /ucircumflex /udieresis /yacute /thorn
/ydieresis
] def
%%EndResource
%FOPBeginFontReencode
/Courier-Oblique findfont
dup length dict begin
  {1 index /FID ne {def} {pop pop} ifelse} forall
  /Encoding WinAnsiEncoding def
  currentdict
end
/Courier-Oblique exch definefont pop
/Courier-BoldOblique findfont
dup length dict begin
  {1 index /FID ne {def} {pop pop} ifelse} forall
  /Encoding WinAnsiEncoding def
  currentdict
end
/Courier-BoldOblique exch definefont pop
/Courier-Bold findfont
dup length dict begin
  {1 index /FID ne {def} {pop pop} ifelse} forall
  /Encoding WinAnsiEncoding def
  currentdict
end
/Courier-Bold exch definefont pop
/Helvetica findfont
dup length dict begin
  {1 index /FID ne {def} {pop pop} ifelse} forall
  /Encoding WinAnsiEncoding def
  currentdict
end
/Helvetica exch definefont pop
/Helvetica-Oblique findfont
dup length dict begin
  {1 index /FID ne {def} {pop pop} ifelse} forall
  /Encoding WinAnsiEncoding def
  currentdict
end
/Helvetica-Oblique exch definefont pop
/Helvetica-Bold findfont
dup length dict begin
  {1 index /FID ne {def} {pop pop} ifelse} forall
  /Encoding WinAnsiEncoding def
  currentdict
end
/Helvetica-Bold exch definefont pop
/Helvetica-BoldOblique findfont
dup length dict begin
  {1 index /FID ne {def} {pop pop} ifelse} forall
  /Encoding WinAnsiEncoding def
  currentdict
end
/Helvetica-BoldOblique exch definefont pop
/Times-Roman findfont
dup length dict begin
  {1 index /FID ne {def} {pop pop} ifelse} forall
  /Encoding WinAnsiEncoding def
  currentdict
end
/Times-Roman exch definefont pop
/Times-Italic findfont
dup length dict begin
  {1 index /FID ne {def} {pop pop} ifelse} forall
  /Encoding WinAnsiEncoding def
  currentdict
end
/Times-Italic exch definefont pop
/Times-Bold findfont
dup length dict begin
  {1 index /FID ne {def} {pop pop} ifelse} forall
  /Encoding WinAnsiEncoding def
  currentdict
end
/Times-Bold exch definefont pop
/Times-BoldItalic findfont
dup length dict begin
  {1 index /FID ne {def} {pop pop} ifelse} forall
  /Encoding WinAnsiEncoding def
  currentdict
end
/Times-BoldItalic exch definefont pop
/Courier findfont
dup length dict begin
  {1 index /FID ne {def} {pop pop} ifelse} forall
  /Encoding WinAnsiEncoding def
  currentdict
end
/Courier exch definefont pop
%FOPEndFontReencode
%%EndProlog
%%Page: 1 1
%%PageBoundingBox: 0 0 446 324
%%BeginPageSetup
[1 0 0 -1 0 324] CT
%%EndPageSetup
GS
[0.78261 0 0 0.78261 0 0] CT
N
0 0 M
570 0 L
570 414 L
0 414 L
0 0 L
cp
clip
1 GC
N
0 0 570 414 re
f
GR
GS
[0.78261 0 0 0.78261 0 0] CT
1 GC
N
0 0 570 414 re
f
GR
GS
[0.78261 0 0 0.78261 0 0] CT
1 GC
N
74 368 M
516 368 L
516 31 L
74 31 L
cp
f
GR
GS
[0.78261 0 0 0.78261 0 0] CT
0.149 GC
2 setlinecap
1 LJ
0.639 LW
N
74 368 M
516 368 L
S
GR
GS
[0.78261 0 0 0.78261 0 0] CT
0.149 GC
2 setlinecap
1 LJ
0.639 LW
N
74 31 M
516 31 L
S
GR
GS
[0.78261 0 0 0.78261 0 0] CT
0.149 GC
2 setlinecap
1 LJ
0.639 LW
N
74 368 M
74 363.58 L
S
GR
GS
[0.78261 0 0 0.78261 0 0] CT
0.149 GC
2 setlinecap
1 LJ
0.639 LW
N
118.2 368 M
118.2 363.58 L
S
GR
GS
[0.78261 0 0 0.78261 0 0] CT
0.149 GC
2 setlinecap
1 LJ
0.639 LW
N
162.4 368 M
162.4 363.58 L
S
GR
GS
[0.78261 0 0 0.78261 0 0] CT
0.149 GC
2 setlinecap
1 LJ
0.639 LW
N
206.6 368 M
206.6 363.58 L
S
GR
GS
[0.78261 0 0 0.78261 0 0] CT
0.149 GC
2 setlinecap
1 LJ
0.639 LW
N
250.8 368 M
250.8 363.58 L
S
GR
GS
[0.78261 0 0 0.78261 0 0] CT
0.149 GC
2 setlinecap
1 LJ
0.639 LW
N
295 368 M
295 363.58 L
S
GR
GS
[0.78261 0 0 0.78261 0 0] CT
0.149 GC
2 setlinecap
1 LJ
0.639 LW
N
339.2 368 M
339.2 363.58 L
S
GR
GS
[0.78261 0 0 0.78261 0 0] CT
0.149 GC
2 setlinecap
1 LJ
0.639 LW
N
383.4 368 M
383.4 363.58 L
S
GR
GS
[0.78261 0 0 0.78261 0 0] CT
0.149 GC
2 setlinecap
1 LJ
0.639 LW
N
427.6 368 M
427.6 363.58 L
S
GR
GS
[0.78261 0 0 0.78261 0 0] CT
0.149 GC
2 setlinecap
1 LJ
0.639 LW
N
471.8 368 M
471.8 363.58 L
S
GR
GS
[0.78261 0 0 0.78261 0 0] CT
0.149 GC
2 setlinecap
1 LJ
0.639 LW
N
516 368 M
516 363.58 L
S
GR
GS
[0.78261 0 0 0.78261 0 0] CT
0.149 GC
2 setlinecap
1 LJ
0.639 LW
N
74 31 M
74 35.42 L
S
GR
GS
[0.78261 0 0 0.78261 0 0] CT
0.149 GC
2 setlinecap
1 LJ
0.639 LW
N
118.2 31 M
118.2 35.42 L
S
GR
GS
[0.78261 0 0 0.78261 0 0] CT
0.149 GC
2 setlinecap
1 LJ
0.639 LW
N
162.4 31 M
162.4 35.42 L
S
GR
GS
[0.78261 0 0 0.78261 0 0] CT
0.149 GC
2 setlinecap
1 LJ
0.639 LW
N
206.6 31 M
206.6 35.42 L
S
GR
GS
[0.78261 0 0 0.78261 0 0] CT
0.149 GC
2 setlinecap
1 LJ
0.639 LW
N
250.8 31 M
250.8 35.42 L
S
GR
GS
[0.78261 0 0 0.78261 0 0] CT
0.149 GC
2 setlinecap
1 LJ
0.639 LW
N
295 31 M
295 35.42 L
S
GR
GS
[0.78261 0 0 0.78261 0 0] CT
0.149 GC
2 setlinecap
1 LJ
0.639 LW
N
339.2 31 M
339.2 35.42 L
S
GR
GS
[0.78261 0 0 0.78261 0 0] CT
0.149 GC
2 setlinecap
1 LJ
0.639 LW
N
383.4 31 M
383.4 35.42 L
S
GR
GS
[0.78261 0 0 0.78261 0 0] CT
0.149 GC
2 setlinecap
1 LJ
0.639 LW
N
427.6 31 M
427.6 35.42 L
S
GR
GS
[0.78261 0 0 0.78261 0 0] CT
0.149 GC
2 setlinecap
1 LJ
0.639 LW
N
471.8 31 M
471.8 35.42 L
S
GR
GS
[0.78261 0 0 0.78261 0 0] CT
0.149 GC
2 setlinecap
1 LJ
0.639 LW
N
516 31 M
516 35.42 L
S
GR
GS
[0.78261 0 0 0.78261 57.91304 292] CT
0.149 GC
/Helvetica 12.778 F
GS
[1 0 0 1 0 0] CT
-12.5 12 moveto 
1 -1 scale
(-2.5) t 
GR
GR
GS
[0.78261 0 0 0.78261 92.50434 292] CT
0.149 GC
/Helvetica 12.778 F
GS
[1 0 0 1 0 0] CT
-6.5 12 moveto 
1 -1 scale
(-2) t 
GR
GR
GS
[0.78261 0 0 0.78261 127.09564 292] CT
0.149 GC
/Helvetica 12.778 F
GS
[1 0 0 1 0 0] CT
-12.5 12 moveto 
1 -1 scale
(-1.5) t 
GR
GR
GS
[0.78261 0 0 0.78261 161.68696 292] CT
0.149 GC
/Helvetica 12.778 F
GS
[1 0 0 1 0 0] CT
-6.5 12 moveto 
1 -1 scale
(-1) t 
GR
GR
GS
[0.78261 0 0 0.78261 196.27826 292] CT
0.149 GC
/Helvetica 12.778 F
GS
[1 0 0 1 0 0] CT
-12.5 12 moveto 
1 -1 scale
(-0.5) t 
GR
GR
GS
[0.78261 0 0 0.78261 230.86956 292] CT
0.149 GC
/Helvetica 12.778 F
GS
[1 0 0 1 0 0] CT
-4.5 12 moveto 
1 -1 scale
(0) t 
GR
GR
GS
[0.78261 0 0 0.78261 265.46087 292] CT
0.149 GC
/Helvetica 12.778 F
GS
[1 0 0 1 0 0] CT
-10.5 12 moveto 
1 -1 scale
(0.5) t 
GR
GR
GS
[0.78261 0 0 0.78261 300.05216 292] CT
0.149 GC
/Helvetica 12.778 F
GS
[1 0 0 1 0 0] CT
-4.5 12 moveto 
1 -1 scale
(1) t 
GR
GR
GS
[0.78261 0 0 0.78261 334.64347 292] CT
0.149 GC
/Helvetica 12.778 F
GS
[1 0 0 1 0 0] CT
-10.5 12 moveto 
1 -1 scale
(1.5) t 
GR
GR
GS
[0.78261 0 0 0.78261 369.23476 292] CT
0.149 GC
/Helvetica 12.778 F
GS
[1 0 0 1 0 0] CT
-4.5 12 moveto 
1 -1 scale
(2) t 
GR
GR
GS
[0.78261 0 0 0.78261 403.82608 292] CT
0.149 GC
/Helvetica 12.778 F
GS
[1 0 0 1 0 0] CT
-10.5 12 moveto 
1 -1 scale
(2.5) t 
GR
GR
GS
[0.78261 0 0 0.78261 0 0] CT
0.149 GC
2 setlinecap
1 LJ
0.639 LW
N
74 368 M
74 31 L
S
GR
GS
[0.78261 0 0 0.78261 0 0] CT
0.149 GC
2 setlinecap
1 LJ
0.639 LW
N
516 368 M
516 31 L
S
GR
GS
[0.78261 0 0 0.78261 0 0] CT
0.149 GC
2 setlinecap
1 LJ
0.639 LW
N
74 368 M
78.42 368 L
S
GR
GS
[0.78261 0 0 0.78261 0 0] CT
0.149 GC
2 setlinecap
1 LJ
0.639 LW
N
74 334.3 M
78.42 334.3 L
S
GR
GS
[0.78261 0 0 0.78261 0 0] CT
0.149 GC
2 setlinecap
1 LJ
0.639 LW
N
74 300.6 M
78.42 300.6 L
S
GR
GS
[0.78261 0 0 0.78261 0 0] CT
0.149 GC
2 setlinecap
1 LJ
0.639 LW
N
74 266.9 M
78.42 266.9 L
S
GR
GS
[0.78261 0 0 0.78261 0 0] CT
0.149 GC
2 setlinecap
1 LJ
0.639 LW
N
74 233.2 M
78.42 233.2 L
S
GR
GS
[0.78261 0 0 0.78261 0 0] CT
0.149 GC
2 setlinecap
1 LJ
0.639 LW
N
74 199.5 M
78.42 199.5 L
S
GR
GS
[0.78261 0 0 0.78261 0 0] CT
0.149 GC
2 setlinecap
1 LJ
0.639 LW
N
74 165.8 M
78.42 165.8 L
S
GR
GS
[0.78261 0 0 0.78261 0 0] CT
0.149 GC
2 setlinecap
1 LJ
0.639 LW
N
74 132.1 M
78.42 132.1 L
S
GR
GS
[0.78261 0 0 0.78261 0 0] CT
0.149 GC
2 setlinecap
1 LJ
0.639 LW
N
74 98.4 M
78.42 98.4 L
S
GR
GS
[0.78261 0 0 0.78261 0 0] CT
0.149 GC
2 setlinecap
1 LJ
0.639 LW
N
74 64.7 M
78.42 64.7 L
S
GR
GS
[0.78261 0 0 0.78261 0 0] CT
0.149 GC
2 setlinecap
1 LJ
0.639 LW
N
74 31 M
78.42 31 L
S
GR
GS
[0.78261 0 0 0.78261 0 0] CT
0.149 GC
2 setlinecap
1 LJ
0.639 LW
N
516 368 M
511.58 368 L
S
GR
GS
[0.78261 0 0 0.78261 0 0] CT
0.149 GC
2 setlinecap
1 LJ
0.639 LW
N
516 334.3 M
511.58 334.3 L
S
GR
GS
[0.78261 0 0 0.78261 0 0] CT
0.149 GC
2 setlinecap
1 LJ
0.639 LW
N
516 300.6 M
511.58 300.6 L
S
GR
GS
[0.78261 0 0 0.78261 0 0] CT
0.149 GC
2 setlinecap
1 LJ
0.639 LW
N
516 266.9 M
511.58 266.9 L
S
GR
GS
[0.78261 0 0 0.78261 0 0] CT
0.149 GC
2 setlinecap
1 LJ
0.639 LW
N
516 233.2 M
511.58 233.2 L
S
GR
GS
[0.78261 0 0 0.78261 0 0] CT
0.149 GC
2 setlinecap
1 LJ
0.639 LW
N
516 199.5 M
511.58 199.5 L
S
GR
GS
[0.78261 0 0 0.78261 0 0] CT
0.149 GC
2 setlinecap
1 LJ
0.639 LW
N
516 165.8 M
511.58 165.8 L
S
GR
GS
[0.78261 0 0 0.78261 0 0] CT
0.149 GC
2 setlinecap
1 LJ
0.639 LW
N
516 132.1 M
511.58 132.1 L
S
GR
GS
[0.78261 0 0 0.78261 0 0] CT
0.149 GC
2 setlinecap
1 LJ
0.639 LW
N
516 98.4 M
511.58 98.4 L
S
GR
GS
[0.78261 0 0 0.78261 0 0] CT
0.149 GC
2 setlinecap
1 LJ
0.639 LW
N
516 64.7 M
511.58 64.7 L
S
GR
GS
[0.78261 0 0 0.78261 0 0] CT
0.149 GC
2 setlinecap
1 LJ
0.639 LW
N
516 31 M
511.58 31 L
S
GR
GS
[0.78261 0 0 0.78261 53.91305 288] CT
0.149 GC
/Helvetica 12.778 F
GS
[1 0 0 1 0 0] CT
-9 4 moveto 
1 -1 scale
(0) t 
GR
GR
GS
[0.78261 0 0 0.78261 53.91305 261.62608] CT
0.149 GC
/Helvetica 12.778 F
GS
[1 0 0 1 0 0] CT
-29 4 moveto 
1 -1 scale
(0.05) t 
GR
GR
GS
[0.78261 0 0 0.78261 53.91305 235.25218] CT
0.149 GC
/Helvetica 12.778 F
GS
[1 0 0 1 0 0] CT
-21 4 moveto 
1 -1 scale
(0.1) t 
GR
GR
GS
[0.78261 0 0 0.78261 53.91305 208.87826] CT
0.149 GC
/Helvetica 12.778 F
GS
[1 0 0 1 0 0] CT
-29 4 moveto 
1 -1 scale
(0.15) t 
GR
GR
GS
[0.78261 0 0 0.78261 53.91305 182.50435] CT
0.149 GC
/Helvetica 12.778 F
GS
[1 0 0 1 0 0] CT
-21 4 moveto 
1 -1 scale
(0.2) t 
GR
GR
GS
[0.78261 0 0 0.78261 53.91305 156.13043] CT
0.149 GC
/Helvetica 12.778 F
GS
[1 0 0 1 0 0] CT
-29 4 moveto 
1 -1 scale
(0.25) t 
GR
GR
GS
[0.78261 0 0 0.78261 53.91305 129.75651] CT
0.149 GC
/Helvetica 12.778 F
GS
[1 0 0 1 0 0] CT
-21 4 moveto 
1 -1 scale
(0.3) t 
GR
GR
GS
[0.78261 0 0 0.78261 53.91305 103.38261] CT
0.149 GC
/Helvetica 12.778 F
GS
[1 0 0 1 0 0] CT
-29 4 moveto 
1 -1 scale
(0.35) t 
GR
GR
GS
[0.78261 0 0 0.78261 53.91305 77.00869] CT
0.149 GC
/Helvetica 12.778 F
GS
[1 0 0 1 0 0] CT
-21 4 moveto 
1 -1 scale
(0.4) t 
GR
GR
GS
[0.78261 0 0 0.78261 53.91305 50.63479] CT
0.149 GC
/Helvetica 12.778 F
GS
[1 0 0 1 0 0] CT
-29 4 moveto 
1 -1 scale
(0.45) t 
GR
GR
GS
[0.78261 0 0 0.78261 53.91305 24.26087] CT
0.149 GC
/Helvetica 12.778 F
GS
[1 0 0 1 0 0] CT
-21 4 moveto 
1 -1 scale
(0.5) t 
GR
GR
GS
[0.78261 0 0 0.78261 0 0] CT
0 0.447 0.741 RC
1 LJ
2.556 LW
N
74 368 M
74.186 368 L
74.372 368 L
74.559 368 L
74.745 368 L
74.931 368 L
75.117 368 L
75.303 368 L
75.489 368 L
75.676 368 L
75.862 368 L
76.048 368 L
76.234 368 L
76.42 368 L
76.607 368 L
76.793 368 L
76.979 368 L
77.165 368 L
77.351 368 L
77.537 368 L
77.724 368 L
77.91 368 L
78.096 368 L
78.282 368 L
78.468 368 L
78.655 368 L
78.841 368 L
79.027 368 L
79.213 368 L
79.399 368 L
79.586 368 L
79.772 368 L
79.958 368 L
80.144 368 L
80.33 368 L
80.516 368 L
80.703 368 L
80.889 368 L
81.075 368 L
81.261 368 L
81.447 368 L
81.634 368 L
81.82 368 L
82.006 368 L
82.192 368 L
82.378 368 L
82.564 368 L
82.751 368 L
82.937 368 L
83.123 368 L
83.309 368 L
83.495 368 L
83.682 368 L
83.868 368 L
84.054 368 L
84.24 368 L
84.426 368 L
84.612 368 L
84.799 368 L
84.985 368 L
85.171 368 L
85.357 368 L
85.543 368 L
85.73 368 L
85.916 368 L
86.102 368 L
86.288 368 L
86.474 368 L
86.66 368 L
86.847 368 L
87.033 368 L
87.219 368 L
87.405 368 L
87.591 368 L
87.778 368 L
87.964 368 L
88.15 368 L
88.336 368 L
88.522 368 L
88.709 368 L
88.895 368 L
89.081 368 L
89.267 368 L
89.453 368 L
89.639 368 L
89.826 368 L
90.012 368 L
90.198 368 L
90.384 368 L
90.57 368 L
90.757 368 L
90.943 368 L
91.129 368 L
91.315 368 L
91.501 368 L
91.687 368 L
91.874 368 L
92.06 368 L
92.246 368 L
92.432 367.999 L
92.618 367.999 L
92.805 367.999 L
92.991 367.999 L
93.177 367.999 L
93.363 367.999 L
93.549 367.999 L
93.735 367.999 L
93.922 367.999 L
94.108 367.999 L
94.294 367.999 L
94.48 367.999 L
94.666 367.999 L
94.853 367.999 L
95.039 367.999 L
95.225 367.999 L
95.411 367.999 L
95.597 367.999 L
95.783 367.999 L
95.97 367.999 L
96.156 367.999 L
96.342 367.999 L
96.528 367.999 L
96.714 367.998 L
96.901 367.998 L
97.087 367.998 L
97.273 367.998 L
97.459 367.998 L
97.645 367.998 L
97.832 367.998 L
98.018 367.998 L
98.204 367.998 L
98.39 367.998 L
98.576 367.997 L
98.762 367.997 L
98.949 367.997 L
99.135 367.997 L
99.321 367.997 L
99.507 367.997 L
99.693 367.997 L
99.88 367.997 L
100.066 367.996 L
100.252 367.996 L
100.438 367.996 L
100.624 367.996 L
100.81 367.996 L
100.997 367.996 L
101.183 367.995 L
101.369 367.995 L
101.555 367.995 L
101.741 367.995 L
101.928 367.994 L
102.114 367.994 L
102.3 367.994 L
102.486 367.994 L
102.672 367.993 L
102.858 367.993 L
103.045 367.993 L
103.231 367.993 L
103.417 367.992 L
103.603 367.992 L
103.789 367.992 L
103.976 367.991 L
104.162 367.991 L
104.348 367.99 L
104.534 367.99 L
104.72 367.99 L
104.906 367.989 L
105.093 367.989 L
105.279 367.988 L
105.465 367.988 L
105.651 367.987 L
105.837 367.987 L
106.024 367.986 L
106.21 367.986 L
106.396 367.985 L
106.582 367.984 L
106.768 367.984 L
106.954 367.983 L
107.141 367.983 L
107.327 367.982 L
107.513 367.981 L
107.699 367.98 L
107.885 367.98 L
108.072 367.979 L
108.258 367.978 L
108.444 367.977 L
108.63 367.976 L
108.816 367.975 L
109.003 367.974 L
109.189 367.973 L
109.375 367.972 L
109.561 367.971 L
109.747 367.97 L
109.933 367.969 L
110.12 367.968 L
110.306 367.966 L
110.492 367.965 L
110.678 367.964 L
110.864 367.962 L
111.051 367.961 L
111.237 367.959 L
111.423 367.958 L
111.609 367.956 L
111.795 367.955 L
111.981 367.953 L
112.168 367.951 L
112.354 367.949 L
112.54 367.948 L
112.726 367.946 L
112.912 367.944 L
113.099 367.942 L
113.285 367.94 L
113.471 367.937 L
113.657 367.935 L
113.843 367.933 L
114.029 367.93 L
114.216 367.928 L
114.402 367.925 L
114.588 367.923 L
114.774 367.92 L
114.96 367.917 L
115.147 367.914 L
115.333 367.911 L
115.519 367.908 L
115.705 367.905 L
115.891 367.901 L
116.077 367.898 L
116.264 367.894 L
116.45 367.891 L
116.636 367.887 L
116.822 367.883 L
117.008 367.879 L
117.195 367.875 L
117.381 367.871 L
117.567 367.866 L
117.753 367.862 L
117.939 367.857 L
118.126 367.853 L
118.312 367.848 L
118.498 367.843 L
118.684 367.837 L
118.87 367.832 L
119.056 367.826 L
119.243 367.821 L
119.429 367.815 L
119.615 367.809 L
119.801 367.803 L
119.987 367.796 L
120.174 367.79 L
120.36 367.783 L
120.546 367.776 L
120.732 367.769 L
120.918 367.761 L
121.104 367.754 L
121.291 367.746 L
121.477 367.738 L
121.663 367.73 L
121.849 367.721 L
122.035 367.713 L
122.222 367.704 L
122.408 367.694 L
122.594 367.685 L
122.78 367.675 L
122.966 367.665 L
123.152 367.655 L
123.339 367.644 L
123.525 367.634 L
123.711 367.623 L
123.897 367.611 L
124.083 367.599 L
124.27 367.587 L
124.456 367.575 L
124.642 367.562 L
124.828 367.549 L
125.014 367.536 L
125.201 367.522 L
125.387 367.508 L
125.573 367.494 L
125.759 367.479 L
125.945 367.464 L
126.131 367.449 L
126.318 367.433 L
126.504 367.416 L
126.69 367.399 L
126.876 367.382 L
127.062 367.365 L
127.249 367.347 L
127.435 367.328 L
127.621 367.309 L
127.807 367.29 L
127.993 367.27 L
128.179 367.249 L
128.366 367.229 L
128.552 367.207 L
128.738 367.185 L
128.924 367.163 L
129.11 367.14 L
129.297 367.116 L
129.483 367.092 L
129.669 367.068 L
129.855 367.042 L
130.041 367.016 L
130.227 366.99 L
130.414 366.963 L
130.6 366.935 L
130.786 366.907 L
130.972 366.878 L
131.158 366.848 L
131.345 366.818 L
131.531 366.787 L
131.717 366.755 L
131.903 366.723 L
132.089 366.69 L
132.275 366.656 L
132.462 366.621 L
132.648 366.586 L
132.834 366.55 L
133.02 366.513 L
133.206 366.475 L
133.393 366.436 L
133.579 366.397 L
133.765 366.357 L
133.951 366.316 L
134.137 366.274 L
134.324 366.231 L
134.51 366.187 L
134.696 366.142 L
134.882 366.096 L
135.068 366.05 L
135.254 366.002 L
135.441 365.953 L
135.627 365.904 L
135.813 365.853 L
135.999 365.801 L
136.185 365.749 L
136.372 365.695 L
136.558 365.64 L
136.744 365.584 L
136.93 365.527 L
137.116 365.469 L
137.302 365.409 L
137.489 365.349 L
137.675 365.287 L
137.861 365.224 L
138.047 365.16 L
138.233 365.095 L
138.42 365.028 L
138.606 364.96 L
138.792 364.891 L
138.978 364.82 L
139.164 364.748 L
139.35 364.675 L
139.537 364.6 L
139.723 364.524 L
139.909 364.447 L
140.095 364.368 L
140.281 364.288 L
140.468 364.206 L
140.654 364.122 L
140.84 364.038 L
141.026 363.951 L
141.212 363.863 L
141.398 363.774 L
141.585 363.683 L
141.771 363.59 L
141.957 363.496 L
142.143 363.4 L
142.329 363.302 L
142.516 363.203 L
142.702 363.102 L
142.888 362.999 L
143.074 362.895 L
143.26 362.788 L
143.447 362.68 L
143.633 362.57 L
143.819 362.459 L
144.005 362.345 L
144.191 362.229 L
144.377 362.112 L
144.564 361.993 L
144.75 361.871 L
144.936 361.748 L
145.122 361.623 L
145.308 361.495 L
145.495 361.366 L
145.681 361.235 L
145.867 361.101 L
146.053 360.965 L
146.239 360.828 L
146.425 360.688 L
146.612 360.546 L
146.798 360.401 L
146.984 360.255 L
147.17 360.106 L
147.356 359.955 L
147.543 359.802 L
147.729 359.646 L
147.915 359.488 L
148.101 359.328 L
148.287 359.165 L
148.473 359 L
148.66 358.833 L
148.846 358.663 L
149.032 358.49 L
149.218 358.316 L
149.404 358.138 L
149.591 357.958 L
149.777 357.776 L
149.963 357.591 L
150.149 357.403 L
150.335 357.213 L
150.521 357.02 L
150.708 356.824 L
150.894 356.626 L
151.08 356.425 L
151.266 356.221 L
151.452 356.014 L
151.639 355.805 L
151.825 355.593 L
152.011 355.378 L
152.197 355.16 L
152.383 354.94 L
152.57 354.716 L
152.756 354.49 L
152.942 354.261 L
153.128 354.028 L
153.314 353.793 L
153.5 353.555 L
153.687 353.314 L
153.873 353.07 L
154.059 352.822 L
154.245 352.572 L
154.431 352.319 L
154.618 352.062 L
154.804 351.802 L
154.99 351.54 L
155.176 351.274 L
155.362 351.004 L
155.548 350.732 L
155.735 350.456 L
155.921 350.178 L
156.107 349.896 L
156.293 349.61 L
156.479 349.322 L
156.666 349.03 L
156.852 348.734 L
157.038 348.436 L
157.224 348.134 L
157.41 347.829 L
157.596 347.52 L
157.783 347.208 L
157.969 346.892 L
158.155 346.573 L
158.341 346.251 L
158.527 345.925 L
158.714 345.595 L
158.9 345.262 L
159.086 344.926 L
159.272 344.586 L
159.458 344.243 L
159.644 343.896 L
159.831 343.545 L
160.017 343.191 L
160.203 342.833 L
160.389 342.472 L
160.575 342.107 L
160.762 341.738 L
160.948 341.366 L
161.134 340.99 L
161.32 340.61 L
161.506 340.227 L
161.693 339.84 L
161.879 339.45 L
162.065 339.055 L
162.251 338.657 L
162.437 338.256 L
162.623 337.85 L
162.81 337.441 L
162.996 337.028 L
163.182 336.611 L
163.368 336.191 L
163.554 335.767 L
163.741 335.339 L
163.927 334.907 L
164.113 334.472 L
164.299 334.032 L
164.485 333.589 L
164.671 333.143 L
164.858 332.692 L
165.044 332.238 L
165.23 331.779 L
165.416 331.317 L
165.602 330.851 L
165.789 330.382 L
165.975 329.908 L
166.161 329.431 L
166.347 328.95 L
166.533 328.465 L
166.719 327.977 L
166.906 327.484 L
167.092 326.988 L
167.278 326.488 L
167.464 325.984 L
167.65 325.476 L
167.837 324.965 L
168.023 324.45 L
168.209 323.93 L
168.395 323.408 L
168.581 322.881 L
168.767 322.351 L
168.954 321.816 L
169.14 321.279 L
169.326 320.737 L
169.512 320.191 L
169.698 319.642 L
169.885 319.089 L
170.071 318.533 L
170.257 317.972 L
170.443 317.408 L
170.629 316.84 L
170.816 316.269 L
171.002 315.694 L
171.188 315.115 L
171.374 314.532 L
171.56 313.946 L
171.746 313.356 L
171.933 312.763 L
172.119 312.166 L
172.305 311.565 L
172.491 310.961 L
172.677 310.353 L
172.864 309.742 L
173.05 309.127 L
173.236 308.508 L
173.422 307.886 L
173.608 307.261 L
173.794 306.632 L
173.981 305.999 L
174.167 305.364 L
174.353 304.724 L
174.539 304.082 L
174.725 303.435 L
174.912 302.786 L
175.098 302.133 L
175.284 301.477 L
175.47 300.817 L
175.656 300.155 L
175.842 299.488 L
176.029 298.819 L
176.215 298.146 L
176.401 297.471 L
176.587 296.792 L
176.773 296.11 L
176.96 295.424 L
177.146 294.736 L
177.332 294.044 L
177.518 293.35 L
177.704 292.652 L
177.89 291.951 L
178.077 291.248 L
178.263 290.541 L
178.449 289.831 L
178.635 289.119 L
178.821 288.403 L
179.008 287.685 L
179.194 286.964 L
179.38 286.24 L
179.566 285.513 L
179.752 284.784 L
179.938 284.052 L
180.125 283.317 L
180.311 282.579 L
180.497 281.839 L
180.683 281.096 L
180.869 280.35 L
181.056 279.602 L
181.242 278.852 L
181.428 278.099 L
181.614 277.343 L
181.8 276.586 L
181.987 275.825 L
182.173 275.063 L
182.359 274.298 L
182.545 273.53 L
182.731 272.761 L
182.917 271.989 L
183.104 271.215 L
183.29 270.439 L
183.476 269.66 L
183.662 268.88 L
183.848 268.098 L
184.035 267.313 L
184.221 266.527 L
184.407 265.738 L
184.593 264.948 L
184.779 264.155 L
184.965 263.361 L
185.152 262.565 L
185.338 261.768 L
185.524 260.968 L
185.71 260.167 L
185.896 259.364 L
186.083 258.56 L
186.269 257.754 L
186.455 256.946 L
186.641 256.137 L
186.827 255.326 L
187.013 254.514 L
187.2 253.7 L
187.386 252.885 L
187.572 252.069 L
187.758 251.251 L
187.944 250.432 L
188.131 249.612 L
188.317 248.791 L
188.503 247.969 L
188.689 247.145 L
188.875 246.32 L
189.062 245.495 L
189.248 244.668 L
189.434 243.84 L
189.62 243.012 L
189.806 242.182 L
189.992 241.352 L
190.179 240.521 L
190.365 239.689 L
190.551 238.857 L
190.737 238.023 L
190.923 237.189 L
191.11 236.355 L
191.296 235.52 L
191.482 234.684 L
191.668 233.848 L
191.854 233.011 L
192.04 232.174 L
192.227 231.337 L
192.413 230.499 L
192.599 229.661 L
192.785 228.823 L
192.971 227.984 L
193.158 227.146 L
193.344 226.307 L
193.53 225.468 L
193.716 224.629 L
193.902 223.79 L
194.088 222.951 L
194.275 222.112 L
194.461 221.273 L
194.647 220.434 L
194.833 219.595 L
195.019 218.757 L
195.206 217.919 L
195.392 217.081 L
195.578 216.243 L
195.764 215.406 L
195.95 214.569 L
196.136 213.732 L
196.323 212.896 L
196.509 212.061 L
196.695 211.226 L
196.881 210.392 L
197.067 209.558 L
197.254 208.725 L
197.44 207.892 L
197.626 207.061 L
197.812 206.23 L
197.998 205.4 L
198.184 204.57 L
198.371 203.742 L
198.557 202.914 L
198.743 202.088 L
198.929 201.262 L
199.115 200.437 L
199.302 199.614 L
199.488 198.791 L
199.674 197.97 L
199.86 197.15 L
200.046 196.331 L
200.233 195.513 L
200.419 194.696 L
200.605 193.881 L
200.791 193.067 L
200.977 192.254 L
201.163 191.443 L
201.35 190.633 L
201.536 189.825 L
201.722 189.018 L
201.908 188.212 L
202.094 187.408 L
202.281 186.606 L
202.467 185.805 L
202.653 185.006 L
202.839 184.209 L
203.025 183.413 L
203.211 182.619 L
203.398 181.827 L
203.584 181.037 L
203.77 180.248 L
203.956 179.461 L
204.142 178.677 L
204.329 177.894 L
204.515 177.113 L
204.701 176.334 L
204.887 175.557 L
205.073 174.782 L
205.259 174.009 L
205.446 173.238 L
205.632 172.469 L
205.818 171.702 L
206.004 170.938 L
206.19 170.175 L
206.377 169.415 L
206.563 168.657 L
206.749 167.902 L
206.935 167.148 L
207.121 166.397 L
207.307 165.649 L
207.494 164.902 L
207.68 164.158 L
207.866 163.417 L
208.052 162.678 L
208.238 161.941 L
208.425 161.207 L
208.611 160.475 L
208.797 159.746 L
208.983 159.019 L
209.169 158.295 L
209.356 157.574 L
209.542 156.855 L
209.728 156.138 L
209.914 155.425 L
210.1 154.714 L
210.286 154.006 L
210.473 153.3 L
210.659 152.597 L
210.845 151.897 L
211.031 151.2 L
211.217 150.505 L
211.404 149.813 L
211.59 149.124 L
211.776 148.438 L
211.962 147.755 L
212.148 147.074 L
212.334 146.397 L
212.521 145.722 L
212.707 145.051 L
212.893 144.382 L
213.079 143.716 L
213.265 143.053 L
213.452 142.393 L
213.638 141.736 L
213.824 141.082 L
214.01 140.431 L
214.196 139.783 L
214.382 139.138 L
214.569 138.497 L
214.755 137.858 L
214.941 137.222 L
215.127 136.59 L
215.313 135.96 L
215.5 135.334 L
215.686 134.711 L
215.872 134.091 L
216.058 133.474 L
216.244 132.86 L
216.43 132.249 L
216.617 131.642 L
216.803 131.037 L
216.989 130.436 L
217.175 129.838 L
217.361 129.244 L
217.548 128.652 L
217.734 128.064 L
217.92 127.479 L
218.106 126.897 L
218.292 126.319 L
218.479 125.743 L
218.665 125.171 L
218.851 124.603 L
219.037 124.037 L
219.223 123.475 L
219.409 122.916 L
219.596 122.36 L
219.782 121.808 L
219.968 121.259 L
220.154 120.713 L
220.34 120.171 L
220.527 119.632 L
220.713 119.096 L
220.899 118.563 L
221.085 118.034 L
221.271 117.508 L
221.457 116.985 L
221.644 116.466 L
221.83 115.95 L
222.016 115.438 L
222.202 114.928 L
222.388 114.422 L
222.575 113.92 L
222.761 113.42 L
222.947 112.924 L
223.133 112.432 L
223.319 111.942 L
223.505 111.456 L
223.692 110.973 L
223.878 110.494 L
224.064 110.018 L
224.25 109.545 L
224.436 109.076 L
224.623 108.61 L
224.809 108.147 L
224.995 107.687 L
225.181 107.231 L
225.367 106.778 L
225.553 106.329 L
225.74 105.882 L
225.926 105.439 L
226.112 105 L
226.298 104.563 L
226.484 104.13 L
226.671 103.7 L
226.857 103.274 L
227.043 102.85 L
227.229 102.43 L
227.415 102.014 L
227.602 101.6 L
227.788 101.19 L
227.974 100.783 L
228.16 100.379 L
228.346 99.978 L
228.532 99.581 L
228.719 99.187 L
228.905 98.796 L
229.091 98.408 L
229.277 98.024 L
229.463 97.642 L
229.65 97.264 L
229.836 96.889 L
230.022 96.518 L
230.208 96.149 L
230.394 95.783 L
230.58 95.421 L
230.767 95.062 L
230.953 94.706 L
231.139 94.353 L
231.325 94.003 L
231.511 93.656 L
231.698 93.312 L
231.884 92.972 L
232.07 92.634 L
232.256 92.3 L
232.442 91.968 L
232.628 91.64 L
232.815 91.315 L
233.001 90.992 L
233.187 90.673 L
233.373 90.357 L
233.559 90.043 L
233.746 89.733 L
233.932 89.425 L
234.118 89.121 L
234.304 88.819 L
234.49 88.521 L
234.676 88.225 L
234.863 87.932 L
235.049 87.643 L
235.235 87.356 L
235.421 87.072 L
235.607 86.79 L
235.794 86.512 L
235.98 86.236 L
236.166 85.964 L
236.352 85.694 L
236.538 85.427 L
236.725 85.162 L
236.911 84.901 L
237.097 84.642 L
237.283 84.386 L
237.469 84.133 L
237.655 83.882 L
237.842 83.635 L
238.028 83.389 L
238.214 83.147 L
238.4 82.907 L
238.586 82.67 L
238.773 82.436 L
238.959 82.204 L
239.145 81.974 L
239.331 81.748 L
239.517 81.524 L
239.703 81.302 L
239.89 81.083 L
240.076 80.867 L
240.262 80.653 L
240.448 80.442 L
240.634 80.233 L
240.821 80.027 L
241.007 79.823 L
241.193 79.622 L
241.379 79.423 L
241.565 79.226 L
241.751 79.032 L
241.938 78.841 L
242.124 78.651 L
242.31 78.465 L
242.496 78.28 L
242.682 78.098 L
242.869 77.918 L
243.055 77.741 L
243.241 77.565 L
243.427 77.392 L
243.613 77.222 L
243.799 77.053 L
243.986 76.887 L
244.172 76.723 L
244.358 76.562 L
244.544 76.402 L
244.73 76.245 L
244.917 76.09 L
245.103 75.937 L
245.289 75.786 L
245.475 75.637 L
245.661 75.49 L
245.848 75.346 L
246.034 75.203 L
246.22 75.063 L
246.406 74.925 L
246.592 74.788 L
246.778 74.654 L
246.965 74.522 L
247.151 74.391 L
247.337 74.263 L
247.523 74.137 L
247.709 74.012 L
247.896 73.89 L
248.082 73.769 L
248.268 73.65 L
248.454 73.534 L
248.64 73.419 L
248.826 73.306 L
249.013 73.194 L
249.199 73.085 L
249.385 72.977 L
249.571 72.871 L
249.757 72.767 L
249.944 72.665 L
250.13 72.564 L
250.316 72.466 L
250.502 72.368 L
250.688 72.273 L
250.874 72.179 L
251.061 72.087 L
251.247 71.997 L
251.433 71.908 L
251.619 71.821 L
251.805 71.735 L
251.992 71.651 L
252.178 71.569 L
252.364 71.488 L
252.55 71.409 L
252.736 71.331 L
252.923 71.255 L
253.109 71.181 L
253.295 71.107 L
253.481 71.036 L
253.667 70.965 L
253.853 70.897 L
254.04 70.829 L
254.226 70.763 L
254.412 70.699 L
254.598 70.636 L
254.784 70.574 L
254.971 70.514 L
255.157 70.455 L
255.343 70.397 L
255.529 70.34 L
255.715 70.285 L
255.901 70.232 L
256.088 70.179 L
256.274 70.128 L
256.46 70.078 L
256.646 70.029 L
256.832 69.981 L
257.019 69.935 L
257.205 69.89 L
257.391 69.846 L
257.577 69.803 L
257.763 69.762 L
257.949 69.721 L
258.136 69.682 L
258.322 69.643 L
258.508 69.606 L
258.694 69.57 L
258.88 69.535 L
259.067 69.501 L
259.253 69.468 L
259.439 69.436 L
259.625 69.405 L
259.811 69.376 L
259.997 69.347 L
260.184 69.319 L
260.37 69.292 L
260.556 69.266 L
260.742 69.241 L
260.928 69.217 L
261.115 69.193 L
261.301 69.171 L
261.487 69.15 L
261.673 69.129 L
261.859 69.11 L
262.046 69.091 L
262.232 69.073 L
262.418 69.056 L
262.604 69.039 L
262.79 69.024 L
262.976 69.009 L
263.163 68.995 L
263.349 68.982 L
263.535 68.97 L
263.721 68.958 L
263.907 68.947 L
264.094 68.937 L
264.28 68.927 L
264.466 68.918 L
264.652 68.91 L
264.838 68.903 L
265.024 68.896 L
265.211 68.89 L
265.397 68.884 L
265.583 68.879 L
265.769 68.875 L
265.955 68.871 L
266.142 68.868 L
266.328 68.866 L
266.514 68.864 L
266.7 68.862 L
266.886 68.862 L
267.072 68.861 L
267.259 68.862 L
267.445 68.862 L
267.631 68.864 L
267.817 68.866 L
268.003 68.868 L
268.19 68.871 L
268.376 68.874 L
268.562 68.877 L
268.748 68.882 L
268.934 68.886 L
269.12 68.891 L
269.307 68.897 L
269.493 68.902 L
269.679 68.909 L
269.865 68.915 L
270.051 68.922 L
270.238 68.929 L
270.424 68.937 L
270.61 68.945 L
270.796 68.954 L
270.982 68.962 L
271.168 68.971 L
271.355 68.981 L
271.541 68.99 L
271.727 69 L
271.913 69.011 L
272.099 69.021 L
272.286 69.032 L
272.472 69.043 L
272.658 69.054 L
272.844 69.066 L
273.03 69.078 L
273.217 69.09 L
273.403 69.102 L
273.589 69.114 L
273.775 69.127 L
273.961 69.14 L
274.147 69.153 L
274.334 69.166 L
274.52 69.179 L
274.706 69.193 L
274.892 69.207 L
275.078 69.221 L
275.265 69.234 L
275.451 69.249 L
275.637 69.263 L
275.823 69.277 L
276.009 69.292 L
276.195 69.306 L
276.382 69.321 L
276.568 69.336 L
276.754 69.35 L
276.94 69.365 L
277.126 69.38 L
277.313 69.395 L
277.499 69.41 L
277.685 69.425 L
277.871 69.441 L
278.057 69.456 L
278.243 69.471 L
278.43 69.486 L
278.616 69.501 L
278.802 69.517 L
278.988 69.532 L
279.174 69.547 L
279.361 69.562 L
279.547 69.578 L
279.733 69.593 L
279.919 69.608 L
280.105 69.623 L
280.292 69.638 L
280.478 69.653 L
280.664 69.668 L
280.85 69.683 L
281.036 69.698 L
281.222 69.713 L
281.409 69.728 L
281.595 69.742 L
281.781 69.757 L
281.967 69.771 L
282.153 69.786 L
282.34 69.8 L
282.526 69.814 L
282.712 69.829 L
282.898 69.843 L
283.084 69.856 L
283.27 69.87 L
283.457 69.884 L
283.643 69.897 L
283.829 69.911 L
284.015 69.924 L
284.201 69.937 L
284.388 69.95 L
284.574 69.963 L
284.76 69.975 L
284.946 69.988 L
285.132 70 L
285.318 70.012 L
285.505 70.024 L
285.691 70.036 L
285.877 70.048 L
286.063 70.059 L
286.249 70.07 L
286.436 70.082 L
286.622 70.092 L
286.808 70.103 L
286.994 70.114 L
287.18 70.124 L
287.366 70.134 L
287.553 70.144 L
287.739 70.154 L
287.925 70.163 L
288.111 70.172 L
288.297 70.182 L
288.484 70.19 L
288.67 70.199 L
288.856 70.207 L
289.042 70.216 L
289.228 70.223 L
289.414 70.231 L
289.601 70.239 L
289.787 70.246 L
289.973 70.253 L
290.159 70.26 L
290.345 70.266 L
290.532 70.272 L
290.718 70.279 L
290.904 70.284 L
291.09 70.29 L
291.276 70.295 L
291.463 70.3 L
291.649 70.305 L
291.835 70.31 L
292.021 70.314 L
292.207 70.318 L
292.393 70.322 L
292.58 70.325 L
292.766 70.328 L
292.952 70.332 L
293.138 70.334 L
293.324 70.337 L
293.511 70.339 L
293.697 70.341 L
293.883 70.343 L
294.069 70.344 L
294.255 70.345 L
294.441 70.346 L
294.628 70.347 L
294.814 70.347 L
295 70.347 L
295.186 70.347 L
295.372 70.347 L
295.559 70.346 L
295.745 70.345 L
295.931 70.344 L
296.117 70.343 L
296.303 70.341 L
296.489 70.339 L
296.676 70.337 L
296.862 70.334 L
297.048 70.332 L
297.234 70.328 L
297.42 70.325 L
297.607 70.322 L
297.793 70.318 L
297.979 70.314 L
298.165 70.31 L
298.351 70.305 L
298.537 70.3 L
298.724 70.295 L
298.91 70.29 L
299.096 70.284 L
299.282 70.279 L
299.468 70.272 L
299.655 70.266 L
299.841 70.26 L
300.027 70.253 L
300.213 70.246 L
300.399 70.239 L
300.586 70.231 L
300.772 70.223 L
300.958 70.216 L
301.144 70.207 L
301.33 70.199 L
301.516 70.19 L
301.703 70.182 L
301.889 70.172 L
302.075 70.163 L
302.261 70.154 L
302.447 70.144 L
302.634 70.134 L
302.82 70.124 L
303.006 70.114 L
303.192 70.103 L
303.378 70.092 L
303.564 70.082 L
303.751 70.07 L
303.937 70.059 L
304.123 70.048 L
304.309 70.036 L
304.495 70.024 L
304.682 70.012 L
304.868 70 L
305.054 69.988 L
305.24 69.975 L
305.426 69.963 L
305.612 69.95 L
305.799 69.937 L
305.985 69.924 L
306.171 69.911 L
306.357 69.897 L
306.543 69.884 L
306.73 69.87 L
306.916 69.856 L
307.102 69.843 L
307.288 69.829 L
307.474 69.814 L
307.66 69.8 L
307.847 69.786 L
308.033 69.771 L
308.219 69.757 L
308.405 69.742 L
308.591 69.728 L
308.778 69.713 L
308.964 69.698 L
309.15 69.683 L
309.336 69.668 L
309.522 69.653 L
309.708 69.638 L
309.895 69.623 L
310.081 69.608 L
310.267 69.593 L
310.453 69.578 L
310.639 69.562 L
310.826 69.547 L
311.012 69.532 L
311.198 69.517 L
311.384 69.501 L
311.57 69.486 L
311.757 69.471 L
311.943 69.456 L
312.129 69.441 L
312.315 69.425 L
312.501 69.41 L
312.687 69.395 L
312.874 69.38 L
313.06 69.365 L
313.246 69.35 L
313.432 69.336 L
313.618 69.321 L
313.805 69.306 L
313.991 69.292 L
314.177 69.277 L
314.363 69.263 L
314.549 69.249 L
314.735 69.234 L
314.922 69.221 L
315.108 69.207 L
315.294 69.193 L
315.48 69.179 L
315.666 69.166 L
315.853 69.153 L
316.039 69.14 L
316.225 69.127 L
316.411 69.114 L
316.597 69.102 L
316.783 69.09 L
316.97 69.078 L
317.156 69.066 L
317.342 69.054 L
317.528 69.043 L
317.714 69.032 L
317.901 69.021 L
318.087 69.011 L
318.273 69 L
318.459 68.99 L
318.645 68.981 L
318.832 68.971 L
319.018 68.962 L
319.204 68.954 L
319.39 68.945 L
319.576 68.937 L
319.762 68.929 L
319.949 68.922 L
320.135 68.915 L
320.321 68.909 L
320.507 68.902 L
320.693 68.897 L
320.88 68.891 L
321.066 68.886 L
321.252 68.882 L
321.438 68.877 L
321.624 68.874 L
321.81 68.871 L
321.997 68.868 L
322.183 68.866 L
322.369 68.864 L
322.555 68.862 L
322.741 68.862 L
322.928 68.861 L
323.114 68.862 L
323.3 68.862 L
323.486 68.864 L
323.672 68.866 L
323.858 68.868 L
324.045 68.871 L
324.231 68.875 L
324.417 68.879 L
324.603 68.884 L
324.789 68.89 L
324.976 68.896 L
325.162 68.903 L
325.348 68.91 L
325.534 68.918 L
325.72 68.927 L
325.906 68.937 L
326.093 68.947 L
326.279 68.958 L
326.465 68.97 L
326.651 68.982 L
326.837 68.995 L
327.024 69.009 L
327.21 69.024 L
327.396 69.039 L
327.582 69.056 L
327.768 69.073 L
327.954 69.091 L
328.141 69.11 L
328.327 69.129 L
328.513 69.15 L
328.699 69.171 L
328.885 69.193 L
329.072 69.217 L
329.258 69.241 L
329.444 69.266 L
329.63 69.292 L
329.816 69.319 L
330.003 69.347 L
330.189 69.376 L
330.375 69.405 L
330.561 69.436 L
330.747 69.468 L
330.933 69.501 L
331.12 69.535 L
331.306 69.57 L
331.492 69.606 L
331.678 69.643 L
331.864 69.682 L
332.051 69.721 L
332.237 69.762 L
332.423 69.803 L
332.609 69.846 L
332.795 69.89 L
332.981 69.935 L
333.168 69.981 L
333.354 70.029 L
333.54 70.078 L
333.726 70.128 L
333.912 70.179 L
334.099 70.232 L
334.285 70.285 L
334.471 70.34 L
334.657 70.397 L
334.843 70.455 L
335.029 70.514 L
335.216 70.574 L
335.402 70.636 L
335.588 70.699 L
335.774 70.763 L
335.96 70.829 L
336.147 70.897 L
336.333 70.965 L
336.519 71.036 L
336.705 71.107 L
336.891 71.181 L
337.078 71.255 L
337.264 71.331 L
337.45 71.409 L
337.636 71.488 L
337.822 71.569 L
338.008 71.651 L
338.195 71.735 L
338.381 71.821 L
338.567 71.908 L
338.753 71.997 L
338.939 72.087 L
339.126 72.179 L
339.312 72.273 L
339.498 72.368 L
339.684 72.466 L
339.87 72.564 L
340.056 72.665 L
340.243 72.767 L
340.429 72.871 L
340.615 72.977 L
340.801 73.085 L
340.987 73.194 L
341.174 73.306 L
341.36 73.419 L
341.546 73.534 L
341.732 73.65 L
341.918 73.769 L
342.104 73.89 L
342.291 74.012 L
342.477 74.137 L
342.663 74.263 L
342.849 74.391 L
343.035 74.522 L
343.222 74.654 L
343.408 74.788 L
343.594 74.925 L
343.78 75.063 L
343.966 75.203 L
344.152 75.346 L
344.339 75.49 L
344.525 75.637 L
344.711 75.786 L
344.897 75.937 L
345.083 76.09 L
345.27 76.245 L
345.456 76.402 L
345.642 76.562 L
345.828 76.723 L
346.014 76.887 L
346.201 77.053 L
346.387 77.222 L
346.573 77.392 L
346.759 77.565 L
346.945 77.741 L
347.131 77.918 L
347.318 78.098 L
347.504 78.28 L
347.69 78.465 L
347.876 78.651 L
348.062 78.841 L
348.249 79.032 L
348.435 79.226 L
348.621 79.423 L
348.807 79.622 L
348.993 79.823 L
349.179 80.027 L
349.366 80.233 L
349.552 80.442 L
349.738 80.653 L
349.924 80.867 L
350.11 81.083 L
350.297 81.302 L
350.483 81.524 L
350.669 81.748 L
350.855 81.974 L
351.041 82.204 L
351.227 82.436 L
351.414 82.67 L
351.6 82.907 L
351.786 83.147 L
351.972 83.389 L
352.158 83.635 L
352.345 83.882 L
352.531 84.133 L
352.717 84.386 L
352.903 84.642 L
353.089 84.901 L
353.275 85.162 L
353.462 85.427 L
353.648 85.694 L
353.834 85.964 L
354.02 86.236 L
354.206 86.512 L
354.393 86.79 L
354.579 87.072 L
354.765 87.356 L
354.951 87.643 L
355.137 87.932 L
355.324 88.225 L
355.51 88.521 L
355.696 88.819 L
355.882 89.121 L
356.068 89.425 L
356.254 89.733 L
356.441 90.043 L
356.627 90.357 L
356.813 90.673 L
356.999 90.992 L
357.185 91.315 L
357.372 91.64 L
357.558 91.968 L
357.744 92.3 L
357.93 92.634 L
358.116 92.972 L
358.302 93.312 L
358.489 93.656 L
358.675 94.003 L
358.861 94.353 L
359.047 94.706 L
359.233 95.062 L
359.42 95.421 L
359.606 95.783 L
359.792 96.149 L
359.978 96.518 L
360.164 96.889 L
360.35 97.264 L
360.537 97.642 L
360.723 98.024 L
360.909 98.408 L
361.095 98.796 L
361.281 99.187 L
361.468 99.581 L
361.654 99.978 L
361.84 100.379 L
362.026 100.783 L
362.212 101.19 L
362.398 101.6 L
362.585 102.014 L
362.771 102.43 L
362.957 102.85 L
363.143 103.274 L
363.329 103.7 L
363.516 104.13 L
363.702 104.563 L
363.888 105 L
364.074 105.439 L
364.26 105.882 L
364.447 106.329 L
364.633 106.778 L
364.819 107.231 L
365.005 107.687 L
365.191 108.147 L
365.377 108.61 L
365.564 109.076 L
365.75 109.545 L
365.936 110.018 L
366.122 110.494 L
366.308 110.973 L
366.495 111.456 L
366.681 111.942 L
366.867 112.432 L
367.053 112.924 L
367.239 113.42 L
367.425 113.92 L
367.612 114.422 L
367.798 114.928 L
367.984 115.438 L
368.17 115.95 L
368.356 116.466 L
368.543 116.985 L
368.729 117.508 L
368.915 118.034 L
369.101 118.563 L
369.287 119.096 L
369.473 119.632 L
369.66 120.171 L
369.846 120.713 L
370.032 121.259 L
370.218 121.808 L
370.404 122.36 L
370.591 122.916 L
370.777 123.475 L
370.963 124.037 L
371.149 124.603 L
371.335 125.171 L
371.521 125.743 L
371.708 126.319 L
371.894 126.897 L
372.08 127.479 L
372.266 128.064 L
372.452 128.652 L
372.639 129.244 L
372.825 129.838 L
373.011 130.436 L
373.197 131.037 L
373.383 131.642 L
373.569 132.249 L
373.756 132.86 L
373.942 133.474 L
374.128 134.091 L
374.314 134.711 L
374.5 135.334 L
374.687 135.96 L
374.873 136.59 L
375.059 137.222 L
375.245 137.858 L
375.431 138.497 L
375.618 139.138 L
375.804 139.783 L
375.99 140.431 L
376.176 141.082 L
376.362 141.736 L
376.548 142.393 L
376.735 143.053 L
376.921 143.716 L
377.107 144.382 L
377.293 145.051 L
377.479 145.722 L
377.666 146.397 L
377.852 147.074 L
378.038 147.755 L
378.224 148.438 L
378.41 149.124 L
378.596 149.813 L
378.783 150.505 L
378.969 151.2 L
379.155 151.897 L
379.341 152.597 L
379.527 153.3 L
379.714 154.006 L
379.9 154.714 L
380.086 155.425 L
380.272 156.138 L
380.458 156.855 L
380.644 157.574 L
380.831 158.295 L
381.017 159.019 L
381.203 159.746 L
381.389 160.475 L
381.575 161.207 L
381.762 161.941 L
381.948 162.678 L
382.134 163.417 L
382.32 164.158 L
382.506 164.902 L
382.693 165.649 L
382.879 166.397 L
383.065 167.148 L
383.251 167.902 L
383.437 168.657 L
383.623 169.415 L
383.81 170.175 L
383.996 170.938 L
384.182 171.702 L
384.368 172.469 L
384.554 173.238 L
384.741 174.009 L
384.927 174.782 L
385.113 175.557 L
385.299 176.334 L
385.485 177.113 L
385.671 177.894 L
385.858 178.677 L
386.044 179.461 L
386.23 180.248 L
386.416 181.037 L
386.602 181.827 L
386.789 182.619 L
386.975 183.413 L
387.161 184.209 L
387.347 185.006 L
387.533 185.805 L
387.719 186.606 L
387.906 187.408 L
388.092 188.212 L
388.278 189.018 L
388.464 189.825 L
388.65 190.633 L
388.837 191.443 L
389.023 192.254 L
389.209 193.067 L
389.395 193.881 L
389.581 194.696 L
389.767 195.513 L
389.954 196.331 L
390.14 197.15 L
390.326 197.97 L
390.512 198.791 L
390.698 199.614 L
390.885 200.437 L
391.071 201.262 L
391.257 202.088 L
391.443 202.914 L
391.629 203.742 L
391.816 204.57 L
392.002 205.4 L
392.188 206.23 L
392.374 207.061 L
392.56 207.892 L
392.746 208.725 L
392.933 209.558 L
393.119 210.392 L
393.305 211.226 L
393.491 212.061 L
393.677 212.896 L
393.864 213.732 L
394.05 214.569 L
394.236 215.406 L
394.422 216.243 L
394.608 217.081 L
394.794 217.919 L
394.981 218.757 L
395.167 219.595 L
395.353 220.434 L
395.539 221.273 L
395.725 222.112 L
395.912 222.951 L
396.098 223.79 L
396.284 224.629 L
396.47 225.468 L
396.656 226.307 L
396.842 227.146 L
397.029 227.984 L
397.215 228.823 L
397.401 229.661 L
397.587 230.499 L
397.773 231.337 L
397.96 232.174 L
398.146 233.011 L
398.332 233.848 L
398.518 234.684 L
398.704 235.52 L
398.89 236.355 L
399.077 237.189 L
399.263 238.023 L
399.449 238.857 L
399.635 239.689 L
399.821 240.521 L
400.008 241.352 L
400.194 242.182 L
400.38 243.012 L
400.566 243.84 L
400.752 244.668 L
400.939 245.495 L
401.125 246.32 L
401.311 247.145 L
401.497 247.969 L
401.683 248.791 L
401.869 249.612 L
402.056 250.432 L
402.242 251.251 L
402.428 252.069 L
402.614 252.885 L
402.8 253.7 L
402.987 254.514 L
403.173 255.326 L
403.359 256.137 L
403.545 256.946 L
403.731 257.754 L
403.917 258.56 L
404.104 259.364 L
404.29 260.167 L
404.476 260.968 L
404.662 261.768 L
404.848 262.565 L
405.035 263.361 L
405.221 264.155 L
405.407 264.948 L
405.593 265.738 L
405.779 266.527 L
405.965 267.313 L
406.152 268.098 L
406.338 268.88 L
406.524 269.66 L
406.71 270.439 L
406.896 271.215 L
407.083 271.989 L
407.269 272.761 L
407.455 273.53 L
407.641 274.298 L
407.827 275.063 L
408.013 275.825 L
408.2 276.586 L
408.386 277.343 L
408.572 278.099 L
408.758 278.852 L
408.944 279.602 L
409.131 280.35 L
409.317 281.096 L
409.503 281.839 L
409.689 282.579 L
409.875 283.317 L
410.061 284.052 L
410.248 284.784 L
410.434 285.513 L
410.62 286.24 L
410.806 286.964 L
410.992 287.685 L
411.179 288.403 L
411.365 289.119 L
411.551 289.831 L
411.737 290.541 L
411.923 291.248 L
412.11 291.951 L
412.296 292.652 L
412.482 293.35 L
412.668 294.044 L
412.854 294.736 L
413.04 295.424 L
413.227 296.11 L
413.413 296.792 L
413.599 297.471 L
413.785 298.146 L
413.971 298.819 L
414.158 299.488 L
414.344 300.155 L
414.53 300.817 L
414.716 301.477 L
414.902 302.133 L
415.088 302.786 L
415.275 303.435 L
415.461 304.082 L
415.647 304.724 L
415.833 305.364 L
416.019 305.999 L
416.206 306.632 L
416.392 307.261 L
416.578 307.886 L
416.764 308.508 L
416.95 309.127 L
417.136 309.742 L
417.323 310.353 L
417.509 310.961 L
417.695 311.565 L
417.881 312.166 L
418.067 312.763 L
418.254 313.356 L
418.44 313.946 L
418.626 314.532 L
418.812 315.115 L
418.998 315.694 L
419.184 316.269 L
419.371 316.84 L
419.557 317.408 L
419.743 317.972 L
419.929 318.533 L
420.115 319.089 L
420.302 319.642 L
420.488 320.191 L
420.674 320.737 L
420.86 321.279 L
421.046 321.816 L
421.233 322.351 L
421.419 322.881 L
421.605 323.408 L
421.791 323.93 L
421.977 324.45 L
422.163 324.965 L
422.35 325.476 L
422.536 325.984 L
422.722 326.488 L
422.908 326.988 L
423.094 327.484 L
423.281 327.977 L
423.467 328.465 L
423.653 328.95 L
423.839 329.431 L
424.025 329.908 L
424.211 330.382 L
424.398 330.851 L
424.584 331.317 L
424.77 331.779 L
424.956 332.238 L
425.142 332.692 L
425.329 333.143 L
425.515 333.589 L
425.701 334.032 L
425.887 334.472 L
426.073 334.907 L
426.259 335.339 L
426.446 335.767 L
426.632 336.191 L
426.818 336.611 L
427.004 337.028 L
427.19 337.441 L
427.377 337.85 L
427.563 338.256 L
427.749 338.657 L
427.935 339.055 L
428.121 339.45 L
428.307 339.84 L
428.494 340.227 L
428.68 340.61 L
428.866 340.99 L
429.052 341.366 L
429.238 341.738 L
429.425 342.107 L
429.611 342.472 L
429.797 342.833 L
429.983 343.191 L
430.169 343.545 L
430.355 343.896 L
430.542 344.243 L
430.728 344.586 L
430.914 344.926 L
431.1 345.262 L
431.286 345.595 L
431.473 345.925 L
431.659 346.251 L
431.845 346.573 L
432.031 346.892 L
432.217 347.208 L
432.404 347.52 L
432.59 347.829 L
432.776 348.134 L
432.962 348.436 L
433.148 348.734 L
433.334 349.03 L
433.521 349.322 L
433.707 349.61 L
433.893 349.896 L
434.079 350.178 L
434.265 350.456 L
434.452 350.732 L
434.638 351.004 L
434.824 351.274 L
435.01 351.54 L
435.196 351.802 L
435.382 352.062 L
435.569 352.319 L
435.755 352.572 L
435.941 352.822 L
436.127 353.07 L
436.313 353.314 L
436.5 353.555 L
436.686 353.793 L
436.872 354.028 L
437.058 354.261 L
437.244 354.49 L
437.431 354.716 L
437.617 354.94 L
437.803 355.16 L
437.989 355.378 L
438.175 355.593 L
438.361 355.805 L
438.548 356.014 L
438.734 356.221 L
438.92 356.425 L
439.106 356.626 L
439.292 356.824 L
439.479 357.02 L
439.665 357.213 L
439.851 357.403 L
440.037 357.591 L
440.223 357.776 L
440.409 357.958 L
440.596 358.138 L
440.782 358.316 L
440.968 358.49 L
441.154 358.663 L
441.34 358.833 L
441.527 359 L
441.713 359.165 L
441.899 359.328 L
442.085 359.488 L
442.271 359.646 L
442.457 359.802 L
442.644 359.955 L
442.83 360.106 L
443.016 360.255 L
443.202 360.401 L
443.388 360.546 L
443.575 360.688 L
443.761 360.828 L
443.947 360.965 L
444.133 361.101 L
444.319 361.235 L
444.505 361.366 L
444.692 361.495 L
444.878 361.623 L
445.064 361.748 L
445.25 361.871 L
445.436 361.993 L
445.623 362.112 L
445.809 362.229 L
445.995 362.345 L
446.181 362.459 L
446.367 362.57 L
446.553 362.68 L
446.74 362.788 L
446.926 362.895 L
447.112 362.999 L
447.298 363.102 L
447.484 363.203 L
447.671 363.302 L
447.857 363.4 L
448.043 363.496 L
448.229 363.59 L
448.415 363.683 L
448.602 363.774 L
448.788 363.863 L
448.974 363.951 L
449.16 364.038 L
449.346 364.122 L
449.532 364.206 L
449.719 364.288 L
449.905 364.368 L
450.091 364.447 L
450.277 364.524 L
450.463 364.6 L
450.65 364.675 L
450.836 364.748 L
451.022 364.82 L
451.208 364.891 L
451.394 364.96 L
451.58 365.028 L
451.767 365.095 L
451.953 365.16 L
452.139 365.224 L
452.325 365.287 L
452.511 365.349 L
452.698 365.409 L
452.884 365.469 L
453.07 365.527 L
453.256 365.584 L
453.442 365.64 L
453.628 365.695 L
453.815 365.749 L
454.001 365.801 L
454.187 365.853 L
454.373 365.904 L
454.559 365.953 L
454.746 366.002 L
454.932 366.05 L
455.118 366.096 L
455.304 366.142 L
455.49 366.187 L
455.676 366.231 L
455.863 366.274 L
456.049 366.316 L
456.235 366.357 L
456.421 366.397 L
456.607 366.436 L
456.794 366.475 L
456.98 366.513 L
457.166 366.55 L
457.352 366.586 L
457.538 366.621 L
457.725 366.656 L
457.911 366.69 L
458.097 366.723 L
458.283 366.755 L
458.469 366.787 L
458.655 366.818 L
458.842 366.848 L
459.028 366.878 L
459.214 366.907 L
459.4 366.935 L
459.586 366.963 L
459.773 366.99 L
459.959 367.016 L
460.145 367.042 L
460.331 367.068 L
460.517 367.092 L
460.703 367.116 L
460.89 367.14 L
461.076 367.163 L
461.262 367.185 L
461.448 367.207 L
461.634 367.229 L
461.821 367.249 L
462.007 367.27 L
462.193 367.29 L
462.379 367.309 L
462.565 367.328 L
462.751 367.347 L
462.938 367.365 L
463.124 367.382 L
463.31 367.399 L
463.496 367.416 L
463.682 367.433 L
463.869 367.449 L
464.055 367.464 L
464.241 367.479 L
464.427 367.494 L
464.613 367.508 L
464.799 367.522 L
464.986 367.536 L
465.172 367.549 L
465.358 367.562 L
465.544 367.575 L
465.73 367.587 L
465.917 367.599 L
466.103 367.611 L
466.289 367.623 L
466.475 367.634 L
466.661 367.644 L
466.848 367.655 L
467.034 367.665 L
467.22 367.675 L
467.406 367.685 L
467.592 367.694 L
467.778 367.704 L
467.965 367.713 L
468.151 367.721 L
468.337 367.73 L
468.523 367.738 L
468.709 367.746 L
468.896 367.754 L
469.082 367.761 L
469.268 367.769 L
469.454 367.776 L
469.64 367.783 L
469.826 367.79 L
470.013 367.796 L
470.199 367.803 L
470.385 367.809 L
470.571 367.815 L
470.757 367.821 L
470.944 367.826 L
471.13 367.832 L
471.316 367.837 L
471.502 367.843 L
471.688 367.848 L
471.874 367.853 L
472.061 367.857 L
472.247 367.862 L
472.433 367.866 L
472.619 367.871 L
472.805 367.875 L
472.992 367.879 L
473.178 367.883 L
473.364 367.887 L
473.55 367.891 L
473.736 367.894 L
473.922 367.898 L
474.109 367.901 L
474.295 367.905 L
474.481 367.908 L
474.667 367.911 L
474.853 367.914 L
475.04 367.917 L
475.226 367.92 L
475.412 367.923 L
475.598 367.925 L
475.784 367.928 L
475.971 367.93 L
476.157 367.933 L
476.343 367.935 L
476.529 367.937 L
476.715 367.94 L
476.901 367.942 L
477.088 367.944 L
477.274 367.946 L
477.46 367.948 L
477.646 367.949 L
477.832 367.951 L
478.019 367.953 L
478.205 367.955 L
478.391 367.956 L
478.577 367.958 L
478.763 367.959 L
478.949 367.961 L
479.136 367.962 L
479.322 367.964 L
479.508 367.965 L
479.694 367.966 L
479.88 367.968 L
480.067 367.969 L
480.253 367.97 L
480.439 367.971 L
480.625 367.972 L
480.811 367.973 L
480.997 367.974 L
481.184 367.975 L
481.37 367.976 L
481.556 367.977 L
481.742 367.978 L
481.928 367.979 L
482.115 367.98 L
482.301 367.98 L
482.487 367.981 L
482.673 367.982 L
482.859 367.983 L
483.046 367.983 L
483.232 367.984 L
483.418 367.984 L
483.604 367.985 L
483.79 367.986 L
483.976 367.986 L
484.163 367.987 L
484.349 367.987 L
484.535 367.988 L
484.721 367.988 L
484.907 367.989 L
485.094 367.989 L
485.28 367.99 L
485.466 367.99 L
485.652 367.99 L
485.838 367.991 L
486.024 367.991 L
486.211 367.992 L
486.397 367.992 L
486.583 367.992 L
486.769 367.993 L
486.955 367.993 L
487.142 367.993 L
487.328 367.993 L
487.514 367.994 L
487.7 367.994 L
487.886 367.994 L
488.072 367.994 L
488.259 367.995 L
488.445 367.995 L
488.631 367.995 L
488.817 367.995 L
489.003 367.996 L
489.19 367.996 L
489.376 367.996 L
489.562 367.996 L
489.748 367.996 L
489.934 367.996 L
490.12 367.997 L
490.307 367.997 L
490.493 367.997 L
490.679 367.997 L
490.865 367.997 L
491.051 367.997 L
491.238 367.997 L
491.424 367.997 L
491.61 367.998 L
491.796 367.998 L
491.982 367.998 L
492.168 367.998 L
492.355 367.998 L
492.541 367.998 L
492.727 367.998 L
492.913 367.998 L
493.099 367.998 L
493.286 367.998 L
493.472 367.999 L
493.658 367.999 L
493.844 367.999 L
494.03 367.999 L
494.217 367.999 L
494.403 367.999 L
494.589 367.999 L
494.775 367.999 L
494.961 367.999 L
495.147 367.999 L
495.334 367.999 L
495.52 367.999 L
495.706 367.999 L
495.892 367.999 L
496.078 367.999 L
496.265 367.999 L
496.451 367.999 L
496.637 367.999 L
496.823 367.999 L
497.009 367.999 L
497.195 367.999 L
497.382 367.999 L
497.568 367.999 L
497.754 368 L
497.94 368 L
498.126 368 L
498.313 368 L
498.499 368 L
498.685 368 L
498.871 368 L
499.057 368 L
499.243 368 L
499.43 368 L
499.616 368 L
499.802 368 L
499.988 368 L
500.174 368 L
500.361 368 L
500.547 368 L
500.733 368 L
500.919 368 L
501.105 368 L
501.291 368 L
501.478 368 L
501.664 368 L
501.85 368 L
502.036 368 L
502.222 368 L
502.409 368 L
502.595 368 L
502.781 368 L
502.967 368 L
503.153 368 L
503.34 368 L
503.526 368 L
503.712 368 L
503.898 368 L
504.084 368 L
504.27 368 L
504.457 368 L
504.643 368 L
504.829 368 L
505.015 368 L
505.201 368 L
505.388 368 L
505.574 368 L
505.76 368 L
505.946 368 L
506.132 368 L
506.318 368 L
506.505 368 L
506.691 368 L
506.877 368 L
507.063 368 L
507.249 368 L
507.436 368 L
507.622 368 L
507.808 368 L
507.994 368 L
508.18 368 L
508.366 368 L
508.553 368 L
508.739 368 L
508.925 368 L
509.111 368 L
509.297 368 L
509.484 368 L
509.67 368 L
509.856 368 L
510.042 368 L
510.228 368 L
510.414 368 L
510.601 368 L
510.787 368 L
510.973 368 L
511.159 368 L
511.345 368 L
511.532 368 L
511.718 368 L
511.904 368 L
512.09 368 L
512.276 368 L
512.463 368 L
512.649 368 L
512.835 368 L
513.021 368 L
513.207 368 L
513.393 368 L
513.58 368 L
513.766 368 L
513.952 368 L
514.138 368 L
514.324 368 L
514.51 368 L
514.697 368 L
514.883 368 L
515.069 368 L
515.255 368 L
515.441 368 L
515.628 368 L
515.814 368 L
516 368 L
S
GR
%%Trailer
%%Pages: 1
%%EOF
